G04 #@! TF.GenerationSoftware,KiCad,Pcbnew,7.0.11-2.fc38*
G04 #@! TF.CreationDate,2024-06-12T11:32:52+02:00*
G04 #@! TF.ProjectId,LMB,4c4d422e-6b69-4636-9164-5f7063625858,1*
G04 #@! TF.SameCoordinates,Original*
G04 #@! TF.FileFunction,Soldermask,Bot*
G04 #@! TF.FilePolarity,Negative*
%FSLAX46Y46*%
G04 Gerber Fmt 4.6, Leading zero omitted, Abs format (unit mm)*
G04 Created by KiCad (PCBNEW 7.0.11-2.fc38) date 2024-06-12 11:32:52*
%MOMM*%
%LPD*%
G01*
G04 APERTURE LIST*
G04 Aperture macros list*
%AMRoundRect*
0 Rectangle with rounded corners*
0 $1 Rounding radius*
0 $2 $3 $4 $5 $6 $7 $8 $9 X,Y pos of 4 corners*
0 Add a 4 corners polygon primitive as box body*
4,1,4,$2,$3,$4,$5,$6,$7,$8,$9,$2,$3,0*
0 Add four circle primitives for the rounded corners*
1,1,$1+$1,$2,$3*
1,1,$1+$1,$4,$5*
1,1,$1+$1,$6,$7*
1,1,$1+$1,$8,$9*
0 Add four rect primitives between the rounded corners*
20,1,$1+$1,$2,$3,$4,$5,0*
20,1,$1+$1,$4,$5,$6,$7,0*
20,1,$1+$1,$6,$7,$8,$9,0*
20,1,$1+$1,$8,$9,$2,$3,0*%
G04 Aperture macros list end*
%ADD10C,1.550000*%
%ADD11R,2.000000X2.000000*%
%ADD12R,1.700000X1.700000*%
%ADD13O,1.700000X1.700000*%
%ADD14C,1.600000*%
%ADD15R,1.350000X1.350000*%
%ADD16O,1.350000X1.350000*%
%ADD17C,6.400000*%
%ADD18C,2.050000*%
%ADD19C,2.250000*%
%ADD20C,3.050000*%
%ADD21C,1.524000*%
%ADD22C,2.200000*%
%ADD23R,1.600000X1.600000*%
%ADD24C,3.250000*%
%ADD25C,1.400000*%
%ADD26R,2.600000X2.600000*%
%ADD27C,2.600000*%
%ADD28RoundRect,0.140000X0.170000X-0.140000X0.170000X0.140000X-0.170000X0.140000X-0.170000X-0.140000X0*%
%ADD29RoundRect,0.140000X0.140000X0.170000X-0.140000X0.170000X-0.140000X-0.170000X0.140000X-0.170000X0*%
%ADD30RoundRect,0.250000X-0.250000X-0.475000X0.250000X-0.475000X0.250000X0.475000X-0.250000X0.475000X0*%
%ADD31RoundRect,0.250000X-0.475000X0.250000X-0.475000X-0.250000X0.475000X-0.250000X0.475000X0.250000X0*%
%ADD32RoundRect,0.250000X0.250000X0.475000X-0.250000X0.475000X-0.250000X-0.475000X0.250000X-0.475000X0*%
%ADD33RoundRect,0.140000X-0.140000X-0.170000X0.140000X-0.170000X0.140000X0.170000X-0.140000X0.170000X0*%
%ADD34RoundRect,0.140000X-0.021213X0.219203X-0.219203X0.021213X0.021213X-0.219203X0.219203X-0.021213X0*%
%ADD35RoundRect,0.250000X-1.100000X0.325000X-1.100000X-0.325000X1.100000X-0.325000X1.100000X0.325000X0*%
%ADD36RoundRect,0.250000X0.475000X-0.250000X0.475000X0.250000X-0.475000X0.250000X-0.475000X-0.250000X0*%
%ADD37RoundRect,0.140000X-0.170000X0.140000X-0.170000X-0.140000X0.170000X-0.140000X0.170000X0.140000X0*%
%ADD38RoundRect,0.250000X0.159099X-0.512652X0.512652X-0.159099X-0.159099X0.512652X-0.512652X0.159099X0*%
%ADD39RoundRect,0.218750X0.218750X0.256250X-0.218750X0.256250X-0.218750X-0.256250X0.218750X-0.256250X0*%
%ADD40RoundRect,0.218750X-0.218750X-0.256250X0.218750X-0.256250X0.218750X0.256250X-0.218750X0.256250X0*%
%ADD41RoundRect,0.218750X-0.256250X0.218750X-0.256250X-0.218750X0.256250X-0.218750X0.256250X0.218750X0*%
%ADD42RoundRect,0.135000X-0.135000X-0.185000X0.135000X-0.185000X0.135000X0.185000X-0.135000X0.185000X0*%
%ADD43RoundRect,0.135000X0.185000X-0.135000X0.185000X0.135000X-0.185000X0.135000X-0.185000X-0.135000X0*%
%ADD44RoundRect,0.135000X-0.185000X0.135000X-0.185000X-0.135000X0.185000X-0.135000X0.185000X0.135000X0*%
%ADD45RoundRect,0.135000X0.135000X0.185000X-0.135000X0.185000X-0.135000X-0.185000X0.135000X-0.185000X0*%
%ADD46R,1.700000X2.540000*%
%ADD47RoundRect,0.225000X-0.250000X0.225000X-0.250000X-0.225000X0.250000X-0.225000X0.250000X0.225000X0*%
%ADD48RoundRect,0.225000X-0.225000X-0.250000X0.225000X-0.250000X0.225000X0.250000X-0.225000X0.250000X0*%
%ADD49RoundRect,0.062500X-0.062500X0.375000X-0.062500X-0.375000X0.062500X-0.375000X0.062500X0.375000X0*%
%ADD50RoundRect,0.062500X-0.375000X0.062500X-0.375000X-0.062500X0.375000X-0.062500X0.375000X0.062500X0*%
G04 APERTURE END LIST*
D10*
X91825000Y-55925000D03*
X82225000Y-55925000D03*
D11*
X94150000Y-25025000D03*
X85575000Y-25025000D03*
X79900000Y-30025000D03*
X94150000Y-35025000D03*
X79900000Y-40025000D03*
X94150000Y-45025000D03*
X88475000Y-45025000D03*
X83075000Y-45025000D03*
X94150000Y-47825000D03*
X79900000Y-47825000D03*
X79900000Y-50025000D03*
X94150000Y-52525000D03*
X79900000Y-52525000D03*
X94160000Y-55025000D03*
X94150000Y-57525000D03*
X79900000Y-57525000D03*
X79900000Y-60025000D03*
X91825000Y-62125000D03*
X87025000Y-62125000D03*
X82225000Y-62125000D03*
D12*
X35000000Y-170000000D03*
D13*
X35000000Y-167460000D03*
X37540000Y-170000000D03*
X37540000Y-167460000D03*
X40080000Y-170000000D03*
X40080000Y-167460000D03*
X42620000Y-170000000D03*
X42620000Y-167460000D03*
X45160000Y-170000000D03*
X45160000Y-167460000D03*
X47700000Y-170000000D03*
X47700000Y-167460000D03*
X50240000Y-170000000D03*
X50240000Y-167460000D03*
X52780000Y-170000000D03*
X52780000Y-167460000D03*
D14*
X169550000Y-123000000D03*
X204450000Y-123000000D03*
X154450000Y-148750000D03*
X119550000Y-148750000D03*
X169550000Y-159000000D03*
X204450000Y-159000000D03*
X154450000Y-184750000D03*
X119550000Y-184750000D03*
X169550000Y-195000000D03*
X204450000Y-195000000D03*
X119550000Y-123000000D03*
X154450000Y-123000000D03*
X204450000Y-148750000D03*
X169550000Y-148750000D03*
X119550000Y-159000000D03*
X154450000Y-159000000D03*
X204450000Y-184750000D03*
X169550000Y-184750000D03*
X119550000Y-195000000D03*
X154450000Y-195000000D03*
D15*
X35700000Y-101050000D03*
D16*
X37700000Y-101050000D03*
X35700000Y-103050000D03*
X37700000Y-103050000D03*
X35700000Y-105050000D03*
X37700000Y-105050000D03*
X35700000Y-107050000D03*
X37700000Y-107050000D03*
X35700000Y-109050000D03*
X37700000Y-109050000D03*
X35700000Y-111050000D03*
X37700000Y-111050000D03*
X35700000Y-113050000D03*
X37700000Y-113050000D03*
D17*
X200500000Y-55000000D03*
X53000000Y-55000000D03*
X135000000Y-55000000D03*
X53000000Y-189875000D03*
X212000000Y-189875000D03*
X162000000Y-189875000D03*
D18*
X36500000Y-67300000D03*
D19*
X39040000Y-64760000D03*
X33960000Y-64760000D03*
X39040000Y-69840000D03*
X33960000Y-69840000D03*
D18*
X47600000Y-67300000D03*
D19*
X50140000Y-64760000D03*
X45060000Y-64760000D03*
X50140000Y-69840000D03*
X45060000Y-69840000D03*
D12*
X35000000Y-147140000D03*
D13*
X35000000Y-144600000D03*
X37540000Y-147140000D03*
X37540000Y-144600000D03*
X40080000Y-147140000D03*
X40080000Y-144600000D03*
X42620000Y-147140000D03*
X42620000Y-144600000D03*
X45160000Y-147140000D03*
X45160000Y-144600000D03*
X47700000Y-147140000D03*
X47700000Y-144600000D03*
X50240000Y-147140000D03*
X50240000Y-144600000D03*
X52780000Y-147140000D03*
X52780000Y-144600000D03*
D12*
X35000000Y-162380000D03*
D13*
X35000000Y-159840000D03*
X37540000Y-162380000D03*
X37540000Y-159840000D03*
X40080000Y-162380000D03*
X40080000Y-159840000D03*
X42620000Y-162380000D03*
X42620000Y-159840000D03*
X45160000Y-162380000D03*
X45160000Y-159840000D03*
X47700000Y-162380000D03*
X47700000Y-159840000D03*
X50240000Y-162380000D03*
X50240000Y-159840000D03*
X52780000Y-162380000D03*
X52780000Y-159840000D03*
D12*
X35000000Y-154760000D03*
D13*
X35000000Y-152220000D03*
X37540000Y-154760000D03*
X37540000Y-152220000D03*
X40080000Y-154760000D03*
X40080000Y-152220000D03*
X42620000Y-154760000D03*
X42620000Y-152220000D03*
X45160000Y-154760000D03*
X45160000Y-152220000D03*
X47700000Y-154760000D03*
X47700000Y-152220000D03*
X50240000Y-154760000D03*
X50240000Y-152220000D03*
X52780000Y-154760000D03*
X52780000Y-152220000D03*
D12*
X35000000Y-131900000D03*
D13*
X35000000Y-129360000D03*
X37540000Y-131900000D03*
X37540000Y-129360000D03*
X40080000Y-131900000D03*
X40080000Y-129360000D03*
X42620000Y-131900000D03*
X42620000Y-129360000D03*
X45160000Y-131900000D03*
X45160000Y-129360000D03*
X47700000Y-131900000D03*
X47700000Y-129360000D03*
X50240000Y-131900000D03*
X50240000Y-129360000D03*
X52780000Y-131900000D03*
X52780000Y-129360000D03*
D12*
X35000000Y-139520000D03*
D13*
X35000000Y-136980000D03*
X37540000Y-139520000D03*
X37540000Y-136980000D03*
X40080000Y-139520000D03*
X40080000Y-136980000D03*
X42620000Y-139520000D03*
X42620000Y-136980000D03*
X45160000Y-139520000D03*
X45160000Y-136980000D03*
X47700000Y-139520000D03*
X47700000Y-136980000D03*
X50240000Y-139520000D03*
X50240000Y-136980000D03*
X52780000Y-139520000D03*
X52780000Y-136980000D03*
D18*
X106000000Y-40000000D03*
D19*
X103460000Y-42540000D03*
X108540000Y-42540000D03*
X103460000Y-37460000D03*
X108540000Y-37460000D03*
D18*
X139000000Y-40000000D03*
D19*
X136460000Y-42540000D03*
X141540000Y-42540000D03*
X136460000Y-37460000D03*
X141540000Y-37460000D03*
D18*
X172000000Y-40000000D03*
D19*
X169460000Y-42540000D03*
X174540000Y-42540000D03*
X169460000Y-37460000D03*
X174540000Y-37460000D03*
D12*
X53135000Y-212475000D03*
D13*
X55675000Y-212475000D03*
D18*
X37500000Y-34000000D03*
D19*
X34960000Y-31460000D03*
X34960000Y-36540000D03*
X40040000Y-31460000D03*
X40040000Y-36540000D03*
D12*
X53125000Y-205000000D03*
D13*
X55665000Y-205000000D03*
D18*
X59500000Y-34000000D03*
D19*
X56960000Y-31460000D03*
X56960000Y-36540000D03*
X62040000Y-31460000D03*
X62040000Y-36540000D03*
D18*
X59500000Y-45000000D03*
D19*
X56960000Y-42460000D03*
X56960000Y-47540000D03*
X62040000Y-42460000D03*
X62040000Y-47540000D03*
D18*
X37500000Y-45000000D03*
D19*
X34960000Y-42460000D03*
X34960000Y-47540000D03*
X40040000Y-42460000D03*
X40040000Y-47540000D03*
D12*
X214325000Y-71345000D03*
D13*
X214325000Y-73885000D03*
X214325000Y-76425000D03*
D20*
X37500000Y-229410000D03*
X44500000Y-229410000D03*
D21*
X35750000Y-221500000D03*
X39250000Y-221500000D03*
X42750000Y-221500000D03*
X46250000Y-221500000D03*
D22*
X33250000Y-229410000D03*
X48760000Y-229410000D03*
D18*
X70500000Y-34000000D03*
D19*
X67960000Y-31460000D03*
X67960000Y-36540000D03*
X73040000Y-31460000D03*
X73040000Y-36540000D03*
D17*
X162000000Y-123000000D03*
D18*
X48500000Y-45000000D03*
D19*
X45960000Y-42460000D03*
X45960000Y-47540000D03*
X51040000Y-42460000D03*
X51040000Y-47540000D03*
D23*
X42695000Y-205000000D03*
D14*
X39195000Y-205000000D03*
D18*
X48500000Y-34000000D03*
D19*
X45960000Y-31460000D03*
X45960000Y-36540000D03*
X51040000Y-31460000D03*
X51040000Y-36540000D03*
D14*
X154450000Y-219185000D03*
X119550000Y-219185000D03*
D24*
X77455000Y-228325000D03*
X85075000Y-228325000D03*
D25*
X79360000Y-221975000D03*
X80630000Y-219435000D03*
X81900000Y-221975000D03*
X83170000Y-219435000D03*
D18*
X69500000Y-67300000D03*
D19*
X66960000Y-64760000D03*
X66960000Y-69840000D03*
X72040000Y-64760000D03*
X72040000Y-69840000D03*
D18*
X58500000Y-67300000D03*
D19*
X55960000Y-64760000D03*
X55960000Y-69840000D03*
X61040000Y-64760000D03*
X61040000Y-69840000D03*
D26*
X57395000Y-229925000D03*
D27*
X62475000Y-229925000D03*
D18*
X70500000Y-45000000D03*
D19*
X67960000Y-42460000D03*
X67960000Y-47540000D03*
X73040000Y-42460000D03*
X73040000Y-47540000D03*
D17*
X162000000Y-153875000D03*
D28*
X89075000Y-41830000D03*
X89075000Y-40870000D03*
X88125000Y-41830000D03*
X88125000Y-40870000D03*
D29*
X84655001Y-40925000D03*
X83695001Y-40925000D03*
D30*
X60325000Y-107560000D03*
X62225000Y-107560000D03*
D31*
X78525000Y-115880000D03*
X78525000Y-117780000D03*
D32*
X67525000Y-102725000D03*
X65625000Y-102725000D03*
D31*
X81475000Y-121825000D03*
X81475000Y-123725000D03*
D33*
X65170000Y-113000000D03*
X66130000Y-113000000D03*
D29*
X77330000Y-122750000D03*
X76370000Y-122750000D03*
D34*
X63814411Y-121635589D03*
X63135589Y-122314411D03*
D28*
X74200000Y-117905000D03*
X74200000Y-116945000D03*
D33*
X87520000Y-59850000D03*
X88480000Y-59850000D03*
D29*
X85505000Y-58875000D03*
X84545000Y-58875000D03*
X85505000Y-59850000D03*
X84545000Y-59850000D03*
X85505000Y-57925000D03*
X84545000Y-57925000D03*
D28*
X74200000Y-116030000D03*
X74200000Y-115070000D03*
D29*
X76155000Y-108825000D03*
X75195000Y-108825000D03*
D31*
X70600000Y-114925000D03*
X70600000Y-116825000D03*
D35*
X77175000Y-125325000D03*
X77175000Y-128275000D03*
D36*
X73425000Y-96450000D03*
X73425000Y-94550000D03*
X72875000Y-124650000D03*
X72875000Y-122750000D03*
D31*
X70045000Y-121080000D03*
X70045000Y-122980000D03*
X68625000Y-128525000D03*
X68625000Y-130425000D03*
D32*
X74400000Y-119375000D03*
X72500000Y-119375000D03*
X74900000Y-131050000D03*
X73000000Y-131050000D03*
D37*
X75175000Y-115095000D03*
X75175000Y-116055000D03*
D38*
X77803249Y-95671751D03*
X79146751Y-94328249D03*
D37*
X72950000Y-107520000D03*
X72950000Y-108480000D03*
D30*
X79575000Y-125625000D03*
X81475000Y-125625000D03*
D29*
X79055000Y-114650000D03*
X78095000Y-114650000D03*
D39*
X75837500Y-113875000D03*
X74262500Y-113875000D03*
D40*
X74412500Y-107025000D03*
X75987500Y-107025000D03*
D41*
X88175000Y-57087500D03*
X88175000Y-58662500D03*
X86675000Y-57087500D03*
X86675000Y-58662500D03*
D42*
X85915000Y-32700000D03*
X86935000Y-32700000D03*
X87790000Y-32700001D03*
X88810000Y-32700001D03*
D43*
X89825000Y-54835000D03*
X89825000Y-53815000D03*
X85025000Y-54835000D03*
X85025000Y-53815000D03*
X86475000Y-54835000D03*
X86475000Y-53815000D03*
X87425000Y-54835000D03*
X87425000Y-53815000D03*
X88390000Y-54835000D03*
X88390000Y-53815000D03*
D44*
X49950000Y-103240000D03*
X49950000Y-104260000D03*
D45*
X77985000Y-103500000D03*
X76965000Y-103500000D03*
D46*
X84784999Y-34530000D03*
X87324999Y-34530000D03*
X89864999Y-34530000D03*
X89864999Y-39070000D03*
X87324999Y-39070000D03*
X84784999Y-39070000D03*
D29*
X65080000Y-100300000D03*
X64120000Y-100300000D03*
X78780000Y-100275000D03*
X77820000Y-100275000D03*
X69080000Y-100275000D03*
X68120000Y-100275000D03*
X84955000Y-98625000D03*
X83995000Y-98625000D03*
X69055000Y-98375000D03*
X68095000Y-98375000D03*
X65980000Y-98350000D03*
X65020000Y-98350000D03*
D33*
X82595000Y-82250000D03*
X83555000Y-82250000D03*
X82620000Y-78425000D03*
X83580000Y-78425000D03*
X82645000Y-74650000D03*
X83605000Y-74650000D03*
X82695000Y-70825000D03*
X83655000Y-70825000D03*
D47*
X84725000Y-80475000D03*
X84725000Y-82025000D03*
X84775000Y-76600000D03*
X84775000Y-78150000D03*
X84800000Y-72800000D03*
X84800000Y-74350000D03*
D48*
X86725000Y-69100000D03*
X88275000Y-69100000D03*
D29*
X111255000Y-66950000D03*
X110295000Y-66950000D03*
X111255000Y-67875000D03*
X110295000Y-67875000D03*
D37*
X107225000Y-61070000D03*
X107225000Y-62030000D03*
D28*
X108200000Y-62030000D03*
X108200000Y-61070000D03*
D29*
X109630000Y-70025000D03*
X108670000Y-70025000D03*
D33*
X104195000Y-67900000D03*
X105155000Y-67900000D03*
X104195000Y-66950000D03*
X105155000Y-66950000D03*
D29*
X144180000Y-66950000D03*
X143220000Y-66950000D03*
X144179999Y-67875000D03*
X143219999Y-67875000D03*
D37*
X140149999Y-61070000D03*
X140149999Y-62030000D03*
D28*
X141124999Y-62029999D03*
X141124999Y-61069999D03*
D29*
X142629999Y-70025000D03*
X141669999Y-70025000D03*
D33*
X137119999Y-67900000D03*
X138079999Y-67900000D03*
X137119999Y-66949999D03*
X138079999Y-66949999D03*
D29*
X177155000Y-66949999D03*
X176195000Y-66949999D03*
X177155000Y-67875000D03*
X176195000Y-67875000D03*
D37*
X173125000Y-61070000D03*
X173125000Y-62030000D03*
D28*
X174100000Y-62030000D03*
X174100000Y-61070000D03*
D29*
X175630000Y-70025000D03*
X174670000Y-70025000D03*
D33*
X170095001Y-67900000D03*
X171055001Y-67900000D03*
X170095000Y-66950000D03*
X171055000Y-66950000D03*
D28*
X99850000Y-157380000D03*
X99850000Y-156420000D03*
X78575000Y-157405000D03*
X78575000Y-156445000D03*
X96025000Y-157380000D03*
X96025000Y-156420000D03*
X76025000Y-157405000D03*
X76025000Y-156445000D03*
X92225000Y-157380000D03*
X92225000Y-156420000D03*
X72225000Y-157405000D03*
X72225000Y-156445000D03*
X88425000Y-157380000D03*
X88425000Y-156420000D03*
X68400000Y-157405000D03*
X68400000Y-156445000D03*
D48*
X98850000Y-153375000D03*
X100400000Y-153375000D03*
X95050000Y-153375000D03*
X96600000Y-153375000D03*
X91275000Y-153375000D03*
X92825000Y-153375000D03*
X87500000Y-153375000D03*
X89050000Y-153375000D03*
X78850000Y-153450000D03*
X80400000Y-153450000D03*
X75050000Y-153375000D03*
X76600000Y-153375000D03*
X70975000Y-153400000D03*
X72525000Y-153400000D03*
X67400000Y-153400000D03*
X68950000Y-153400000D03*
D31*
X80675000Y-117980000D03*
X80675000Y-119880000D03*
X92325000Y-112500000D03*
X92325000Y-114400000D03*
D29*
X87455000Y-121950000D03*
X86495000Y-121950000D03*
D28*
X81000000Y-107480000D03*
X81000000Y-106520000D03*
D44*
X62750000Y-102265000D03*
X62750000Y-103285000D03*
D42*
X69965000Y-103500000D03*
X70985000Y-103500000D03*
X79965000Y-103500000D03*
X80985000Y-103500000D03*
D43*
X107225000Y-63910001D03*
X107225000Y-62890001D03*
D42*
X106265000Y-64825000D03*
X107285000Y-64825000D03*
D43*
X108200000Y-63910000D03*
X108200000Y-62890000D03*
D45*
X109160000Y-64825000D03*
X108140000Y-64825000D03*
X108235000Y-60150000D03*
X107215000Y-60150000D03*
D43*
X140149999Y-63910000D03*
X140149999Y-62890000D03*
D42*
X139190000Y-64825000D03*
X140210000Y-64825000D03*
D43*
X141125000Y-63910000D03*
X141125000Y-62890000D03*
D45*
X142084999Y-64825000D03*
X141064999Y-64825000D03*
X141159999Y-60150000D03*
X140139999Y-60150000D03*
D43*
X173125000Y-63909999D03*
X173125000Y-62889999D03*
D42*
X172164999Y-64825000D03*
X173184999Y-64825000D03*
D43*
X174100000Y-63909999D03*
X174100000Y-62889999D03*
D45*
X175060001Y-64825000D03*
X174040001Y-64825000D03*
X174135000Y-60150000D03*
X173115000Y-60150000D03*
D49*
X106975000Y-65987500D03*
X107475000Y-65987500D03*
X107975000Y-65987500D03*
X108475000Y-65987500D03*
D50*
X109162500Y-66675000D03*
X109162500Y-67175000D03*
X109162500Y-67675000D03*
X109162500Y-68175000D03*
D49*
X108475000Y-68862500D03*
X107975000Y-68862500D03*
X107475000Y-68862500D03*
X106975000Y-68862500D03*
D50*
X106287500Y-68175000D03*
X106287500Y-67675000D03*
X106287500Y-67175000D03*
X106287500Y-66675000D03*
D23*
X107725000Y-67425000D03*
D49*
X139899999Y-65987500D03*
X140399999Y-65987500D03*
X140899999Y-65987500D03*
X141399999Y-65987500D03*
D50*
X142087499Y-66675000D03*
X142087499Y-67175000D03*
X142087499Y-67675000D03*
X142087499Y-68175000D03*
D49*
X141399999Y-68862500D03*
X140899999Y-68862500D03*
X140399999Y-68862500D03*
X139899999Y-68862500D03*
D50*
X139212499Y-68175000D03*
X139212499Y-67675000D03*
X139212499Y-67175000D03*
X139212499Y-66675000D03*
D23*
X140649999Y-67425000D03*
D49*
X172875000Y-65987500D03*
X173375000Y-65987500D03*
X173875000Y-65987500D03*
X174375000Y-65987500D03*
D50*
X175062500Y-66675000D03*
X175062500Y-67175000D03*
X175062500Y-67675000D03*
X175062500Y-68175000D03*
D49*
X174375000Y-68862500D03*
X173875000Y-68862500D03*
X173375000Y-68862500D03*
X172875000Y-68862500D03*
D50*
X172187500Y-68175000D03*
X172187500Y-67675000D03*
X172187500Y-67175000D03*
X172187500Y-66675000D03*
D23*
X173625000Y-67425000D03*
D33*
X194870000Y-78125000D03*
X195830000Y-78125000D03*
X194870000Y-77150000D03*
X195830000Y-77150000D03*
D28*
X199700000Y-82055000D03*
X199700000Y-81095000D03*
X198725000Y-82055000D03*
X198725000Y-81095000D03*
D43*
X196750000Y-77210000D03*
X196750000Y-76190000D03*
D44*
X196750000Y-78065000D03*
X196750000Y-79085000D03*
D45*
X198785000Y-80175000D03*
X197765000Y-80175000D03*
D42*
X199640000Y-80175000D03*
X200660000Y-80175000D03*
X69990000Y-119450000D03*
X71010000Y-119450000D03*
D45*
X77985000Y-121500000D03*
X76965000Y-121500000D03*
X83135000Y-119330000D03*
X82115000Y-119330000D03*
D42*
X84840000Y-112700000D03*
X85860000Y-112700000D03*
D45*
X104835000Y-58800000D03*
X103815000Y-58800000D03*
X170960000Y-58800000D03*
X169940000Y-58800000D03*
D44*
X191075000Y-75890000D03*
X191075000Y-76910000D03*
D45*
X138385000Y-61475000D03*
X137365000Y-61475000D03*
D44*
X184300000Y-67465000D03*
X184300000Y-68485000D03*
D45*
X170960000Y-59775000D03*
X169940000Y-59775000D03*
X138385000Y-62450000D03*
X137365000Y-62450000D03*
X104835000Y-59750000D03*
X103815000Y-59750000D03*
D33*
X131270000Y-63825000D03*
X132230000Y-63825000D03*
M02*
