Copyright 1986-2022 Xilinx, Inc. All Rights Reserved. Copyright 2022-2024 Advanced Micro Devices, Inc. All Rights Reserved.
---------------------------------------------------------------------------------------------------------------------------------------------
| Tool Version : Vivado v.2024.1.1 (lin64) Build 5094488 Fri Jun 14 08:57:50 MDT 2024
| Date         : Wed Mar  5 10:17:12 2025
| Host         : spppcj166.extra.cea.fr running 64-bit Fedora release 40 (Forty)
| Command      : report_drc -file LMB_drc_routed.rpt -pb LMB_drc_routed.pb -rpx LMB_drc_routed.rpx
| Design       : LMB
| Device       : xcku035-fbva676-1-c
| Speed File   : -1
| Design State : Fully Routed
---------------------------------------------------------------------------------------------------------------------------------------------

Report DRC

Table of Contents
-----------------
1. REPORT SUMMARY
2. REPORT DETAILS

1. REPORT SUMMARY
-----------------
            Netlist: netlist
          Floorplan: design_1
      Design limits: <entire design considered>
           Ruledeck: default
             Max violations: <unlimited>
             Violations found: 1
+-----------+----------+-------------------+------------+
| Rule      | Severity | Description       | Violations |
+-----------+----------+-------------------+------------+
| RTSTAT-10 | Warning  | No routable loads | 1          |
+-----------+----------+-------------------+------------+

2. REPORT DETAILS
-----------------
RTSTAT-10#1 Warning
No routable loads  
4 net(s) have no routable loads. The problem bus(es) and/or net(s) are inst_ipbus/udp_if/clock_crossing_if/tx_write_buffer_reg[2]_0,
inst_ipbus/udp_if/clock_crossing_if/tx_write_buffer_reg[2]_1,
inst_ipbus/udp_if/clock_crossing_if/tx_write_buffer_reg[2]_2
inst_ipbus/udp_if/clock_crossing_if/tx_write_buffer_reg[3]_1.
Related violations: <none>


