EESchema Schematic File Version 4
EELAYER 30 0
EELAYER END
$Descr A4 11693 8268
encoding utf-8
Sheet 8 16
Title "Power supplies for ADC and buffer"
Date "2020-04-08"
Rev "1"
Comp "Irfu/DphP"
Comment1 "Perle de ferrite : Farnell 1515738"
Comment2 "Inductance 8.2uH : Farnell 2842189"
Comment3 "Inductance 6.8uH : Farnell 2842188"
Comment4 "Inductance 1uH/0.47uH : Farnell 2467198/2467197"
$EndDescr
Text Label 5700 1275 2    50   ~ 0
V1P3A
Text Label 5150 1725 2    50   ~ 0
V1P3D
Text Label 4625 2175 2    50   ~ 0
V3P0A
Text Label 4100 2625 2    50   ~ 0
V2P4A
$Comp
L MDJ_compo:LTM4644 U?
U 1 1 615B64D3
P 2800 2100
AR Path="/5787D549/615B64D3" Ref="U?"  Part="1" 
AR Path="/57059335/5E8E50C4/615B64D3" Ref="U802"  Part="1" 
F 0 "U802" H 2800 3403 60  0000 C CNN
F 1 "LTM4644" H 2800 3297 60  0000 C CNN
F 2 "MDJ_mod:BGA-77-9.0x15.0x5.21mm_Layout7x11_P1.27mm" H 2800 2100 60  0001 C CNN
F 3 "https://www.analog.com/media/en/technical-documentation/data-sheets/LTM4644.pdf" H 2800 2100 60  0001 C CNN
	1    2800 2100
	1    0    0    -1  
$EndComp
Text Label 1350 1425 0    50   ~ 0
PWRUP_1
Wire Wire Line
	1350 1425 1900 1425
Text Label 1350 1875 0    50   ~ 0
PWRUP_1
Wire Wire Line
	1350 1875 1900 1875
Text Label 1350 2325 0    50   ~ 0
PWRUP_2
Wire Wire Line
	1350 2325 1900 2325
Wire Wire Line
	1825 1200 1825 1275
Wire Wire Line
	1825 1275 1900 1275
Wire Wire Line
	1825 1725 1900 1725
Connection ~ 1825 1275
Wire Wire Line
	1825 1725 1825 1800
Wire Wire Line
	1825 2175 1900 2175
Connection ~ 1825 1725
Wire Wire Line
	1825 2175 1825 2250
Wire Wire Line
	1825 2625 1900 2625
Connection ~ 1825 2175
Wire Wire Line
	1900 1350 1825 1350
Wire Wire Line
	1825 1275 1825 1350
Connection ~ 1825 1350
Wire Wire Line
	1825 1350 1825 1725
Wire Wire Line
	1900 1800 1825 1800
Connection ~ 1825 1800
Wire Wire Line
	1825 1800 1825 2175
Wire Wire Line
	1900 2250 1825 2250
Connection ~ 1825 2250
Wire Wire Line
	1825 2250 1825 2625
Wire Wire Line
	1900 2700 1825 2700
Wire Wire Line
	1825 2700 1825 2625
Connection ~ 1825 2625
$Comp
L power:GNDD #PWR?
U 1 1 615B64F6
P 2875 3200
AR Path="/5787D549/615B64F6" Ref="#PWR?"  Part="1" 
AR Path="/572C0D81/615B64F6" Ref="#PWR?"  Part="1" 
AR Path="/57059335/5E8E50C4/615B64F6" Ref="#PWR0812"  Part="1" 
F 0 "#PWR0812" H 2875 2950 50  0001 C CNN
F 1 "GNDD" H 2875 3050 50  0000 C CNN
F 2 "" H 2875 3200 50  0000 C CNN
F 3 "" H 2875 3200 50  0000 C CNN
	1    2875 3200
	1    0    0    -1  
$EndComp
$Comp
L Device:C C?
U 1 1 615B64FC
P 5500 1650
AR Path="/5787D549/615B64FC" Ref="C?"  Part="1" 
AR Path="/572C0D81/615B64FC" Ref="C?"  Part="1" 
AR Path="/57059335/5E8E50C4/615B64FC" Ref="C811"  Part="1" 
F 0 "C811" V 5450 1525 50  0000 C CNN
F 1 "100n" V 5550 1500 50  0000 C CNN
F 2 "Capacitor_SMD:C_0201_0603Metric" H 5500 1650 50  0001 C CNN
F 3 "" H 5500 1650 50  0000 C CNN
	1    5500 1650
	1    0    0    -1  
$EndComp
$Comp
L Device:R R?
U 1 1 615B6502
P 5700 1500
AR Path="/59140D2B/615B6502" Ref="R?"  Part="1" 
AR Path="/5B5208C5/615B6502" Ref="R?"  Part="1" 
AR Path="/57059335/615B6502" Ref="R?"  Part="1" 
AR Path="/5787D549/615B6502" Ref="R?"  Part="1" 
AR Path="/57059335/5E8E50C4/615B6502" Ref="R801"  Part="1" 
F 0 "R801" V 5775 1500 50  0000 C CNN
F 1 "100k" V 5700 1500 50  0000 C CNN
F 2 "Resistor_SMD:R_0402_1005Metric" V 5630 1500 50  0001 C CNN
F 3 "" H 5700 1500 50  0000 C CNN
	1    5700 1500
	-1   0    0    1   
$EndComp
$Comp
L Device:R R?
U 1 1 615B6508
P 5700 1800
AR Path="/59140D2B/615B6508" Ref="R?"  Part="1" 
AR Path="/5B5208C5/615B6508" Ref="R?"  Part="1" 
AR Path="/57059335/615B6508" Ref="R?"  Part="1" 
AR Path="/5787D549/615B6508" Ref="R?"  Part="1" 
AR Path="/57059335/5E8E50C4/615B6508" Ref="R803"  Part="1" 
F 0 "R803" V 5775 1800 50  0000 C CNN
F 1 "3,48k" V 5700 1800 50  0000 C CNN
F 2 "Resistor_SMD:R_0402_1005Metric" V 5630 1800 50  0001 C CNN
F 3 "" H 5700 1800 50  0000 C CNN
	1    5700 1800
	-1   0    0    1   
$EndComp
$Comp
L power:GNDD #PWR?
U 1 1 615B650E
P 5700 1950
AR Path="/5787D549/615B650E" Ref="#PWR?"  Part="1" 
AR Path="/572C0D81/615B650E" Ref="#PWR?"  Part="1" 
AR Path="/57059335/5E8E50C4/615B650E" Ref="#PWR0806"  Part="1" 
F 0 "#PWR0806" H 5700 1700 50  0001 C CNN
F 1 "GNDD" H 5700 1800 50  0000 C CNN
F 2 "" H 5700 1950 50  0000 C CNN
F 3 "" H 5700 1950 50  0000 C CNN
	1    5700 1950
	1    0    0    -1  
$EndComp
Wire Wire Line
	5500 1800 5500 1950
Wire Wire Line
	5500 1950 5700 1950
Connection ~ 5700 1950
Wire Wire Line
	1900 2850 1900 2925
Wire Wire Line
	1900 2400 1900 2475
Wire Wire Line
	1900 1950 1900 2025
Wire Wire Line
	1900 1500 1900 1575
Wire Wire Line
	3700 1350 5700 1350
Wire Wire Line
	3700 1500 5500 1500
$Comp
L Device:R R?
U 1 1 615B651D
P 4625 2400
AR Path="/59140D2B/615B651D" Ref="R?"  Part="1" 
AR Path="/5B5208C5/615B651D" Ref="R?"  Part="1" 
AR Path="/57059335/615B651D" Ref="R?"  Part="1" 
AR Path="/5787D549/615B651D" Ref="R?"  Part="1" 
AR Path="/57059335/5E8E50C4/615B651D" Ref="R805"  Part="1" 
F 0 "R805" V 4700 2400 50  0000 C CNN
F 1 "30k" V 4625 2400 50  0000 C CNN
F 2 "Resistor_SMD:R_0402_1005Metric" V 4555 2400 50  0001 C CNN
F 3 "" H 4625 2400 50  0000 C CNN
	1    4625 2400
	-1   0    0    1   
$EndComp
$Comp
L Device:R R?
U 1 1 615B6523
P 4625 2700
AR Path="/59140D2B/615B6523" Ref="R?"  Part="1" 
AR Path="/5B5208C5/615B6523" Ref="R?"  Part="1" 
AR Path="/57059335/615B6523" Ref="R?"  Part="1" 
AR Path="/5787D549/615B6523" Ref="R?"  Part="1" 
AR Path="/57059335/5E8E50C4/615B6523" Ref="R806"  Part="1" 
F 0 "R806" V 4700 2700 50  0000 C CNN
F 1 "200" V 4625 2700 50  0000 C CNN
F 2 "Resistor_SMD:R_0402_1005Metric" V 4555 2700 50  0001 C CNN
F 3 "" H 4625 2700 50  0000 C CNN
	1    4625 2700
	-1   0    0    1   
$EndComp
$Comp
L power:GNDD #PWR?
U 1 1 615B6529
P 5150 2400
AR Path="/5787D549/615B6529" Ref="#PWR?"  Part="1" 
AR Path="/572C0D81/615B6529" Ref="#PWR?"  Part="1" 
AR Path="/57059335/5E8E50C4/615B6529" Ref="#PWR0807"  Part="1" 
F 0 "#PWR0807" H 5150 2150 50  0001 C CNN
F 1 "GNDD" H 5150 2250 50  0000 C CNN
F 2 "" H 5150 2400 50  0000 C CNN
F 3 "" H 5150 2400 50  0000 C CNN
	1    5150 2400
	1    0    0    -1  
$EndComp
Wire Wire Line
	3700 1800 5150 1800
$Comp
L Device:C C?
U 1 1 615B6530
P 4950 2100
AR Path="/5787D549/615B6530" Ref="C?"  Part="1" 
AR Path="/572C0D81/615B6530" Ref="C?"  Part="1" 
AR Path="/57059335/5E8E50C4/615B6530" Ref="C816"  Part="1" 
F 0 "C816" V 4900 1975 50  0000 C CNN
F 1 "100n" V 5000 1950 50  0000 C CNN
F 2 "Capacitor_SMD:C_0201_0603Metric" H 4950 2100 50  0001 C CNN
F 3 "" H 4950 2100 50  0000 C CNN
	1    4950 2100
	1    0    0    -1  
$EndComp
Wire Wire Line
	3700 1950 4950 1950
Wire Wire Line
	4950 2250 4950 2400
Wire Wire Line
	4950 2400 5150 2400
$Comp
L power:GNDD #PWR?
U 1 1 615B6539
P 4625 2850
AR Path="/5787D549/615B6539" Ref="#PWR?"  Part="1" 
AR Path="/572C0D81/615B6539" Ref="#PWR?"  Part="1" 
AR Path="/57059335/5E8E50C4/615B6539" Ref="#PWR0809"  Part="1" 
F 0 "#PWR0809" H 4625 2600 50  0001 C CNN
F 1 "GNDD" H 4625 2700 50  0000 C CNN
F 2 "" H 4625 2850 50  0000 C CNN
F 3 "" H 4625 2850 50  0000 C CNN
	1    4625 2850
	1    0    0    -1  
$EndComp
$Comp
L Device:C C?
U 1 1 615B653F
P 4425 2550
AR Path="/5787D549/615B653F" Ref="C?"  Part="1" 
AR Path="/572C0D81/615B653F" Ref="C?"  Part="1" 
AR Path="/57059335/5E8E50C4/615B653F" Ref="C819"  Part="1" 
F 0 "C819" V 4375 2425 50  0000 C CNN
F 1 "100n" V 4475 2400 50  0000 C CNN
F 2 "Capacitor_SMD:C_0201_0603Metric" H 4425 2550 50  0001 C CNN
F 3 "" H 4425 2550 50  0000 C CNN
	1    4425 2550
	1    0    0    -1  
$EndComp
Wire Wire Line
	4425 2850 4625 2850
Wire Wire Line
	3700 2250 4625 2250
Wire Wire Line
	3700 2400 4425 2400
$Comp
L Device:R R?
U 1 1 615B654C
P 5150 1950
AR Path="/59140D2B/615B654C" Ref="R?"  Part="1" 
AR Path="/5B5208C5/615B654C" Ref="R?"  Part="1" 
AR Path="/57059335/615B654C" Ref="R?"  Part="1" 
AR Path="/5787D549/615B654C" Ref="R?"  Part="1" 
AR Path="/57059335/5E8E50C4/615B654C" Ref="R804"  Part="1" 
F 0 "R804" V 5225 1950 50  0000 C CNN
F 1 "90.9k" V 5150 1950 50  0000 C CNN
F 2 "Resistor_SMD:R_0402_1005Metric" V 5080 1950 50  0001 C CNN
F 3 "" H 5150 1950 50  0000 C CNN
	1    5150 1950
	-1   0    0    1   
$EndComp
Wire Wire Line
	5150 2100 5150 2400
Connection ~ 5150 2400
Connection ~ 4625 2850
Wire Wire Line
	4425 2700 4425 2850
$Comp
L Device:R R?
U 1 1 615B6557
P 4100 2850
AR Path="/59140D2B/615B6557" Ref="R?"  Part="1" 
AR Path="/5B5208C5/615B6557" Ref="R?"  Part="1" 
AR Path="/57059335/615B6557" Ref="R?"  Part="1" 
AR Path="/5787D549/615B6557" Ref="R?"  Part="1" 
AR Path="/57059335/5E8E50C4/615B6557" Ref="R808"  Part="1" 
F 0 "R808" V 4175 2850 50  0000 C CNN
F 1 "90.9k" V 4100 2850 50  0000 C CNN
F 2 "Resistor_SMD:R_0402_1005Metric" V 4030 2850 50  0001 C CNN
F 3 "" H 4100 2850 50  0000 C CNN
	1    4100 2850
	-1   0    0    1   
$EndComp
$Comp
L Device:C C?
U 1 1 615B655D
P 3900 3000
AR Path="/5787D549/615B655D" Ref="C?"  Part="1" 
AR Path="/572C0D81/615B655D" Ref="C?"  Part="1" 
AR Path="/57059335/5E8E50C4/615B655D" Ref="C831"  Part="1" 
F 0 "C831" V 3850 2875 50  0000 C CNN
F 1 "100n" V 3950 2850 50  0000 C CNN
F 2 "Capacitor_SMD:C_0201_0603Metric" H 3900 3000 50  0001 C CNN
F 3 "" H 3900 3000 50  0000 C CNN
	1    3900 3000
	1    0    0    -1  
$EndComp
Wire Wire Line
	3700 2700 4100 2700
Wire Wire Line
	3700 2850 3900 2850
$Comp
L power:GNDD #PWR?
U 1 1 615B6566
P 4100 3150
AR Path="/5787D549/615B6566" Ref="#PWR?"  Part="1" 
AR Path="/572C0D81/615B6566" Ref="#PWR?"  Part="1" 
AR Path="/57059335/5E8E50C4/615B6566" Ref="#PWR0811"  Part="1" 
F 0 "#PWR0811" H 4100 2900 50  0001 C CNN
F 1 "GNDD" H 4100 3000 50  0000 C CNN
F 2 "" H 4100 3150 50  0000 C CNN
F 3 "" H 4100 3150 50  0000 C CNN
	1    4100 3150
	1    0    0    -1  
$EndComp
Wire Wire Line
	4100 3000 4100 3150
Wire Wire Line
	4100 3150 3900 3150
Connection ~ 4100 3150
Text Label 1350 2775 0    50   ~ 0
PWRUP_3
Wire Wire Line
	1350 2775 1900 2775
$Comp
L Device:C C?
U 1 1 615B6573
P 5325 1875
AR Path="/5787D549/615B6573" Ref="C?"  Part="1" 
AR Path="/572C0D81/615B6573" Ref="C?"  Part="1" 
AR Path="/57059335/5E8E50C4/615B6573" Ref="C815"  Part="1" 
F 0 "C815" H 5300 1950 50  0000 C CNN
F 1 "47u" H 5350 1800 50  0000 C CNN
F 2 "Capacitor_SMD:C_0805_2012Metric" H 5325 1875 50  0001 C CNN
F 3 "" H 5325 1875 50  0000 C CNN
	1    5325 1875
	1    0    0    -1  
$EndComp
Wire Wire Line
	5325 2025 5325 2400
Wire Wire Line
	5325 2400 5150 2400
$Comp
L Device:C C?
U 1 1 615B657D
P 4250 2775
AR Path="/5787D549/615B657D" Ref="C?"  Part="1" 
AR Path="/572C0D81/615B657D" Ref="C?"  Part="1" 
AR Path="/57059335/5E8E50C4/615B657D" Ref="C823"  Part="1" 
F 0 "C823" H 4225 2850 50  0000 C CNN
F 1 "47u" H 4275 2700 50  0000 C CNN
F 2 "Capacitor_SMD:C_0805_2012Metric" H 4250 2775 50  0001 C CNN
F 3 "" H 4250 2775 50  0000 C CNN
	1    4250 2775
	1    0    0    -1  
$EndComp
Wire Wire Line
	4250 2925 4250 3150
Wire Wire Line
	4250 3150 4100 3150
$Comp
L Device:C C?
U 1 1 615B6587
P 4775 2325
AR Path="/5787D549/615B6587" Ref="C?"  Part="1" 
AR Path="/572C0D81/615B6587" Ref="C?"  Part="1" 
AR Path="/57059335/5E8E50C4/615B6587" Ref="C817"  Part="1" 
F 0 "C817" H 4750 2400 50  0000 C CNN
F 1 "47u" H 4800 2250 50  0000 C CNN
F 2 "Capacitor_SMD:C_0805_2012Metric" H 4775 2325 50  0001 C CNN
F 3 "" H 4775 2325 50  0000 C CNN
	1    4775 2325
	1    0    0    -1  
$EndComp
Wire Wire Line
	4775 2475 4775 2850
Wire Wire Line
	4775 2850 4625 2850
$Comp
L Device:C C?
U 1 1 615B6591
P 5875 1425
AR Path="/5787D549/615B6591" Ref="C?"  Part="1" 
AR Path="/572C0D81/615B6591" Ref="C?"  Part="1" 
AR Path="/57059335/5E8E50C4/615B6591" Ref="C810"  Part="1" 
F 0 "C810" H 5850 1500 50  0000 C CNN
F 1 "47u" H 5900 1350 50  0000 C CNN
F 2 "Capacitor_SMD:C_0805_2012Metric" H 5875 1425 50  0001 C CNN
F 3 "" H 5875 1425 50  0000 C CNN
	1    5875 1425
	1    0    0    -1  
$EndComp
Wire Wire Line
	5875 1575 5875 1950
Wire Wire Line
	5875 1950 5700 1950
$Comp
L power:+5V #PWR0801
U 1 1 615B659B
P 1825 1200
F 0 "#PWR0801" H 1825 1050 50  0001 C CNN
F 1 "+5V" H 1840 1373 50  0000 C CNN
F 2 "" H 1825 1200 50  0001 C CNN
F 3 "" H 1825 1200 50  0001 C CNN
	1    1825 1200
	1    0    0    -1  
$EndComp
$Comp
L Device:C C?
U 1 1 615B65A1
P 1625 3150
AR Path="/5787D549/615B65A1" Ref="C?"  Part="1" 
AR Path="/572C0D81/615B65A1" Ref="C?"  Part="1" 
AR Path="/57059335/5E8E50C4/615B65A1" Ref="C835"  Part="1" 
F 0 "C835" H 1600 3225 50  0000 C CNN
F 1 "10u" H 1650 3075 50  0000 C CNN
F 2 "Capacitor_SMD:C_0402_1005Metric" H 1625 3150 50  0001 C CNN
F 3 "" H 1625 3150 50  0000 C CNN
	1    1625 3150
	1    0    0    -1  
$EndComp
$Comp
L Device:C C?
U 1 1 615B65A7
P 1825 3150
AR Path="/5787D549/615B65A7" Ref="C?"  Part="1" 
AR Path="/572C0D81/615B65A7" Ref="C?"  Part="1" 
AR Path="/57059335/5E8E50C4/615B65A7" Ref="C836"  Part="1" 
F 0 "C836" H 1800 3225 50  0000 C CNN
F 1 "10u" H 1850 3075 50  0000 C CNN
F 2 "Capacitor_SMD:C_0402_1005Metric" H 1825 3150 50  0001 C CNN
F 3 "" H 1825 3150 50  0000 C CNN
	1    1825 3150
	1    0    0    -1  
$EndComp
$Comp
L power:GNDD #PWR?
U 1 1 615B65AD
P 1625 3300
AR Path="/5787D549/615B65AD" Ref="#PWR?"  Part="1" 
AR Path="/572C0D81/615B65AD" Ref="#PWR?"  Part="1" 
AR Path="/57059335/5E8E50C4/615B65AD" Ref="#PWR0814"  Part="1" 
F 0 "#PWR0814" H 1625 3050 50  0001 C CNN
F 1 "GNDD" H 1625 3175 50  0000 C CNN
F 2 "" H 1625 3300 50  0000 C CNN
F 3 "" H 1625 3300 50  0000 C CNN
	1    1625 3300
	1    0    0    -1  
$EndComp
Wire Wire Line
	1825 3300 1625 3300
$Comp
L Device:C C?
U 1 1 615B65B4
P 1225 3150
AR Path="/5787D549/615B65B4" Ref="C?"  Part="1" 
AR Path="/572C0D81/615B65B4" Ref="C?"  Part="1" 
AR Path="/57059335/5E8E50C4/615B65B4" Ref="C833"  Part="1" 
F 0 "C833" H 1200 3225 50  0000 C CNN
F 1 "10u" H 1250 3075 50  0000 C CNN
F 2 "Capacitor_SMD:C_0402_1005Metric" H 1225 3150 50  0001 C CNN
F 3 "" H 1225 3150 50  0000 C CNN
	1    1225 3150
	1    0    0    -1  
$EndComp
$Comp
L Device:C C?
U 1 1 615B65BA
P 1425 3150
AR Path="/5787D549/615B65BA" Ref="C?"  Part="1" 
AR Path="/572C0D81/615B65BA" Ref="C?"  Part="1" 
AR Path="/57059335/5E8E50C4/615B65BA" Ref="C834"  Part="1" 
F 0 "C834" H 1400 3225 50  0000 C CNN
F 1 "10u" H 1450 3075 50  0000 C CNN
F 2 "Capacitor_SMD:C_0402_1005Metric" H 1425 3150 50  0001 C CNN
F 3 "" H 1425 3150 50  0000 C CNN
	1    1425 3150
	1    0    0    -1  
$EndComp
Connection ~ 1625 3300
Wire Wire Line
	1825 2700 1825 3000
Connection ~ 1825 2700
Wire Wire Line
	1825 3000 1625 3000
Connection ~ 1825 3000
Wire Wire Line
	1625 3000 1425 3000
Connection ~ 1625 3000
Wire Wire Line
	1425 3000 1225 3000
Connection ~ 1425 3000
Wire Wire Line
	1225 3300 1425 3300
Wire Wire Line
	1425 3300 1625 3300
Connection ~ 1425 3300
Wire Wire Line
	3700 1275 5875 1275
Wire Wire Line
	3700 1725 5325 1725
Wire Wire Line
	3700 2175 4775 2175
Wire Wire Line
	3700 2625 4250 2625
$Comp
L power:+5V #PWR0822
U 1 1 6160D8AD
P 1975 4525
F 0 "#PWR0822" H 1975 4375 50  0001 C CNN
F 1 "+5V" H 1990 4698 50  0000 C CNN
F 2 "" H 1975 4525 50  0001 C CNN
F 3 "" H 1975 4525 50  0001 C CNN
	1    1975 4525
	1    0    0    -1  
$EndComp
Wire Wire Line
	7575 5125 7425 5125
Wire Wire Line
	7575 4825 7575 5125
Wire Wire Line
	7575 4525 7650 4525
Connection ~ 7575 4525
$Comp
L Device:C C?
U 1 1 5ED6CE45
P 7575 4675
AR Path="/59140D2B/5ED6CE45" Ref="C?"  Part="1" 
AR Path="/5B5208C5/5ED6CE45" Ref="C?"  Part="1" 
AR Path="/57059335/5ED6CE45" Ref="C?"  Part="1" 
AR Path="/57059335/5E8E50C4/5ED6CE45" Ref="C853"  Part="1" 
AR Path="/5EB88B2F/5E8E50C4/5ED6CE45" Ref="C?"  Part="1" 
F 0 "C853" H 7525 4750 50  0000 L CNN
F 1 "10u" H 7525 4600 50  0000 L CNN
F 2 "Capacitor_SMD:C_0402_1005Metric" H 7613 4525 50  0001 C CNN
F 3 "" H 7575 4675 50  0000 C CNN
	1    7575 4675
	1    0    0    -1  
$EndComp
$Comp
L power:GNDA #PWR?
U 1 1 61D29E97
P 5250 4625
AR Path="/59140D2B/61D29E97" Ref="#PWR?"  Part="1" 
AR Path="/5B5208C5/61D29E97" Ref="#PWR?"  Part="1" 
AR Path="/57059335/61D29E97" Ref="#PWR?"  Part="1" 
AR Path="/57059335/5E8E50C4/61D29E97" Ref="#PWR0823"  Part="1" 
AR Path="/5EB88B2F/5E8E50C4/61D29E97" Ref="#PWR?"  Part="1" 
F 0 "#PWR0823" H 5250 4375 50  0001 C CNN
F 1 "GNDA" H 5250 4525 39  0000 C CNN
F 2 "" H 5250 4625 50  0000 C CNN
F 3 "" H 5250 4625 50  0000 C CNN
	1    5250 4625
	1    0    0    -1  
$EndComp
Text Notes 7800 4475 2    50   ~ 0
-3.0V
Text HLabel 7650 4525 2    50   Output ~ 0
VssBuff
$Comp
L power:GNDA #PWR?
U 1 1 62FC1E77
P 5700 5325
AR Path="/59140D2B/62FC1E77" Ref="#PWR?"  Part="1" 
AR Path="/5B5208C5/62FC1E77" Ref="#PWR?"  Part="1" 
AR Path="/57059335/62FC1E77" Ref="#PWR?"  Part="1" 
AR Path="/57059335/5E8E50C4/62FC1E77" Ref="#PWR0831"  Part="1" 
AR Path="/5EB88B2F/5E8E50C4/62FC1E77" Ref="#PWR?"  Part="1" 
F 0 "#PWR0831" H 5700 5075 50  0001 C CNN
F 1 "GNDA" H 5700 5175 50  0000 C CNN
F 2 "" H 5700 5325 50  0000 C CNN
F 3 "" H 5700 5325 50  0000 C CNN
	1    5700 5325
	1    0    0    -1  
$EndComp
Text Notes 4050 4475 2    50   ~ 0
4.5V
Text HLabel 3850 4525 2    50   Output ~ 0
VccBuff
$Comp
L power:GNDA #PWR?
U 1 1 62FC1E75
P 7425 5125
AR Path="/59140D2B/62FC1E75" Ref="#PWR?"  Part="1" 
AR Path="/5B5208C5/62FC1E75" Ref="#PWR?"  Part="1" 
AR Path="/57059335/62FC1E75" Ref="#PWR?"  Part="1" 
AR Path="/57059335/5E8E50C4/62FC1E75" Ref="#PWR0829"  Part="1" 
AR Path="/5EB88B2F/5E8E50C4/62FC1E75" Ref="#PWR?"  Part="1" 
F 0 "#PWR0829" H 7425 4875 50  0001 C CNN
F 1 "GNDA" H 7425 4975 50  0000 C CNN
F 2 "" H 7425 5125 50  0000 C CNN
F 3 "" H 7425 5125 50  0000 C CNN
	1    7425 5125
	1    0    0    -1  
$EndComp
Wire Wire Line
	7300 4825 7425 4825
Wire Wire Line
	7300 4625 7300 4825
Connection ~ 7425 5125
$Comp
L Device:R R?
U 1 1 630204E4
P 7425 4975
AR Path="/57059335/630204E4" Ref="R?"  Part="1" 
AR Path="/57059335/5E8E50C4/630204E4" Ref="R817"  Part="1" 
AR Path="/5EB88B2F/5E8E50C4/630204E4" Ref="R?"  Part="1" 
F 0 "R817" V 7500 5000 50  0000 C CNN
F 1 "1k" V 7425 4975 50  0000 C CNN
F 2 "Resistor_SMD:R_0402_1005Metric" V 7355 4975 50  0001 C CNN
F 3 "" H 7425 4975 50  0000 C CNN
	1    7425 4975
	-1   0    0    1   
$EndComp
Wire Wire Line
	7425 4525 7575 4525
Wire Wire Line
	7300 4525 7425 4525
Connection ~ 7425 4525
Connection ~ 7425 4825
$Comp
L Device:R R?
U 1 1 630204E3
P 7425 4675
AR Path="/57059335/630204E3" Ref="R?"  Part="1" 
AR Path="/57059335/5E8E50C4/630204E3" Ref="R815"  Part="1" 
AR Path="/5EB88B2F/5E8E50C4/630204E3" Ref="R?"  Part="1" 
F 0 "R815" V 7500 4700 50  0000 C CNN
F 1 "1.5k" V 7425 4675 50  0000 C CNN
F 2 "Resistor_SMD:R_0402_1005Metric" V 7355 4675 50  0001 C CNN
F 3 "" H 7425 4675 50  0000 C CNN
	1    7425 4675
	-1   0    0    1   
$EndComp
Wire Wire Line
	6500 4525 6500 4725
$Comp
L power:GNDA #PWR?
U 1 1 5F5329DE
P 6900 4925
AR Path="/59140D2B/5F5329DE" Ref="#PWR?"  Part="1" 
AR Path="/5B5208C5/5F5329DE" Ref="#PWR?"  Part="1" 
AR Path="/57059335/5F5329DE" Ref="#PWR?"  Part="1" 
AR Path="/57059335/5E8E50C4/5F5329DE" Ref="#PWR0826"  Part="1" 
AR Path="/5EB88B2F/5E8E50C4/5F5329DE" Ref="#PWR?"  Part="1" 
F 0 "#PWR0826" H 6900 4675 50  0001 C CNN
F 1 "GNDA" H 6900 4775 50  0000 C CNN
F 2 "" H 6900 4925 50  0000 C CNN
F 3 "" H 6900 4925 50  0000 C CNN
	1    6900 4925
	1    0    0    -1  
$EndComp
Connection ~ 6500 4525
$Comp
L Regulator_Linear:ADP7182AUJZ U?
U 1 1 62FC1E71
P 6900 4625
AR Path="/57059335/62FC1E71" Ref="U?"  Part="1" 
AR Path="/57059335/5E8E50C4/62FC1E71" Ref="U806"  Part="1" 
AR Path="/5EB88B2F/5E8E50C4/62FC1E71" Ref="U?"  Part="1" 
F 0 "U806" H 6900 4258 50  0000 C CNN
F 1 "ADP7182AUJZ" H 6900 4349 50  0000 C CNN
F 2 "Package_TO_SOT_SMD:TSOT-23-5" H 6900 4225 50  0001 C CIN
F 3 "https://www.analog.com/media/en/technical-documentation/data-sheets/ADP7182.pdf" H 6900 4125 50  0001 C CNN
	1    6900 4625
	1    0    0    1   
$EndComp
Text Label 4725 4525 0    50   ~ 0
VccBuff
$Comp
L power:GNDA #PWR?
U 1 1 5F5329CF
P 6325 4825
AR Path="/59140D2B/5F5329CF" Ref="#PWR?"  Part="1" 
AR Path="/5B5208C5/5F5329CF" Ref="#PWR?"  Part="1" 
AR Path="/57059335/5F5329CF" Ref="#PWR?"  Part="1" 
AR Path="/57059335/5E8E50C4/5F5329CF" Ref="#PWR0825"  Part="1" 
AR Path="/5EB88B2F/5E8E50C4/5F5329CF" Ref="#PWR?"  Part="1" 
F 0 "#PWR0825" H 6325 4575 50  0001 C CNN
F 1 "GNDA" H 6325 4675 50  0000 C CNN
F 2 "" H 6325 4825 50  0000 C CNN
F 3 "" H 6325 4825 50  0000 C CNN
	1    6325 4825
	1    0    0    -1  
$EndComp
Wire Wire Line
	6175 4825 6100 4825
$Comp
L Device:R R?
U 1 1 5F5329C6
P 6175 4675
AR Path="/57059335/5F5329C6" Ref="R?"  Part="1" 
AR Path="/57059335/5E8E50C4/5F5329C6" Ref="R814"  Part="1" 
AR Path="/5EB88B2F/5E8E50C4/5F5329C6" Ref="R?"  Part="1" 
F 0 "R814" V 6250 4700 50  0000 C CNN
F 1 "19k" V 6175 4675 50  0000 C CNN
F 2 "Resistor_SMD:R_0402_1005Metric" V 6105 4675 50  0001 C CNN
F 3 "" H 6175 4675 50  0000 C CNN
	1    6175 4675
	-1   0    0    1   
$EndComp
Connection ~ 6175 4525
Wire Wire Line
	6100 4525 6175 4525
Wire Wire Line
	6325 4525 6500 4525
Wire Wire Line
	6175 4525 6325 4525
Connection ~ 6325 4525
$Comp
L Device:C C?
U 1 1 630204DF
P 6325 4675
AR Path="/59140D2B/630204DF" Ref="C?"  Part="1" 
AR Path="/5B5208C5/630204DF" Ref="C?"  Part="1" 
AR Path="/57059335/630204DF" Ref="C?"  Part="1" 
AR Path="/57059335/5E8E50C4/630204DF" Ref="C852"  Part="1" 
AR Path="/5EB88B2F/5E8E50C4/630204DF" Ref="C?"  Part="1" 
F 0 "C852" H 6275 4750 50  0000 L CNN
F 1 "47u" H 6275 4600 50  0000 L CNN
F 2 "Capacitor_SMD:C_0603_1608Metric" H 6363 4525 50  0001 C CNN
F 3 "" H 6325 4675 50  0000 C CNN
	1    6325 4675
	1    0    0    -1  
$EndComp
Wire Wire Line
	5300 5075 5300 5025
Wire Wire Line
	5150 5075 5300 5075
Wire Wire Line
	5300 4775 5300 4825
Wire Wire Line
	5150 4775 5300 4775
$Comp
L Device:C C?
U 1 1 5F5329B4
P 5150 4925
AR Path="/59140D2B/5F5329B4" Ref="C?"  Part="1" 
AR Path="/5B5208C5/5F5329B4" Ref="C?"  Part="1" 
AR Path="/57059335/5F5329B4" Ref="C?"  Part="1" 
AR Path="/57059335/5E8E50C4/5F5329B4" Ref="C856"  Part="1" 
AR Path="/5EB88B2F/5E8E50C4/5F5329B4" Ref="C?"  Part="1" 
F 0 "C856" H 5100 5000 50  0000 L CNN
F 1 "47u" H 5100 4850 50  0000 L CNN
F 2 "Capacitor_SMD:C_0603_1608Metric" H 5188 4775 50  0001 C CNN
F 3 "" H 5150 4925 50  0000 C CNN
	1    5150 4925
	1    0    0    -1  
$EndComp
Wire Wire Line
	5250 4625 5300 4625
$Comp
L power:GNDD #PWR?
U 1 1 5F5329AA
P 4975 4825
AR Path="/57059335/5F5329AA" Ref="#PWR?"  Part="1" 
AR Path="/57059335/5E8E50C4/5F5329AA" Ref="#PWR0824"  Part="1" 
AR Path="/5EB88B2F/5E8E50C4/5F5329AA" Ref="#PWR?"  Part="1" 
F 0 "#PWR0824" H 4975 4575 50  0001 C CNN
F 1 "GNDD" H 4979 4670 50  0000 C CNN
F 2 "" H 4975 4825 50  0001 C CNN
F 3 "" H 4975 4825 50  0001 C CNN
	1    4975 4825
	1    0    0    -1  
$EndComp
Wire Wire Line
	4975 4525 5300 4525
Wire Wire Line
	4975 4525 4725 4525
Connection ~ 4975 4525
$Comp
L Device:C C?
U 1 1 5F5329A4
P 4975 4675
AR Path="/59140D2B/5F5329A4" Ref="C?"  Part="1" 
AR Path="/5B5208C5/5F5329A4" Ref="C?"  Part="1" 
AR Path="/57059335/5F5329A4" Ref="C?"  Part="1" 
AR Path="/57059335/5E8E50C4/5F5329A4" Ref="C851"  Part="1" 
AR Path="/5EB88B2F/5E8E50C4/5F5329A4" Ref="C?"  Part="1" 
F 0 "C851" H 4925 4750 50  0000 L CNN
F 1 "47u" H 4925 4600 50  0000 L CNN
F 2 "Capacitor_SMD:C_0603_1608Metric" H 5013 4525 50  0001 C CNN
F 3 "" H 4975 4675 50  0000 C CNN
	1    4975 4675
	1    0    0    -1  
$EndComp
$Comp
L MDJ_compo:ADP3605 U?
U 1 1 630204DB
P 5700 4825
AR Path="/57059335/630204DB" Ref="U?"  Part="1" 
AR Path="/57059335/5E8E50C4/630204DB" Ref="U808"  Part="1" 
AR Path="/5EB88B2F/5E8E50C4/630204DB" Ref="U?"  Part="1" 
F 0 "U808" H 5700 5392 50  0000 C CNN
F 1 "ADP3605" H 5700 5301 50  0000 C CNN
F 2 "Package_SO:SOIC-8_3.9x4.9mm_P1.27mm" H 5800 4725 50  0001 C CNN
F 3 "https://www.analog.com/media/en/technical-documentation/data-sheets/ADP3605.pdf" H 5800 4725 50  0001 C CNN
	1    5700 4825
	1    0    0    -1  
$EndComp
Wire Wire Line
	3200 5225 3200 5325
Wire Wire Line
	3600 5025 3600 5325
Connection ~ 3600 5325
Wire Wire Line
	3800 5325 3600 5325
Wire Wire Line
	3800 5025 3800 5325
Wire Wire Line
	3800 4525 3800 4725
Wire Wire Line
	3275 5025 3450 5025
Wire Wire Line
	3275 4875 3275 5025
Wire Wire Line
	3200 5325 3450 5325
Wire Wire Line
	3600 5325 3450 5325
Connection ~ 3450 5325
$Comp
L Device:R R?
U 1 1 630204DA
P 3450 5175
AR Path="/57059335/630204DA" Ref="R?"  Part="1" 
AR Path="/57059335/5E8E50C4/630204DA" Ref="R818"  Part="1" 
AR Path="/5EB88B2F/5E8E50C4/630204DA" Ref="R?"  Part="1" 
F 0 "R818" V 3525 5200 50  0000 C CNN
F 1 "1k" V 3450 5175 50  0000 C CNN
F 2 "Resistor_SMD:R_0402_1005Metric" V 3380 5175 50  0001 C CNN
F 3 "" H 3450 5175 50  0000 C CNN
	1    3450 5175
	-1   0    0    1   
$EndComp
Wire Wire Line
	3450 4725 3275 4725
Connection ~ 3450 5025
$Comp
L Device:R R?
U 1 1 5F4F3F9C
P 3450 4875
AR Path="/57059335/5F4F3F9C" Ref="R?"  Part="1" 
AR Path="/57059335/5E8E50C4/5F4F3F9C" Ref="R816"  Part="1" 
AR Path="/5EB88B2F/5E8E50C4/5F4F3F9C" Ref="R?"  Part="1" 
F 0 "R816" V 3525 4900 50  0000 C CNN
F 1 "2k" V 3450 4875 50  0000 C CNN
F 2 "Resistor_SMD:R_0402_1005Metric" V 3380 4875 50  0001 C CNN
F 3 "" H 3450 4875 50  0000 C CNN
	1    3450 4875
	-1   0    0    1   
$EndComp
Connection ~ 2725 5225
Wire Wire Line
	2725 5125 2725 5225
Wire Wire Line
	2825 5225 3200 5225
Wire Wire Line
	2725 5225 2825 5225
Connection ~ 2825 5225
Wire Wire Line
	2825 5125 2825 5225
$Comp
L power:GNDA #PWR?
U 1 1 5F4F3F8C
P 2825 5225
AR Path="/59140D2B/5F4F3F8C" Ref="#PWR?"  Part="1" 
AR Path="/5B5208C5/5F4F3F8C" Ref="#PWR?"  Part="1" 
AR Path="/57059335/5F4F3F8C" Ref="#PWR?"  Part="1" 
AR Path="/57059335/5E8E50C4/5F4F3F8C" Ref="#PWR0830"  Part="1" 
AR Path="/5EB88B2F/5E8E50C4/5F4F3F8C" Ref="#PWR?"  Part="1" 
F 0 "#PWR0830" H 2825 4975 50  0001 C CNN
F 1 "GNDA" H 2825 5075 50  0000 C CNN
F 2 "" H 2825 5225 50  0000 C CNN
F 3 "" H 2825 5225 50  0000 C CNN
	1    2825 5225
	1    0    0    -1  
$EndComp
Connection ~ 3450 4725
Wire Wire Line
	3600 4725 3450 4725
Wire Wire Line
	3275 4525 3800 4525
Wire Wire Line
	3800 4525 3850 4525
Connection ~ 3800 4525
$Comp
L Device:C C?
U 1 1 630204D7
P 3800 4875
AR Path="/59140D2B/630204D7" Ref="C?"  Part="1" 
AR Path="/5B5208C5/630204D7" Ref="C?"  Part="1" 
AR Path="/57059335/630204D7" Ref="C?"  Part="1" 
AR Path="/57059335/5E8E50C4/630204D7" Ref="C855"  Part="1" 
AR Path="/5EB88B2F/5E8E50C4/630204D7" Ref="C?"  Part="1" 
F 0 "C855" H 3750 4950 50  0000 L CNN
F 1 "10u" H 3750 4800 50  0000 L CNN
F 2 "Capacitor_SMD:C_0402_1005Metric" H 3838 4725 50  0001 C CNN
F 3 "" H 3800 4875 50  0000 C CNN
	1    3800 4875
	1    0    0    -1  
$EndComp
$Comp
L Device:C C?
U 1 1 62FC1E65
P 3600 4875
AR Path="/59140D2B/62FC1E65" Ref="C?"  Part="1" 
AR Path="/5B5208C5/62FC1E65" Ref="C?"  Part="1" 
AR Path="/57059335/62FC1E65" Ref="C?"  Part="1" 
AR Path="/57059335/5E8E50C4/62FC1E65" Ref="C854"  Part="1" 
AR Path="/5EB88B2F/5E8E50C4/62FC1E65" Ref="C?"  Part="1" 
F 0 "C854" H 3550 4950 50  0000 L CNN
F 1 "10u" H 3550 4800 50  0000 L CNN
F 2 "Capacitor_SMD:C_0402_1005Metric" H 3638 4725 50  0001 C CNN
F 3 "" H 3600 4875 50  0000 C CNN
	1    3600 4875
	1    0    0    -1  
$EndComp
Wire Wire Line
	2175 4725 2175 4925
Wire Wire Line
	2375 4725 2175 4725
Wire Wire Line
	1975 4525 1975 4925
$Comp
L Device:C C?
U 1 1 5F4F3F72
P 1975 5075
AR Path="/59140D2B/5F4F3F72" Ref="C?"  Part="1" 
AR Path="/5B5208C5/5F4F3F72" Ref="C?"  Part="1" 
AR Path="/57059335/5F4F3F72" Ref="C?"  Part="1" 
AR Path="/57059335/5E8E50C4/5F4F3F72" Ref="C864"  Part="1" 
AR Path="/5EB88B2F/5E8E50C4/5F4F3F72" Ref="C?"  Part="1" 
F 0 "C864" H 1925 5150 50  0000 L CNN
F 1 "10u" H 1925 5000 50  0000 L CNN
F 2 "Capacitor_SMD:C_0402_1005Metric" H 2013 4925 50  0001 C CNN
F 3 "" H 1975 5075 50  0000 C CNN
	1    1975 5075
	1    0    0    -1  
$EndComp
Wire Wire Line
	1975 5225 2175 5225
Connection ~ 2175 5225
$Comp
L Device:C C?
U 1 1 62FC1E63
P 2175 5075
AR Path="/59140D2B/62FC1E63" Ref="C?"  Part="1" 
AR Path="/5B5208C5/62FC1E63" Ref="C?"  Part="1" 
AR Path="/57059335/62FC1E63" Ref="C?"  Part="1" 
AR Path="/57059335/5E8E50C4/62FC1E63" Ref="C865"  Part="1" 
AR Path="/5EB88B2F/5E8E50C4/62FC1E63" Ref="C?"  Part="1" 
F 0 "C865" H 2125 5150 50  0000 L CNN
F 1 "47u" H 2125 5000 50  0000 L CNN
F 2 "Capacitor_SMD:C_0603_1608Metric" H 2213 4925 50  0001 C CNN
F 3 "" H 2175 5075 50  0000 C CNN
	1    2175 5075
	1    0    0    -1  
$EndComp
Wire Wire Line
	2375 5225 2725 5225
Wire Wire Line
	2175 5225 2375 5225
Connection ~ 2375 5225
$Comp
L Device:C C?
U 1 1 62FC1E62
P 2375 5075
AR Path="/59140D2B/62FC1E62" Ref="C?"  Part="1" 
AR Path="/5B5208C5/62FC1E62" Ref="C?"  Part="1" 
AR Path="/57059335/62FC1E62" Ref="C?"  Part="1" 
AR Path="/57059335/5E8E50C4/62FC1E62" Ref="C866"  Part="1" 
AR Path="/5EB88B2F/5E8E50C4/62FC1E62" Ref="C?"  Part="1" 
F 0 "C866" H 2325 5150 50  0000 L CNN
F 1 "10u" H 2300 5000 50  0000 L CNN
F 2 "Capacitor_SMD:C_0402_1005Metric" H 2413 4925 50  0001 C CNN
F 3 "" H 2375 5075 50  0000 C CNN
	1    2375 5075
	1    0    0    -1  
$EndComp
Wire Wire Line
	2375 4625 2375 4525
Connection ~ 1975 4525
Wire Wire Line
	2375 4525 1975 4525
Connection ~ 2375 4525
$Comp
L MDJ_compo:ADM7151 U?
U 1 1 630204D5
P 2825 4725
AR Path="/57059335/630204D5" Ref="U?"  Part="1" 
AR Path="/57059335/5E8E50C4/630204D5" Ref="U807"  Part="1" 
AR Path="/5EB88B2F/5E8E50C4/630204D5" Ref="U?"  Part="1" 
F 0 "U807" H 2825 4725 50  0000 C CNN
F 1 "ADM7151" H 2825 5099 50  0000 C CNN
F 2 "Package_SO:SOIC-8-1EP_3.9x4.9mm_P1.27mm_EP2.29x3mm_ThermalVias" H 2825 4725 50  0001 C CNN
F 3 "" H 2825 4725 50  0000 C CNN
	1    2825 4725
	1    0    0    -1  
$EndComp
Text HLabel 6625 1275 2    50   Output ~ 0
V1P3A
Text HLabel 6625 1725 2    50   Output ~ 0
V1P3D
Text HLabel 6625 2175 2    50   Output ~ 0
V3P0A
Text HLabel 6625 2600 2    50   Output ~ 0
V2P4A
$EndSCHEMATC
