EESchema Schematic File Version 4
EELAYER 30 0
EELAYER END
$Descr A4 11693 8268
encoding utf-8
Sheet 13 15
Title "Clock generation"
Date "2021-06-18"
Rev "1"
Comp "Irfu/DphP"
Comment1 ""
Comment2 ""
Comment3 ""
Comment4 ""
$EndDescr
$Comp
L power:GNDD #PWR01305
U 1 1 5BAC498E
P 2075 1050
F 0 "#PWR01305" H 2075 800 50  0001 C CNN
F 1 "GNDD" H 2075 900 50  0000 C CNN
F 2 "" H 2075 1050 50  0000 C CNN
F 3 "" H 2075 1050 50  0000 C CNN
	1    2075 1050
	1    0    0    -1  
$EndComp
Wire Wire Line
	1000 750  1425 750 
Connection ~ 1425 750 
$Comp
L power:GNDD #PWR01307
U 1 1 5BAC4996
P 1625 2000
F 0 "#PWR01307" H 1625 1750 50  0001 C CNN
F 1 "GNDD" H 1625 1850 50  0000 C CNN
F 2 "" H 1625 2000 50  0000 C CNN
F 3 "" H 1625 2000 50  0000 C CNN
	1    1625 2000
	1    0    0    -1  
$EndComp
$Comp
L Device:R R1301
U 1 1 5BAC499C
P 1000 1125
F 0 "R1301" V 1080 1125 50  0000 C CNN
F 1 "DNP" V 1000 1125 50  0000 C CNN
F 2 "Resistor_SMD:R_0402_1005Metric" H 1000 1125 50  0001 C CNN
F 3 "" H 1000 1125 50  0000 C CNN
	1    1000 1125
	1    0    0    -1  
$EndComp
$Comp
L Device:R R1304
U 1 1 5BAC49A3
P 1000 1575
F 0 "R1304" V 1080 1575 50  0000 C CNN
F 1 "DNP" V 1000 1575 50  0000 C CNN
F 2 "Resistor_SMD:R_0402_1005Metric" H 1000 1575 50  0001 C CNN
F 3 "" H 1000 1575 50  0000 C CNN
	1    1000 1575
	1    0    0    -1  
$EndComp
Wire Wire Line
	1625 1950 1000 1950
Wire Wire Line
	1000 1275 1000 1350
Wire Wire Line
	1000 1350 1075 1350
Connection ~ 1000 1350
Wire Wire Line
	1625 1900 1625 1950
Connection ~ 1625 1950
$Comp
L MDJ_compo:VccO #PWR01302
U 1 1 5BAC49B2
P 1425 700
F 0 "#PWR01302" H 1425 550 50  0001 C CNN
F 1 "VccO" H 1425 850 50  0000 C CNN
F 2 "" H 1425 700 50  0000 C CNN
F 3 "" H 1425 700 50  0000 C CNN
	1    1425 700 
	1    0    0    -1  
$EndComp
Wire Wire Line
	1425 750  1425 700 
Wire Wire Line
	1625 800  1625 750 
Connection ~ 1625 750 
Wire Wire Line
	1425 750  1625 750 
Wire Wire Line
	1000 1350 1000 1425
Wire Wire Line
	1625 1950 1625 2000
Wire Wire Line
	1625 750  2075 750 
$Comp
L MDJ_compo:SI590B U1301
U 1 1 5BAD4CA7
P 1625 1350
F 0 "U1301" H 1400 1600 60  0000 C CNN
F 1 "SI590B" H 1450 1700 60  0000 C CNN
F 2 "MDJ_mod:Si590" H 1625 1350 60  0001 C CNN
F 3 "" H 1625 1350 60  0001 C CNN
	1    1625 1350
	1    0    0    -1  
$EndComp
$Comp
L Device:C C1302
U 1 1 5BADE5E1
P 2075 900
F 0 "C1302" H 1925 975 50  0000 L CNN
F 1 "100n" H 1975 825 50  0000 L CNN
F 2 "Capacitor_SMD:C_0402_1005Metric" H 2113 750 50  0001 C CNN
F 3 "~" H 2075 900 50  0001 C CNN
	1    2075 900 
	1    0    0    -1  
$EndComp
Wire Wire Line
	1000 750  1000 975 
Wire Wire Line
	1000 1725 1000 1950
$Comp
L Device:R R1302
U 1 1 5C5858F4
P 3650 1250
F 0 "R1302" V 3550 1250 50  0000 C CNN
F 1 "100" V 3650 1250 50  0000 C CNN
F 2 "Resistor_SMD:R_0201_0603Metric" H 3650 1250 50  0001 C CNN
F 3 "" H 3650 1250 50  0000 C CNN
	1    3650 1250
	1    0    0    -1  
$EndComp
Wire Wire Line
	4550 2350 4450 2350
$Comp
L power:GNDD #PWR01308
U 1 1 5D10D3B0
P 4450 2350
F 0 "#PWR01308" H 4450 2100 50  0001 C CNN
F 1 "GNDD" H 4450 2200 50  0000 C CNN
F 2 "" H 4450 2350 50  0000 C CNN
F 3 "" H 4450 2350 50  0000 C CNN
	1    4450 2350
	1    0    0    -1  
$EndComp
$Comp
L MDJ_compo:VccO #PWR01301
U 1 1 5D10D38D
P 4500 625
F 0 "#PWR01301" H 4500 475 50  0001 C CNN
F 1 "VccO" H 4500 775 50  0000 C CNN
F 2 "" H 4500 625 50  0000 C CNN
F 3 "" H 4500 625 50  0000 C CNN
	1    4500 625 
	1    0    0    -1  
$EndComp
Text Label 2525 1400 0    39   ~ 0
loc_CLK-
Text Label 2525 1300 0    39   ~ 0
loc_CLK+
$Comp
L MDJ_compo:SI53340 U1302
U 1 1 5D0D747D
P 4500 1600
F 0 "U1302" H 4500 1525 50  0000 C CNN
F 1 "SI53340" H 4500 1600 50  0000 C CNN
F 2 "MDJ_mod:QFN-16-1EP_3x3mm_P0.5mm_EP1.8x1.8mm_4Gnd" H 5550 600 50  0001 C CNN
F 3 "https://www.silabs.com/documents/public/data-sheets/si5334x-datasheet.pdf" H 4000 2100 50  0001 C CNN
	1    4500 1600
	1    0    0    -1  
$EndComp
$Comp
L Device:C C1303
U 1 1 5D18C75B
P 4650 900
F 0 "C1303" V 4525 950 50  0000 L CNN
F 1 "10u" V 4600 950 50  0000 L CNN
F 2 "Capacitor_SMD:C_0402_1005Metric" H 4688 750 50  0001 C CNN
F 3 "~" H 4650 900 50  0001 C CNN
	1    4650 900 
	0    1    1    0   
$EndComp
$Comp
L power:GNDD #PWR01303
U 1 1 5D18C761
P 4800 900
F 0 "#PWR01303" H 4800 650 50  0001 C CNN
F 1 "GNDD" H 4800 750 50  0000 C CNN
F 2 "" H 4800 900 50  0000 C CNN
F 3 "" H 4800 900 50  0000 C CNN
	1    4800 900 
	1    0    0    -1  
$EndComp
Text HLabel 5400 2050 2    39   Output ~ 0
CLK_to_FPGA_N
Wire Wire Line
	3800 1900 3800 2350
Wire Wire Line
	3800 2350 4450 2350
Connection ~ 4450 2350
Wire Wire Line
	2850 1700 3200 1700
Wire Wire Line
	2850 1600 2975 1600
Text HLabel 2850 1600 0    39   Input ~ 0
Clk_from_FE_P
Text HLabel 2850 1700 0    39   Input ~ 0
Clk_from_FE_N
$Comp
L Device:C C1307
U 1 1 626F069C
P 3125 1300
F 0 "C1307" V 3075 1350 50  0000 L CNN
F 1 "100n" V 3075 1025 50  0000 L CNN
F 2 "Capacitor_SMD:C_0201_0603Metric" H 3163 1150 50  0001 C CNN
F 3 "~" H 3125 1300 50  0001 C CNN
	1    3125 1300
	0    1    1    0   
$EndComp
$Comp
L Device:C C1308
U 1 1 626F5532
P 3350 1400
F 0 "C1308" V 3400 1450 50  0000 L CNN
F 1 "100n" V 3400 1125 50  0000 L CNN
F 2 "Capacitor_SMD:C_0201_0603Metric" H 3388 1250 50  0001 C CNN
F 3 "~" H 3350 1400 50  0001 C CNN
	1    3350 1400
	0    1    1    0   
$EndComp
Wire Wire Line
	3275 1300 3500 1300
$Comp
L Device:C C1312
U 1 1 62702275
P 3350 1700
F 0 "C1312" V 3400 1750 50  0000 L CNN
F 1 "100n" V 3400 1425 50  0000 L CNN
F 2 "Capacitor_SMD:C_0201_0603Metric" H 3388 1550 50  0001 C CNN
F 3 "~" H 3350 1700 50  0001 C CNN
	1    3350 1700
	0    1    1    0   
$EndComp
$Comp
L Device:C C1311
U 1 1 627025C5
P 3125 1600
F 0 "C1311" V 3075 1650 50  0000 L CNN
F 1 "100n" V 3075 1325 50  0000 L CNN
F 2 "Capacitor_SMD:C_0201_0603Metric" H 3163 1450 50  0001 C CNN
F 3 "~" H 3125 1600 50  0001 C CNN
	1    3125 1600
	0    1    1    0   
$EndComp
$Comp
L Device:R R1305
U 1 1 62711EC9
P 3650 1750
F 0 "R1305" V 3575 1750 50  0000 C CNN
F 1 "100" V 3650 1750 50  0000 C CNN
F 2 "Resistor_SMD:R_0201_0603Metric" H 3650 1750 50  0001 C CNN
F 3 "" H 3650 1750 50  0000 C CNN
	1    3650 1750
	-1   0    0    1   
$EndComp
Wire Wire Line
	3650 1600 3800 1600
Wire Wire Line
	3650 1400 3800 1400
Wire Wire Line
	3800 1700 3750 1700
Wire Wire Line
	3750 1700 3750 1900
Wire Wire Line
	3750 1900 3650 1900
Wire Wire Line
	3800 1300 3750 1300
Wire Wire Line
	3750 1300 3750 1100
Wire Wire Line
	3750 1100 3650 1100
Wire Wire Line
	3500 1700 3500 1900
Wire Wire Line
	3500 1900 3650 1900
Connection ~ 3650 1900
Wire Wire Line
	3275 1600 3650 1600
Connection ~ 3650 1600
Wire Wire Line
	3500 1400 3650 1400
Connection ~ 3650 1400
Wire Wire Line
	3500 1300 3500 1100
Wire Wire Line
	3500 1100 3650 1100
Connection ~ 3650 1100
Text HLabel 8800 3000 0    39   Input ~ 0
PwupRstb
Wire Wire Line
	2500 1400 3200 1400
$Comp
L Device:C C1301
U 1 1 5F25E378
P 4650 700
F 0 "C1301" V 4525 750 50  0000 L CNN
F 1 "100n" V 4600 750 50  0000 L CNN
F 2 "Capacitor_SMD:C_0402_1005Metric" H 4688 550 50  0001 C CNN
F 3 "~" H 4650 700 50  0001 C CNN
	1    4650 700 
	0    1    1    0   
$EndComp
Wire Wire Line
	4800 700  4800 900 
Connection ~ 4800 900 
Wire Wire Line
	4500 625  4500 700 
Connection ~ 4500 900 
Connection ~ 4500 700 
Wire Wire Line
	4500 700  4500 900 
Wire Wire Line
	2175 1400 2350 1400
Wire Wire Line
	2350 1400 2350 1300
Wire Wire Line
	2350 1300 2975 1300
Wire Wire Line
	2175 1300 2175 1350
Wire Wire Line
	2175 1350 2500 1350
Wire Wire Line
	2500 1350 2500 1400
Text Notes 2200 1225 0    50   ~ 0
Swap pins for\nbetter routing
Text Notes 5350 1350 0    50   ~ 0
Swap pins for\nbetter routing
Text HLabel 8800 2875 2    39   Output ~ 0
Clk_OK[1..2]
Text HLabel 8800 2925 2    39   Output ~ 0
LoL[1..2]
Text HLabel 4525 3750 2    39   Output ~ 0
CLK_for_ADC_N[1..3]
Text HLabel 4525 3700 2    39   Output ~ 0
CLK_for_ADC_P[1..3]
Text HLabel 8800 2750 2    39   Input ~ 0
I2C_SCL
Text HLabel 8800 2800 2    39   BiDi ~ 0
I2C_SDA
Wire Wire Line
	5200 2050 5400 2050
Wire Wire Line
	5200 1950 5400 1950
Text HLabel 5400 1950 2    39   Output ~ 0
CLK_to_FPGA_P
$Comp
L MDJ_compo:VccO #PWR01304
U 1 1 6279C75D
P 7475 1025
F 0 "#PWR01304" H 7475 875 50  0001 C CNN
F 1 "VccO" H 7350 1075 50  0000 C CNN
F 2 "" H 7475 1025 50  0000 C CNN
F 3 "" H 7475 1025 50  0000 C CNN
	1    7475 1025
	1    0    0    -1  
$EndComp
Text Label 6625 2000 0    39   ~ 0
PwupRstb
Text Label 8500 2250 2    35   ~ 0
I2C_SDA
Text Label 8500 2200 2    35   ~ 0
I2C_SCL
Wire Wire Line
	8175 2250 8500 2250
Wire Wire Line
	8175 2200 8500 2200
Text Label 6625 1950 0    35   ~ 0
LoL1
Text Label 6625 1850 0    35   ~ 0
Clk_OK1
Text Label 4325 3775 2    35   ~ 0
CLK_for_ADC_N2
Text Label 4325 3700 2    35   ~ 0
CLK_for_ADC_P2
Text Notes 8450 2075 0    50   ~ 0
Actual address is \n1101xyz
Connection ~ 7475 1025
Wire Wire Line
	7475 1025 7475 1350
Text Notes 6000 2550 0    50   ~ 0
Ref RS : 171-2823
Wire Wire Line
	6525 2175 6525 2450
Wire Wire Line
	6525 2450 6725 2450
Wire Wire Line
	6725 2450 6900 2450
Connection ~ 6725 2450
Wire Wire Line
	6725 2175 6725 2450
Wire Wire Line
	6775 2200 6975 2200
Wire Wire Line
	6775 2275 6775 2200
Wire Wire Line
	6625 2275 6775 2275
Wire Wire Line
	6775 2150 6975 2150
Wire Wire Line
	6775 2075 6775 2150
Wire Wire Line
	6625 2075 6775 2075
$Comp
L Device:Crystal_GND24_Small Y1301
U 1 1 60A4E9FD
P 6625 2175
F 0 "Y1301" V 6675 1825 50  0000 L CNN
F 1 "114.285 MHz" V 6775 1750 50  0000 L CNN
F 2 "MDJ_mod:OSCSC320X250X100N" H 6625 2175 50  0001 C CNN
F 3 "~" H 6625 2175 50  0001 C CNN
	1    6625 2175
	0    1    1    0   
$EndComp
$Comp
L Device:C C1306
U 1 1 5F24F8D9
P 8225 1175
F 0 "C1306" H 8175 1400 50  0000 L CNN
F 1 "100n" H 8125 1250 50  0000 L CNN
F 2 "Capacitor_SMD:C_0402_1005Metric" H 8263 1025 50  0001 C CNN
F 3 "~" H 8225 1175 50  0001 C CNN
	1    8225 1175
	1    0    0    -1  
$EndComp
Wire Wire Line
	8000 1325 7775 1325
Wire Wire Line
	8225 1325 8000 1325
Connection ~ 8000 1325
Wire Wire Line
	8225 1025 8000 1025
Connection ~ 8000 1025
$Comp
L Device:C C1305
U 1 1 5F24F5DB
P 8000 1175
F 0 "C1305" H 7950 1400 50  0000 L CNN
F 1 "100n" H 7900 1250 50  0000 L CNN
F 2 "Capacitor_SMD:C_0402_1005Metric" H 8038 1025 50  0001 C CNN
F 3 "~" H 8000 1175 50  0001 C CNN
	1    8000 1175
	1    0    0    -1  
$EndComp
NoConn ~ 8175 2300
NoConn ~ 6975 2300
NoConn ~ 6975 2250
Wire Wire Line
	8250 2100 8250 2450
Connection ~ 8250 2100
Wire Wire Line
	8175 2100 8250 2100
Wire Wire Line
	8250 1950 8250 2000
Wire Wire Line
	8250 2050 8250 2100
Connection ~ 8250 2050
Wire Wire Line
	8175 2050 8250 2050
Wire Wire Line
	8175 1950 8250 1950
$Comp
L power:GNDD #PWR01311
U 1 1 627C6068
P 8250 2450
F 0 "#PWR01311" H 8250 2200 50  0001 C CNN
F 1 "GNDD" H 8250 2300 50  0000 C CNN
F 2 "" H 8250 2450 50  0000 C CNN
F 3 "" H 8250 2450 50  0000 C CNN
	1    8250 2450
	1    0    0    -1  
$EndComp
Wire Wire Line
	6975 2000 6625 2000
Wire Wire Line
	6900 1800 6900 2450
Wire Wire Line
	6975 1800 6900 1800
Connection ~ 6900 2450
$Comp
L power:GNDD #PWR01309
U 1 1 627B2699
P 6900 2450
F 0 "#PWR01309" H 6900 2200 50  0001 C CNN
F 1 "GNDD" H 6900 2300 50  0000 C CNN
F 2 "" H 6900 2450 50  0000 C CNN
F 3 "" H 6900 2450 50  0000 C CNN
	1    6900 2450
	1    0    0    -1  
$EndComp
Wire Wire Line
	6975 1950 6625 1950
Wire Wire Line
	6975 1850 6625 1850
$Comp
L power:GNDD #PWR01306
U 1 1 627A6F78
P 7775 1325
F 0 "#PWR01306" H 7775 1075 50  0001 C CNN
F 1 "GNDD" H 7975 1250 50  0000 C CNN
F 2 "" H 7775 1325 50  0000 C CNN
F 3 "" H 7775 1325 50  0000 C CNN
	1    7775 1325
	1    0    0    -1  
$EndComp
Connection ~ 7775 1325
Wire Wire Line
	8000 1025 7775 1025
Wire Wire Line
	7775 1025 7475 1025
Connection ~ 7775 1025
$Comp
L Device:C C1304
U 1 1 6279C767
P 7775 1175
F 0 "C1304" H 7600 1400 50  0000 L CNN
F 1 "10u" H 7675 1250 50  0000 L CNN
F 2 "Capacitor_SMD:C_0402_1005Metric" H 7813 1025 50  0001 C CNN
F 3 "~" H 7775 1175 50  0001 C CNN
	1    7775 1175
	1    0    0    -1  
$EndComp
$Comp
L power:GNDD #PWR01310
U 1 1 6279654F
P 7475 2450
F 0 "#PWR01310" H 7475 2200 50  0001 C CNN
F 1 "GNDD" H 7475 2300 50  0000 C CNN
F 2 "" H 7475 2450 50  0000 C CNN
F 3 "" H 7475 2450 50  0000 C CNN
	1    7475 2450
	1    0    0    -1  
$EndComp
Wire Wire Line
	3850 3775 4325 3775
Wire Wire Line
	3850 3700 4325 3700
Wire Wire Line
	6975 1250 6975 1500
Wire Wire Line
	6675 1450 6675 1250
Wire Wire Line
	6450 1450 6675 1450
$Comp
L Device:C C1310
U 1 1 627591BD
P 6525 1550
F 0 "C1310" V 6575 1600 50  0000 L CNN
F 1 "100n" V 6575 1275 50  0000 L CNN
F 2 "Capacitor_SMD:C_0201_0603Metric" H 6563 1400 50  0001 C CNN
F 3 "~" H 6525 1550 50  0001 C CNN
	1    6525 1550
	0    1    1    0   
$EndComp
$Comp
L Device:C C1309
U 1 1 627591B3
P 6300 1450
F 0 "C1309" V 6250 1500 50  0000 L CNN
F 1 "100n" V 6250 1175 50  0000 L CNN
F 2 "Capacitor_SMD:C_0201_0603Metric" H 6338 1300 50  0001 C CNN
F 3 "~" H 6300 1450 50  0001 C CNN
	1    6300 1450
	0    1    1    0   
$EndComp
Wire Wire Line
	6675 1550 6825 1550
Wire Wire Line
	6825 1550 6975 1550
Connection ~ 6825 1550
Wire Wire Line
	6825 1250 6975 1250
Wire Wire Line
	6675 1250 6825 1250
Connection ~ 6825 1250
$Comp
L Device:R R1303
U 1 1 627591A8
P 6825 1400
F 0 "R1303" V 6725 1400 50  0000 C CNN
F 1 "100" V 6825 1400 50  0000 C CNN
F 2 "Resistor_SMD:R_0201_0603Metric" H 6825 1400 50  0001 C CNN
F 3 "" H 6825 1400 50  0000 C CNN
	1    6825 1400
	1    0    0    -1  
$EndComp
Connection ~ 7475 2450
Connection ~ 7475 1350
Wire Wire Line
	7625 2450 7675 2450
Connection ~ 7625 2450
Wire Wire Line
	7575 2450 7625 2450
Connection ~ 7575 2450
Wire Wire Line
	7525 2450 7575 2450
Wire Wire Line
	7475 2450 7525 2450
Connection ~ 7525 2450
Wire Wire Line
	7525 1350 7575 1350
Wire Wire Line
	7475 1350 7525 1350
Connection ~ 7525 1350
$Comp
L MDJ_compo:SI5319 U1303
U 1 1 626E706B
P 7575 1900
F 0 "U1303" H 7575 1975 50  0000 C CNN
F 1 "SI5319" H 7575 1900 50  0000 C CNN
F 2 "Package_DFN_QFN:QFN-36-1EP_6x6mm_P0.5mm_EP4.1x4.1mm_ThermalVias" H 8625 900 50  0001 C CNN
F 3 "https://www.silabs.com/documents/public/data-sheets/Si5319.pdf" H 7075 2350 50  0001 C CNN
	1    7575 1900
	1    0    0    -1  
$EndComp
Text Label 5400 1450 0    50   ~ 0
Clk_160_1+
Text Label 5400 1550 0    50   ~ 0
Clk_160_1-
Wire Wire Line
	8175 1500 8550 1500
Text Label 8550 1500 2    39   ~ 0
Clk_1280+
Wire Wire Line
	8175 1550 8550 1550
Text Label 8550 1550 2    39   ~ 0
Clk_1280-
$Comp
L power:GNDD #PWR01319
U 1 1 6112ECB9
P 3100 4450
F 0 "#PWR01319" H 3100 4200 50  0001 C CNN
F 1 "GNDD" H 3100 4300 50  0000 C CNN
F 2 "" H 3100 4450 50  0000 C CNN
F 3 "" H 3100 4450 50  0000 C CNN
	1    3100 4450
	1    0    0    -1  
$EndComp
Wire Wire Line
	3200 4450 3100 4450
Text Label 4325 3600 2    35   ~ 0
CLK_for_ADC_N1
Text Label 4325 3525 2    35   ~ 0
CLK_for_ADC_P1
Wire Wire Line
	3850 3600 4325 3600
Wire Wire Line
	3850 3525 4325 3525
Text Label 4325 3950 2    35   ~ 0
CLK_for_ADC_N3
Text Label 4325 3875 2    35   ~ 0
CLK_for_ADC_P3
Wire Wire Line
	3850 3950 4325 3950
Wire Wire Line
	3850 3875 4325 3875
$Comp
L MDJ_compo:VccO #PWR01313
U 1 1 611410E5
P 3150 3200
F 0 "#PWR01313" H 3150 3050 50  0001 C CNN
F 1 "VccO" H 3150 3350 50  0000 C CNN
F 2 "" H 3150 3200 50  0000 C CNN
F 3 "" H 3150 3200 50  0000 C CNN
	1    3150 3200
	1    0    0    -1  
$EndComp
Wire Wire Line
	2450 3525 1975 3525
Text Label 1375 3600 0    39   ~ 0
Clk_1280+
Wire Wire Line
	2450 3600 2125 3600
Text Label 1375 3525 0    39   ~ 0
Clk_1280-
NoConn ~ 2450 3725
NoConn ~ 2450 3800
NoConn ~ 3850 4050
NoConn ~ 3850 4125
$Comp
L Device:R R1310
U 1 1 61191A80
P 2125 3800
F 0 "R1310" V 2050 3800 50  0000 C CNN
F 1 "62.5" V 2125 3800 50  0000 C CNN
F 2 "Resistor_SMD:R_0201_0603Metric" H 2125 3800 50  0001 C CNN
F 3 "" H 2125 3800 50  0000 C CNN
	1    2125 3800
	-1   0    0    1   
$EndComp
$Comp
L Device:R R1309
U 1 1 6119249D
P 1975 3800
F 0 "R1309" V 1900 3800 50  0000 C CNN
F 1 "62.5" V 1975 3800 50  0000 C CNN
F 2 "Resistor_SMD:R_0201_0603Metric" H 1975 3800 50  0001 C CNN
F 3 "" H 1975 3800 50  0000 C CNN
	1    1975 3800
	-1   0    0    1   
$EndComp
$Comp
L power:GNDD #PWR01316
U 1 1 6119273D
P 2050 3950
F 0 "#PWR01316" H 2050 3700 50  0001 C CNN
F 1 "GNDD" H 2050 3800 50  0000 C CNN
F 2 "" H 2050 3950 50  0000 C CNN
F 3 "" H 2050 3950 50  0000 C CNN
	1    2050 3950
	1    0    0    -1  
$EndComp
$Comp
L MDJ_compo:VccO #PWR01312
U 1 1 61192DE6
P 2050 3175
F 0 "#PWR01312" H 2050 3025 50  0001 C CNN
F 1 "VccO" H 2050 3325 50  0000 C CNN
F 2 "" H 2050 3175 50  0000 C CNN
F 3 "" H 2050 3175 50  0000 C CNN
	1    2050 3175
	1    0    0    -1  
$EndComp
$Comp
L Device:R R1307
U 1 1 611917AC
P 2125 3325
F 0 "R1307" V 2050 3325 50  0000 C CNN
F 1 "250" V 2125 3325 50  0000 C CNN
F 2 "Resistor_SMD:R_0201_0603Metric" H 2125 3325 50  0001 C CNN
F 3 "" H 2125 3325 50  0000 C CNN
	1    2125 3325
	-1   0    0    1   
$EndComp
$Comp
L Device:R R1306
U 1 1 6118AABC
P 1975 3325
F 0 "R1306" V 1900 3325 50  0000 C CNN
F 1 "250" V 1975 3325 50  0000 C CNN
F 2 "Resistor_SMD:R_0201_0603Metric" H 1975 3325 50  0001 C CNN
F 3 "" H 1975 3325 50  0000 C CNN
	1    1975 3325
	-1   0    0    1   
$EndComp
Wire Wire Line
	1975 3475 1975 3525
Connection ~ 1975 3525
Wire Wire Line
	1975 3525 1375 3525
Wire Wire Line
	1975 3525 1975 3650
Wire Wire Line
	2125 3475 2125 3600
Connection ~ 2125 3600
Wire Wire Line
	2125 3600 1375 3600
Wire Wire Line
	2125 3600 2125 3650
Wire Wire Line
	2125 3950 2050 3950
Wire Wire Line
	2050 3950 1975 3950
Connection ~ 2050 3950
Wire Wire Line
	1975 3175 2050 3175
Connection ~ 2050 3175
Wire Wire Line
	2050 3175 2125 3175
$Comp
L MDJ_compo:VccO #PWR01314
U 1 1 60D4FBB8
P 7475 3200
F 0 "#PWR01314" H 7475 3050 50  0001 C CNN
F 1 "VccO" H 7350 3250 50  0000 C CNN
F 2 "" H 7475 3200 50  0000 C CNN
F 3 "" H 7475 3200 50  0000 C CNN
	1    7475 3200
	1    0    0    -1  
$EndComp
Text Label 6625 4175 0    39   ~ 0
PwupRstb
Text Label 8500 4425 2    35   ~ 0
I2C_SDA
Text Label 8500 4375 2    35   ~ 0
I2C_SCL
Wire Wire Line
	8175 4425 8500 4425
Wire Wire Line
	8175 4375 8500 4375
Text Label 6625 4125 0    35   ~ 0
LoL2
Text Label 6625 4025 0    35   ~ 0
Clk_OK2
Text Notes 8450 4250 0    50   ~ 0
Actual address is \n1101xyz
Wire Wire Line
	8175 4175 8350 4175
Wire Wire Line
	8350 4175 8350 4125
$Comp
L MDJ_compo:VccO #PWR01318
U 1 1 60D4FF00
P 8350 4125
F 0 "#PWR01318" H 8350 3975 50  0001 C CNN
F 1 "VccO" H 8350 4275 50  0000 C CNN
F 2 "" H 8350 4125 50  0000 C CNN
F 3 "" H 8350 4125 50  0000 C CNN
	1    8350 4125
	1    0    0    -1  
$EndComp
Connection ~ 7475 3200
Wire Wire Line
	7475 3200 7475 3525
Text Notes 6000 4725 0    50   ~ 0
Ref RS : 171-2823
Wire Wire Line
	6525 4350 6525 4625
Wire Wire Line
	6525 4625 6725 4625
Wire Wire Line
	6725 4625 6900 4625
Connection ~ 6725 4625
Wire Wire Line
	6725 4350 6725 4625
Wire Wire Line
	6775 4375 6975 4375
Wire Wire Line
	6775 4450 6775 4375
Wire Wire Line
	6625 4450 6775 4450
Wire Wire Line
	6775 4325 6975 4325
Wire Wire Line
	6775 4250 6775 4325
Wire Wire Line
	6625 4250 6775 4250
$Comp
L Device:Crystal_GND24_Small Y1302
U 1 1 60D4FF19
P 6625 4350
F 0 "Y1302" V 6675 4000 50  0000 L CNN
F 1 "114.285 MHz" V 6775 3925 50  0000 L CNN
F 2 "MDJ_mod:OSCSC320X250X100N" H 6625 4350 50  0001 C CNN
F 3 "~" H 6625 4350 50  0001 C CNN
	1    6625 4350
	0    1    1    0   
$EndComp
$Comp
L Device:C C1315
U 1 1 60D4FF23
P 8225 3350
F 0 "C1315" H 8175 3575 50  0000 L CNN
F 1 "100n" H 8125 3425 50  0000 L CNN
F 2 "Capacitor_SMD:C_0402_1005Metric" H 8263 3200 50  0001 C CNN
F 3 "~" H 8225 3350 50  0001 C CNN
	1    8225 3350
	1    0    0    -1  
$EndComp
Wire Wire Line
	8000 3500 7775 3500
Wire Wire Line
	8225 3500 8000 3500
Connection ~ 8000 3500
Wire Wire Line
	8225 3200 8000 3200
Connection ~ 8000 3200
$Comp
L Device:C C1314
U 1 1 60D4FF32
P 8000 3350
F 0 "C1314" H 7950 3575 50  0000 L CNN
F 1 "100n" H 7900 3425 50  0000 L CNN
F 2 "Capacitor_SMD:C_0402_1005Metric" H 8038 3200 50  0001 C CNN
F 3 "~" H 8000 3350 50  0001 C CNN
	1    8000 3350
	1    0    0    -1  
$EndComp
NoConn ~ 8175 4475
NoConn ~ 6975 4475
NoConn ~ 6975 4425
Wire Wire Line
	8250 4275 8250 4625
Connection ~ 8250 4275
Wire Wire Line
	8175 4275 8250 4275
Wire Wire Line
	8250 4125 8250 4225
Wire Wire Line
	8250 4225 8250 4275
Connection ~ 8250 4225
Wire Wire Line
	8175 4225 8250 4225
Wire Wire Line
	8175 4125 8250 4125
$Comp
L power:GNDD #PWR01322
U 1 1 60D4FF47
P 8250 4625
F 0 "#PWR01322" H 8250 4375 50  0001 C CNN
F 1 "GNDD" H 8250 4475 50  0000 C CNN
F 2 "" H 8250 4625 50  0000 C CNN
F 3 "" H 8250 4625 50  0000 C CNN
	1    8250 4625
	1    0    0    -1  
$EndComp
Wire Wire Line
	6975 4175 6625 4175
Wire Wire Line
	6900 3975 6900 4625
Wire Wire Line
	6975 3975 6900 3975
Connection ~ 6900 4625
$Comp
L power:GNDD #PWR01320
U 1 1 60D4FF55
P 6900 4625
F 0 "#PWR01320" H 6900 4375 50  0001 C CNN
F 1 "GNDD" H 6900 4475 50  0000 C CNN
F 2 "" H 6900 4625 50  0000 C CNN
F 3 "" H 6900 4625 50  0000 C CNN
	1    6900 4625
	1    0    0    -1  
$EndComp
Wire Wire Line
	6975 4125 6625 4125
Wire Wire Line
	6975 4025 6625 4025
$Comp
L power:GNDD #PWR01315
U 1 1 60D4FF61
P 7775 3500
F 0 "#PWR01315" H 7775 3250 50  0001 C CNN
F 1 "GNDD" H 7975 3425 50  0000 C CNN
F 2 "" H 7775 3500 50  0000 C CNN
F 3 "" H 7775 3500 50  0000 C CNN
	1    7775 3500
	1    0    0    -1  
$EndComp
Connection ~ 7775 3500
Wire Wire Line
	8000 3200 7775 3200
Wire Wire Line
	7775 3200 7475 3200
Connection ~ 7775 3200
$Comp
L Device:C C1313
U 1 1 60D4FF6F
P 7775 3350
F 0 "C1313" H 7600 3575 50  0000 L CNN
F 1 "10u" H 7675 3425 50  0000 L CNN
F 2 "Capacitor_SMD:C_0402_1005Metric" H 7813 3200 50  0001 C CNN
F 3 "~" H 7775 3350 50  0001 C CNN
	1    7775 3350
	1    0    0    -1  
$EndComp
$Comp
L power:GNDD #PWR01321
U 1 1 60D4FF79
P 7475 4625
F 0 "#PWR01321" H 7475 4375 50  0001 C CNN
F 1 "GNDD" H 7475 4475 50  0000 C CNN
F 2 "" H 7475 4625 50  0000 C CNN
F 3 "" H 7475 4625 50  0000 C CNN
	1    7475 4625
	1    0    0    -1  
$EndComp
Wire Wire Line
	6975 3425 6975 3675
Wire Wire Line
	6675 3625 6675 3425
Wire Wire Line
	6450 3625 6675 3625
$Comp
L Device:C C1317
U 1 1 60D4FF86
P 6525 3725
F 0 "C1317" V 6575 3775 50  0000 L CNN
F 1 "100n" V 6575 3450 50  0000 L CNN
F 2 "Capacitor_SMD:C_0201_0603Metric" H 6563 3575 50  0001 C CNN
F 3 "~" H 6525 3725 50  0001 C CNN
	1    6525 3725
	0    1    1    0   
$EndComp
$Comp
L Device:C C1316
U 1 1 60D4FF90
P 6300 3625
F 0 "C1316" V 6250 3675 50  0000 L CNN
F 1 "100n" V 6250 3350 50  0000 L CNN
F 2 "Capacitor_SMD:C_0201_0603Metric" H 6338 3475 50  0001 C CNN
F 3 "~" H 6300 3625 50  0001 C CNN
	1    6300 3625
	0    1    1    0   
$EndComp
Wire Wire Line
	6675 3725 6825 3725
Wire Wire Line
	6825 3725 6975 3725
Connection ~ 6825 3725
Wire Wire Line
	6825 3425 6975 3425
Wire Wire Line
	6675 3425 6825 3425
Connection ~ 6825 3425
$Comp
L Device:R R1308
U 1 1 60D4FFA0
P 6825 3575
F 0 "R1308" V 6725 3575 50  0000 C CNN
F 1 "100" V 6825 3575 50  0000 C CNN
F 2 "Resistor_SMD:R_0201_0603Metric" H 6825 3575 50  0001 C CNN
F 3 "" H 6825 3575 50  0000 C CNN
	1    6825 3575
	1    0    0    -1  
$EndComp
Connection ~ 7475 4625
Connection ~ 7475 3525
Wire Wire Line
	7625 4625 7675 4625
Connection ~ 7625 4625
Wire Wire Line
	7575 4625 7625 4625
Connection ~ 7575 4625
Wire Wire Line
	7525 4625 7575 4625
Wire Wire Line
	7475 4625 7525 4625
Connection ~ 7525 4625
Wire Wire Line
	7525 3525 7575 3525
Wire Wire Line
	7475 3525 7525 3525
Connection ~ 7525 3525
$Comp
L MDJ_compo:SI5319 U1305
U 1 1 60D4FFB6
P 7575 4075
F 0 "U1305" H 7575 4150 50  0000 C CNN
F 1 "SI5319" H 7575 4075 50  0000 C CNN
F 2 "Package_DFN_QFN:QFN-36-1EP_6x6mm_P0.5mm_EP4.1x4.1mm_ThermalVias" H 8625 3075 50  0001 C CNN
F 3 "https://www.silabs.com/documents/public/data-sheets/Si5319.pdf" H 7075 4525 50  0001 C CNN
	1    7575 4075
	1    0    0    -1  
$EndComp
Wire Wire Line
	8175 3675 8550 3675
Text Label 8550 3675 2    39   ~ 0
Clk_100+
Wire Wire Line
	8175 3725 8550 3725
Text Label 8550 3725 2    39   ~ 0
Clk_100-
Wire Wire Line
	6150 1800 6150 3625
Wire Wire Line
	6050 1700 6050 3725
Wire Wire Line
	6050 3725 6375 3725
Text HLabel 4500 5400 2    39   Output ~ 0
CLK_for_GTH_N[1..3]
Text HLabel 4500 5350 2    39   Output ~ 0
CLK_for_GTH_P[1..3]
Wire Wire Line
	8175 2000 8250 2000
Connection ~ 8250 2000
Wire Wire Line
	8250 2000 8250 2050
Text Label 4300 5425 2    35   ~ 0
CLK_for_GTH_N2
Text Label 4300 5350 2    35   ~ 0
CLK_for_GTH_P2
Wire Wire Line
	3825 5425 4300 5425
Wire Wire Line
	3825 5350 4300 5350
$Comp
L power:GNDD #PWR01327
U 1 1 60D54C8F
P 3075 6100
F 0 "#PWR01327" H 3075 5850 50  0001 C CNN
F 1 "GNDD" H 3075 5950 50  0000 C CNN
F 2 "" H 3075 6100 50  0000 C CNN
F 3 "" H 3075 6100 50  0000 C CNN
	1    3075 6100
	1    0    0    -1  
$EndComp
Wire Wire Line
	3175 6100 3075 6100
Text Label 4300 5250 2    35   ~ 0
CLK_for_GTH_N1
Text Label 4300 5175 2    35   ~ 0
CLK_for_GTH_P1
Wire Wire Line
	3825 5250 4300 5250
Wire Wire Line
	3825 5175 4300 5175
Text Label 4300 5600 2    35   ~ 0
CLK_for_GTH_N3
Text Label 4300 5525 2    35   ~ 0
CLK_for_GTH_P3
Wire Wire Line
	3825 5600 4300 5600
Wire Wire Line
	3825 5525 4300 5525
$Comp
L MDJ_compo:VccO #PWR01324
U 1 1 60D54CA3
P 3125 4850
F 0 "#PWR01324" H 3125 4700 50  0001 C CNN
F 1 "VccO" H 3125 5000 50  0000 C CNN
F 2 "" H 3125 4850 50  0000 C CNN
F 3 "" H 3125 4850 50  0000 C CNN
	1    3125 4850
	1    0    0    -1  
$EndComp
Wire Wire Line
	2425 5175 1950 5175
Text Label 1350 5250 0    39   ~ 0
Clk_100+
Wire Wire Line
	2425 5250 2100 5250
Text Label 1350 5175 0    39   ~ 0
Clk_100-
NoConn ~ 2425 5375
NoConn ~ 2425 5450
NoConn ~ 3825 5700
NoConn ~ 3825 5775
$Comp
L Device:R R1314
U 1 1 60D54CB5
P 2100 5450
F 0 "R1314" V 2025 5450 50  0000 C CNN
F 1 "62.5" V 2100 5450 50  0000 C CNN
F 2 "Resistor_SMD:R_0201_0603Metric" H 2100 5450 50  0001 C CNN
F 3 "" H 2100 5450 50  0000 C CNN
	1    2100 5450
	-1   0    0    1   
$EndComp
$Comp
L Device:R R1313
U 1 1 60D54CBF
P 1950 5450
F 0 "R1313" V 1875 5450 50  0000 C CNN
F 1 "62.5" V 1950 5450 50  0000 C CNN
F 2 "Resistor_SMD:R_0201_0603Metric" H 1950 5450 50  0001 C CNN
F 3 "" H 1950 5450 50  0000 C CNN
	1    1950 5450
	-1   0    0    1   
$EndComp
$Comp
L power:GNDD #PWR01325
U 1 1 60D54CC9
P 2025 5600
F 0 "#PWR01325" H 2025 5350 50  0001 C CNN
F 1 "GNDD" H 2025 5450 50  0000 C CNN
F 2 "" H 2025 5600 50  0000 C CNN
F 3 "" H 2025 5600 50  0000 C CNN
	1    2025 5600
	1    0    0    -1  
$EndComp
$Comp
L MDJ_compo:VccO #PWR01323
U 1 1 60D54CD3
P 2025 4825
F 0 "#PWR01323" H 2025 4675 50  0001 C CNN
F 1 "VccO" H 2025 4975 50  0000 C CNN
F 2 "" H 2025 4825 50  0000 C CNN
F 3 "" H 2025 4825 50  0000 C CNN
	1    2025 4825
	1    0    0    -1  
$EndComp
$Comp
L Device:R R1312
U 1 1 60D54CDD
P 2100 4975
F 0 "R1312" V 2025 4975 50  0000 C CNN
F 1 "250" V 2100 4975 50  0000 C CNN
F 2 "Resistor_SMD:R_0201_0603Metric" H 2100 4975 50  0001 C CNN
F 3 "" H 2100 4975 50  0000 C CNN
	1    2100 4975
	-1   0    0    1   
$EndComp
$Comp
L Device:R R1311
U 1 1 60D54CE7
P 1950 4975
F 0 "R1311" V 1875 4975 50  0000 C CNN
F 1 "250" V 1950 4975 50  0000 C CNN
F 2 "Resistor_SMD:R_0201_0603Metric" H 1950 4975 50  0001 C CNN
F 3 "" H 1950 4975 50  0000 C CNN
	1    1950 4975
	-1   0    0    1   
$EndComp
Wire Wire Line
	1950 5125 1950 5175
Connection ~ 1950 5175
Wire Wire Line
	1950 5175 1350 5175
Wire Wire Line
	1950 5175 1950 5300
Wire Wire Line
	2100 5125 2100 5250
Connection ~ 2100 5250
Wire Wire Line
	2100 5250 1350 5250
Wire Wire Line
	2100 5250 2100 5300
Wire Wire Line
	2100 5600 2025 5600
Wire Wire Line
	2025 5600 1950 5600
Connection ~ 2025 5600
Wire Wire Line
	1950 4825 2025 4825
Connection ~ 2025 4825
Wire Wire Line
	2025 4825 2100 4825
NoConn ~ 2450 4050
NoConn ~ 2425 5700
$Comp
L power:GNDD #PWR01326
U 1 1 60E3BA7E
P 2300 5700
F 0 "#PWR01326" H 2300 5450 50  0001 C CNN
F 1 "GNDD" H 2300 5550 50  0000 C CNN
F 2 "" H 2300 5700 50  0000 C CNN
F 3 "" H 2300 5700 50  0000 C CNN
	1    2300 5700
	1    0    0    -1  
$EndComp
Wire Wire Line
	2425 5600 2300 5600
Wire Wire Line
	2300 5600 2300 5700
$Comp
L power:GNDD #PWR01317
U 1 1 60E46D11
P 2300 4050
F 0 "#PWR01317" H 2300 3800 50  0001 C CNN
F 1 "GNDD" H 2300 3900 50  0000 C CNN
F 2 "" H 2300 4050 50  0000 C CNN
F 3 "" H 2300 4050 50  0000 C CNN
	1    2300 4050
	1    0    0    -1  
$EndComp
Wire Wire Line
	2450 3950 2300 3950
Wire Wire Line
	2300 3950 2300 4050
NoConn ~ 5200 1300
NoConn ~ 5200 1200
$Comp
L MDJ_compo:CDCLVP1204 U1304
U 1 1 60D57D6C
P 3150 3825
F 0 "U1304" H 2775 4375 50  0000 C CNN
F 1 "CDCLVP1204" H 2900 4300 50  0000 C CNN
F 2 "Package_DFN_QFN:QFN-16-1EP_3x3mm_P0.5mm_EP1.7x1.7mm" H 4200 2825 50  0001 C CNN
F 3 "https://www.ti.com/lit/gpn/cdclvp1204" H 2650 4725 50  0001 C CNN
	1    3150 3825
	1    0    0    -1  
$EndComp
Connection ~ 3100 4450
$Comp
L MDJ_compo:CDCLVP1204 U1306
U 1 1 60D591BE
P 3125 5475
F 0 "U1306" H 2725 6025 50  0000 C CNN
F 1 "CDCLVP1204" H 2850 5950 50  0000 C CNN
F 2 "Package_DFN_QFN:QFN-16-1EP_3x3mm_P0.5mm_EP1.7x1.7mm" H 4175 4475 50  0001 C CNN
F 3 "https://www.ti.com/lit/gpn/cdclvp1204" H 2625 6375 50  0001 C CNN
	1    3125 5475
	1    0    0    -1  
$EndComp
Connection ~ 3075 6100
Text Label 5400 1800 0    50   ~ 0
Clk_160_2+
Text Label 5400 1700 0    50   ~ 0
Clk_160_2-
Wire Wire Line
	5200 1450 5975 1450
Wire Wire Line
	5975 1450 5975 1550
Wire Wire Line
	5975 1550 6375 1550
Wire Wire Line
	5200 1550 5875 1550
Wire Wire Line
	5875 1550 5875 1500
Wire Wire Line
	5875 1500 6150 1500
Wire Wire Line
	6150 1500 6150 1450
Wire Wire Line
	5200 1700 6050 1700
Wire Wire Line
	6150 1800 5200 1800
$EndSCHEMATC
