EESchema Schematic File Version 4
EELAYER 30 0
EELAYER END
$Descr A4 11693 8268
encoding utf-8
Sheet 15 15
Title "FPGA GTX lines"
Date "2021-06-18"
Rev "1"
Comp "Irfu/DphP"
Comment1 ""
Comment2 ""
Comment3 ""
Comment4 ""
$EndDescr
Text Label 875  2500 0    60   ~ 0
CLK_GTP+
Text Label 875  2700 0    60   ~ 0
CLK_GTP-
Text Label 8775 4900 0    60   ~ 0
CLK_GTP+
Text Label 8775 5000 0    60   ~ 0
CLK_GTP-
Wire Wire Line
	8775 4900 9325 4900
Wire Wire Line
	8775 5000 9325 5000
$Comp
L Device:C C1503
U 1 1 578EE3AB
P 8675 4500
F 0 "C1503" H 8775 4575 50  0000 C CNN
F 1 "10u" H 8700 4425 50  0000 C CNN
F 2 "Capacitor_SMD:C_0402_1005Metric" H 8675 4500 50  0001 C CNN
F 3 "" H 8675 4500 50  0000 C CNN
	1    8675 4500
	1    0    0    -1  
$EndComp
$Comp
L power:GNDD #PWR01506
U 1 1 578EE3B8
P 8675 4650
F 0 "#PWR01506" H 8675 4400 50  0001 C CNN
F 1 "GNDD" H 8675 4500 50  0000 C CNN
F 2 "" H 8675 4650 50  0000 C CNN
F 3 "" H 8675 4650 50  0000 C CNN
	1    8675 4650
	1    0    0    -1  
$EndComp
Wire Wire Line
	7600 4350 8225 4350
Connection ~ 8225 4350
$Comp
L power:GNDD #PWR01509
U 1 1 578EE3C1
P 8225 5600
F 0 "#PWR01509" H 8225 5350 50  0001 C CNN
F 1 "GNDD" H 8225 5450 50  0000 C CNN
F 2 "" H 8225 5600 50  0000 C CNN
F 3 "" H 8225 5600 50  0000 C CNN
	1    8225 5600
	1    0    0    -1  
$EndComp
$Comp
L Device:R R1502
U 1 1 578EE3C7
P 7600 4675
F 0 "R1502" V 7680 4675 50  0000 C CNN
F 1 "DNP" V 7600 4675 50  0000 C CNN
F 2 "Resistor_SMD:R_0402_1005Metric" H 7600 4675 50  0001 C CNN
F 3 "" H 7600 4675 50  0000 C CNN
	1    7600 4675
	1    0    0    -1  
$EndComp
Wire Wire Line
	7600 4825 7600 4950
Wire Wire Line
	7600 4950 7675 4950
Wire Wire Line
	7600 4350 7600 4525
$Comp
L MDJ_compo:VccSFP #PWR01505
U 1 1 578F8391
P 8225 4300
F 0 "#PWR01505" H 8225 4150 50  0001 C CNN
F 1 "VccSFP" H 8225 4450 50  0000 C CNN
F 2 "" H 8225 4300 50  0000 C CNN
F 3 "" H 8225 4300 50  0000 C CNN
	1    8225 4300
	1    0    0    -1  
$EndComp
$Comp
L Device:C C1501
U 1 1 57951A18
P 1575 2500
F 0 "C1501" V 1525 2650 50  0000 C CNN
F 1 "100n" V 1450 2500 50  0000 C CNN
F 2 "Capacitor_SMD:C_0201_0603Metric" H 1575 2500 50  0001 C CNN
F 3 "" H 1575 2500 50  0000 C CNN
	1    1575 2500
	0    1    1    0   
$EndComp
$Comp
L Device:C C1502
U 1 1 57951AB3
P 1575 2700
F 0 "C1502" V 1625 2850 50  0000 C CNN
F 1 "100n" V 1700 2700 50  0000 C CNN
F 2 "Capacitor_SMD:C_0201_0603Metric" H 1575 2700 50  0001 C CNN
F 3 "" H 1575 2700 50  0000 C CNN
	1    1575 2700
	0    1    1    0   
$EndComp
Wire Wire Line
	1725 2625 1725 2700
Wire Wire Line
	1725 2500 1725 2575
Wire Wire Line
	1425 2500 875  2500
Wire Wire Line
	1425 2700 875  2700
Wire Wire Line
	1725 2575 3325 2575
Wire Wire Line
	3325 2625 1725 2625
Wire Wire Line
	8225 4350 8225 4400
Wire Wire Line
	8225 4350 8675 4350
Wire Wire Line
	2725 2275 3325 2275
Wire Wire Line
	2725 2325 3325 2325
Wire Wire Line
	2725 1875 3325 1875
Wire Wire Line
	2725 1925 3325 1925
Wire Wire Line
	8225 4350 8225 4300
Text HLabel 2725 1875 0    39   Output ~ 0
SFP_Tx+
Text HLabel 2725 1925 0    39   Output ~ 0
SFP_Tx-
Text HLabel 2725 2275 0    39   Input ~ 0
SFP_Rx+
Text HLabel 2725 2325 0    39   Input ~ 0
SFP_Rx-
$Comp
L MDJ_compo:VccMGTAVcc #PWR01502
U 1 1 5C7611C6
P 4275 1175
F 0 "#PWR01502" H 4275 1025 50  0001 C CNN
F 1 "VccMGTAVcc" H 4275 1325 50  0000 C CNN
F 2 "" H 4275 1175 50  0000 C CNN
F 3 "" H 4275 1175 50  0000 C CNN
	1    4275 1175
	1    0    0    -1  
$EndComp
$Comp
L MDJ_compo:VccMGTAVtt #PWR01503
U 1 1 5C7A77C7
P 4825 1175
F 0 "#PWR01503" H 4825 1025 50  0001 C CNN
F 1 "VccMGTAVtt" H 4825 1325 50  0000 C CNN
F 2 "" H 4825 1175 50  0000 C CNN
F 3 "" H 4825 1175 50  0000 C CNN
	1    4825 1175
	1    0    0    -1  
$EndComp
$Comp
L Device:R R1501
U 1 1 5C7A782D
P 3775 875
F 0 "R1501" V 3855 875 50  0000 C CNN
F 1 "100" V 3775 875 50  0000 C CNN
F 2 "Resistor_SMD:R_0402_1005Metric" H 3775 875 50  0001 C CNN
F 3 "" H 3775 875 50  0000 C CNN
	1    3775 875 
	0    1    1    0   
$EndComp
$Comp
L MDJ_compo:VccAux #PWR01504
U 1 1 5C7C9BDB
P 5275 1175
F 0 "#PWR01504" H 5275 1025 50  0001 C CNN
F 1 "VccAux" H 5275 1325 50  0000 C CNN
F 2 "" H 5275 1175 50  0000 C CNN
F 3 "" H 5275 1175 50  0000 C CNN
	1    5275 1175
	1    0    0    -1  
$EndComp
$Comp
L MDJ_compo:VccMGTAVtt #PWR?
U 1 1 5C80FC4B
P 4025 5800
AR Path="/572C0D81/5C80FC4B" Ref="#PWR?"  Part="1" 
AR Path="/571914DE/5C80FC4B" Ref="#PWR01510"  Part="1" 
F 0 "#PWR01510" H 4025 5650 50  0001 C CNN
F 1 "VccMGTAVtt" H 4025 5950 50  0000 C CNN
F 2 "" H 4025 5800 50  0000 C CNN
F 3 "" H 4025 5800 50  0000 C CNN
	1    4025 5800
	1    0    0    -1  
$EndComp
$Comp
L MDJ_compo:VccMGTAVcc #PWR?
U 1 1 5C80FC51
P 4025 5000
AR Path="/572C0D81/5C80FC51" Ref="#PWR?"  Part="1" 
AR Path="/571914DE/5C80FC51" Ref="#PWR01507"  Part="1" 
F 0 "#PWR01507" H 4025 4850 50  0001 C CNN
F 1 "VccMGTAVcc" H 4025 5150 50  0000 C CNN
F 2 "" H 4025 5000 50  0000 C CNN
F 3 "" H 4025 5000 50  0000 C CNN
	1    4025 5000
	1    0    0    -1  
$EndComp
$Comp
L power:GNDD #PWR?
U 1 1 5C80FC57
P 4025 5300
AR Path="/572C0D81/5C80FC57" Ref="#PWR?"  Part="1" 
AR Path="/571914DE/5C80FC57" Ref="#PWR01508"  Part="1" 
F 0 "#PWR01508" H 4025 5050 50  0001 C CNN
F 1 "GNDD" H 4025 5150 50  0000 C CNN
F 2 "" H 4025 5300 50  0000 C CNN
F 3 "" H 4025 5300 50  0000 C CNN
	1    4025 5300
	1    0    0    -1  
$EndComp
$Comp
L power:GNDD #PWR?
U 1 1 5C80FC5D
P 4025 6100
AR Path="/572C0D81/5C80FC5D" Ref="#PWR?"  Part="1" 
AR Path="/571914DE/5C80FC5D" Ref="#PWR01511"  Part="1" 
F 0 "#PWR01511" H 4025 5850 50  0001 C CNN
F 1 "GNDD" H 4025 5950 50  0000 C CNN
F 2 "" H 4025 6100 50  0000 C CNN
F 3 "" H 4025 6100 50  0000 C CNN
	1    4025 6100
	1    0    0    -1  
$EndComp
$Comp
L Device:C C?
U 1 1 5C80FC63
P 4125 5950
AR Path="/572C0D81/5C80FC63" Ref="C?"  Part="1" 
AR Path="/571914DE/5C80FC63" Ref="C1507"  Part="1" 
F 0 "C1507" H 4225 6025 50  0000 C CNN
F 1 "10u" H 4150 5875 50  0000 C CNN
F 2 "Capacitor_SMD:C_0402_1005Metric" H 4125 5950 50  0001 C CNN
F 3 "" H 4125 5950 50  0000 C CNN
	1    4125 5950
	1    0    0    -1  
$EndComp
$Comp
L Device:C C?
U 1 1 5C80FC6A
P 4525 5950
AR Path="/572C0D81/5C80FC6A" Ref="C?"  Part="1" 
AR Path="/571914DE/5C80FC6A" Ref="C1508"  Part="1" 
F 0 "C1508" H 4625 6025 50  0000 C CNN
F 1 "100n" H 4525 5875 50  0000 C CNN
F 2 "Capacitor_SMD:C_0402_1005Metric" H 4525 5950 50  0001 C CNN
F 3 "" H 4525 5950 50  0000 C CNN
	1    4525 5950
	1    0    0    -1  
$EndComp
$Comp
L Device:C C?
U 1 1 5C80FC71
P 4775 5950
AR Path="/572C0D81/5C80FC71" Ref="C?"  Part="1" 
AR Path="/571914DE/5C80FC71" Ref="C1509"  Part="1" 
F 0 "C1509" H 4875 6025 50  0000 C CNN
F 1 "100n" H 4775 5875 50  0000 C CNN
F 2 "Capacitor_SMD:C_0402_1005Metric" H 4775 5950 50  0001 C CNN
F 3 "" H 4775 5950 50  0000 C CNN
	1    4775 5950
	1    0    0    -1  
$EndComp
$Comp
L Device:C C?
U 1 1 5C80FC7A
P 4125 5150
AR Path="/572C0D81/5C80FC7A" Ref="C?"  Part="1" 
AR Path="/571914DE/5C80FC7A" Ref="C1504"  Part="1" 
F 0 "C1504" H 4225 5225 50  0000 C CNN
F 1 "10u" H 4150 5075 50  0000 C CNN
F 2 "Capacitor_SMD:C_0402_1005Metric" H 4125 5150 50  0001 C CNN
F 3 "" H 4125 5150 50  0000 C CNN
F 4 "Digi-key" V 4125 5150 60  0001 C CNN "Supplier"
F 5 "490-6479-1-ND	" V 4125 5150 60  0001 C CNN "Supplier Part"
	1    4125 5150
	1    0    0    -1  
$EndComp
$Comp
L Device:C C?
U 1 1 5C80FC83
P 4525 5150
AR Path="/572C0D81/5C80FC83" Ref="C?"  Part="1" 
AR Path="/571914DE/5C80FC83" Ref="C1505"  Part="1" 
F 0 "C1505" H 4625 5225 50  0000 C CNN
F 1 "100n" H 4525 5075 50  0000 C CNN
F 2 "Capacitor_SMD:C_0402_1005Metric" H 4525 5150 50  0001 C CNN
F 3 "" H 4525 5150 50  0000 C CNN
F 4 "Digi-key" V 4525 5150 60  0001 C CNN "Supplier"
F 5 "490-6416-1-ND	" V 4525 5150 60  0001 C CNN "Supplier Part"
	1    4525 5150
	1    0    0    -1  
$EndComp
$Comp
L Device:C C?
U 1 1 5C80FC8C
P 4775 5150
AR Path="/572C0D81/5C80FC8C" Ref="C?"  Part="1" 
AR Path="/571914DE/5C80FC8C" Ref="C1506"  Part="1" 
F 0 "C1506" H 4875 5225 50  0000 C CNN
F 1 "100n" H 4775 5075 50  0000 C CNN
F 2 "Capacitor_SMD:C_0402_1005Metric" H 4775 5150 50  0001 C CNN
F 3 "" H 4775 5150 50  0000 C CNN
F 4 "Digi-key" V 4775 5150 60  0001 C CNN "Supplier"
F 5 "490-6416-1-ND	" V 4775 5150 60  0001 C CNN "Supplier Part"
	1    4775 5150
	1    0    0    -1  
$EndComp
Wire Wire Line
	4025 5000 4125 5000
Wire Wire Line
	4025 5300 4125 5300
Connection ~ 4125 5000
Connection ~ 4525 5000
Connection ~ 4125 5300
Connection ~ 4525 5300
Wire Wire Line
	4025 5800 4125 5800
Wire Wire Line
	4025 6100 4125 6100
Connection ~ 4125 5800
Connection ~ 4525 5800
Connection ~ 4125 6100
Connection ~ 4525 6100
Wire Wire Line
	4125 5000 4525 5000
Wire Wire Line
	4525 5000 4775 5000
Wire Wire Line
	4125 5300 4525 5300
Wire Wire Line
	4525 5300 4775 5300
Wire Wire Line
	4125 5800 4525 5800
Wire Wire Line
	4525 5800 4775 5800
Wire Wire Line
	4125 6100 4525 6100
Wire Wire Line
	4525 6100 4775 6100
Text Label 2025 2575 0    39   ~ 0
Clk_GTX_AC+
Text Label 2025 2625 0    39   ~ 0
Clk_GTX_AC-
Connection ~ 7600 4950
Wire Wire Line
	7600 4950 7600 5075
Wire Wire Line
	8225 5550 8225 5600
Wire Wire Line
	8225 5500 8225 5550
Connection ~ 8225 5550
Wire Wire Line
	8225 5550 7600 5550
Wire Wire Line
	7600 5550 7600 5375
$Comp
L Device:R R1503
U 1 1 578EE3CE
P 7600 5225
F 0 "R1503" V 7680 5225 50  0000 C CNN
F 1 "DNP" V 7600 5225 50  0000 C CNN
F 2 "Resistor_SMD:R_0402_1005Metric" H 7600 5225 50  0001 C CNN
F 3 "" H 7600 5225 50  0000 C CNN
	1    7600 5225
	1    0    0    -1  
$EndComp
Wire Wire Line
	3925 1175 3925 875 
Wire Wire Line
	3625 875  3625 1175
$Comp
L MDJ_compo:VccMGTAVtt #PWR01501
U 1 1 5FCE87B8
P 3625 875
F 0 "#PWR01501" H 3625 725 50  0001 C CNN
F 1 "VccMGTAVtt" H 3642 1048 50  0000 C CNN
F 2 "" H 3625 875 50  0000 C CNN
F 3 "" H 3625 875 50  0000 C CNN
	1    3625 875 
	1    0    0    -1  
$EndComp
Connection ~ 3625 875 
Text HLabel 875  1050 2    39   Input ~ 0
sData2_P[0..3]
Text HLabel 875  1100 2    39   Input ~ 0
sData2_N[0..3]
Wire Wire Line
	5875 2075 6225 2075
Text Label 6225 2075 2    39   ~ 0
sData2_P0
Wire Wire Line
	5875 2125 6225 2125
Text Label 6225 2125 2    39   ~ 0
sData2_N0
Wire Wire Line
	5875 2175 6225 2175
Text Label 6225 2175 2    39   ~ 0
sData2_P1
Wire Wire Line
	5875 2225 6225 2225
Text Label 6225 2225 2    39   ~ 0
sData2_N1
Wire Wire Line
	5875 2275 6225 2275
Text Label 6225 2275 2    39   ~ 0
sData2_P2
Wire Wire Line
	5875 2325 6225 2325
Text Label 6225 2325 2    39   ~ 0
sData2_N2
Wire Wire Line
	5875 2375 6225 2375
Text Label 6225 2375 2    39   ~ 0
sData2_P3
Wire Wire Line
	5875 2425 6225 2425
Text Label 6225 2425 2    39   ~ 0
sData2_N3
$Comp
L MDJ_compo:SI590B U1501
U 1 1 578EE3A0
P 8225 4950
F 0 "U1501" H 8400 4600 60  0000 C CNN
F 1 "SI590BA-B" H 8025 4600 60  0000 C CNN
F 2 "MDJ_mod:Si590" H 8150 5000 60  0001 C CNN
F 3 "" H 8150 5000 60  0000 C CNN
F 4 "Digikey" H 8225 4950 60  0001 C CNN "Supplier"
F 5 "590BA-BDG-ND" H 8225 4950 60  0001 C CNN "Supplier P/N"
F 6 "590BX125M000DGR" H 8225 4950 60  0001 C CNN "Manufacturer P/N"
F 7 "3.3V, LVDS, OE High, 125.000Mhz" H 8225 4950 60  0001 C CNN "notes"
	1    8225 4950
	1    0    0    -1  
$EndComp
$Comp
L MDJ_compo:XCKU035FBVA676 U?
U 5 1 60D38D77
P 3325 1775
AR Path="/60D38D77" Ref="U?"  Part="5" 
AR Path="/571914DE/60D38D77" Ref="U302"  Part="5" 
F 0 "U302" H 4600 -493 40  0000 C CNN
F 1 "XCKU035FBVA676" H 4600 -569 40  0000 C CNN
F 2 "Package_BGA:BGA-676_27.0x27.0mm_Layout26x26_P1.0mm_Ball0.6mm_Pad0.5mm_NSMD" H 3375 1800 40  0001 R CNN
F 3 "" H 3375 1625 40  0001 R CNN
	5    3325 1775
	1    0    0    -1  
$EndComp
Wire Wire Line
	4575 1175 4625 1175
Wire Wire Line
	4625 1175 4675 1175
Connection ~ 4625 1175
Wire Wire Line
	4675 1175 4725 1175
Connection ~ 4675 1175
Wire Wire Line
	4725 1175 4775 1175
Connection ~ 4725 1175
Wire Wire Line
	4775 1175 4825 1175
Connection ~ 4775 1175
Wire Wire Line
	4825 1175 4875 1175
Connection ~ 4825 1175
Wire Wire Line
	4875 1175 4925 1175
Connection ~ 4875 1175
Wire Wire Line
	4925 1175 4975 1175
Connection ~ 4925 1175
Wire Wire Line
	4975 1175 5025 1175
Connection ~ 4975 1175
Wire Wire Line
	5025 1175 5075 1175
Connection ~ 5025 1175
Wire Wire Line
	5075 1175 5125 1175
Connection ~ 5075 1175
Wire Wire Line
	4075 1175 4125 1175
Wire Wire Line
	4125 1175 4175 1175
Connection ~ 4125 1175
Wire Wire Line
	4175 1175 4225 1175
Connection ~ 4175 1175
Wire Wire Line
	4225 1175 4275 1175
Connection ~ 4225 1175
Wire Wire Line
	4275 1175 4325 1175
Connection ~ 4275 1175
Wire Wire Line
	4325 1175 4375 1175
Connection ~ 4325 1175
Wire Wire Line
	4375 1175 4425 1175
Connection ~ 4375 1175
Wire Wire Line
	4425 1175 4475 1175
Connection ~ 4425 1175
Wire Wire Line
	4025 1175 4075 1175
Connection ~ 4075 1175
Wire Wire Line
	3875 1175 3625 1175
Wire Wire Line
	5225 1175 5275 1175
Connection ~ 5275 1175
Wire Wire Line
	5875 3175 6225 3175
Text Label 6225 3175 2    39   ~ 0
sData3_P0
Wire Wire Line
	5875 3225 6225 3225
Text Label 6225 3225 2    39   ~ 0
sData3_N0
Wire Wire Line
	5875 3275 6225 3275
Text Label 6225 3275 2    39   ~ 0
sData3_P1
Wire Wire Line
	5875 3325 6225 3325
Text Label 6225 3325 2    39   ~ 0
sData3_N1
Wire Wire Line
	5875 3375 6225 3375
Text Label 6225 3375 2    39   ~ 0
sData3_P2
Wire Wire Line
	5875 3425 6225 3425
Text Label 6225 3425 2    39   ~ 0
sData3_N2
Wire Wire Line
	5875 3475 6225 3475
Text Label 6225 3475 2    39   ~ 0
sData3_P3
Wire Wire Line
	5875 3525 6225 3525
Text Label 6225 3525 2    39   ~ 0
sData3_N3
Wire Wire Line
	3325 3175 2975 3175
Text Label 2975 3175 0    39   ~ 0
sData1_P0
Wire Wire Line
	3325 3225 2975 3225
Text Label 2975 3225 0    39   ~ 0
sData1_N0
Wire Wire Line
	3325 3275 2975 3275
Text Label 2975 3275 0    39   ~ 0
sData1_P1
Wire Wire Line
	3325 3325 2975 3325
Text Label 2975 3325 0    39   ~ 0
sData1_N1
Wire Wire Line
	3325 3375 2975 3375
Text Label 2975 3375 0    39   ~ 0
sData1_P2
Wire Wire Line
	3325 3425 2975 3425
Text Label 2975 3425 0    39   ~ 0
sData1_N2
Wire Wire Line
	3325 3475 2975 3475
Text Label 2975 3475 0    39   ~ 0
sData1_P3
Wire Wire Line
	3325 3525 2975 3525
Text Label 2975 3525 0    39   ~ 0
sData1_N3
NoConn ~ 5875 1675
NoConn ~ 5875 1725
NoConn ~ 5875 1775
NoConn ~ 5875 1825
NoConn ~ 5875 1875
NoConn ~ 5875 1925
NoConn ~ 5875 1975
NoConn ~ 5875 2025
NoConn ~ 5875 2775
NoConn ~ 5875 2825
NoConn ~ 5875 2875
NoConn ~ 5875 2925
NoConn ~ 5875 2975
NoConn ~ 5875 3025
NoConn ~ 5875 3075
NoConn ~ 5875 3125
NoConn ~ 3325 2775
NoConn ~ 3325 2825
NoConn ~ 3325 2875
NoConn ~ 3325 2925
NoConn ~ 3325 2975
NoConn ~ 3325 3025
NoConn ~ 3325 3075
NoConn ~ 3325 3125
NoConn ~ 3325 3675
NoConn ~ 3325 3725
NoConn ~ 3325 1675
NoConn ~ 3325 1725
NoConn ~ 3325 1775
NoConn ~ 3325 1825
NoConn ~ 3325 2075
NoConn ~ 3325 2125
NoConn ~ 3325 1975
NoConn ~ 3325 2025
Text HLabel 875  1200 2    39   Input ~ 0
sData3_P[0..3]
Text HLabel 875  1250 2    39   Input ~ 0
sData3_N[0..3]
Text HLabel 875  900  2    39   Input ~ 0
sData1_P[0..3]
Text HLabel 875  950  2    39   Input ~ 0
sData1_N[0..3]
NoConn ~ 3325 2475
NoConn ~ 3325 2525
NoConn ~ 5875 2575
NoConn ~ 5875 2625
NoConn ~ 5875 3675
NoConn ~ 5875 3725
Text HLabel 875  1375 2    39   Input ~ 0
CLK_for_GTH_P[1..3]
Text HLabel 875  1425 2    39   Input ~ 0
CLK_for_GTH_N[1..3]
Text Label 1550 3625 0    35   ~ 0
CLK_for_GTH_N1
Wire Wire Line
	3325 3575 2700 3575
Text Label 1550 3575 0    35   ~ 0
CLK_for_GTH_P1
NoConn ~ 3325 2175
NoConn ~ 3325 2225
NoConn ~ 3325 2375
NoConn ~ 3325 2425
$Comp
L Device:C C1512
U 1 1 612A9E1C
P 2550 3575
F 0 "C1512" V 2400 3525 50  0000 C CNN
F 1 "100n" V 2675 3575 50  0000 C CNN
F 2 "Capacitor_SMD:C_0402_1005Metric" H 2550 3575 50  0001 C CNN
F 3 "" H 2550 3575 50  0000 C CNN
	1    2550 3575
	0    1    1    0   
$EndComp
$Comp
L Device:C C1514
U 1 1 612AAEA1
P 2350 3625
F 0 "C1514" V 2200 3600 50  0000 C CNN
F 1 "100n" V 2475 3625 50  0000 C CNN
F 2 "Capacitor_SMD:C_0402_1005Metric" H 2350 3625 50  0001 C CNN
F 3 "" H 2350 3625 50  0000 C CNN
	1    2350 3625
	0    1    1    0   
$EndComp
Wire Wire Line
	2500 3625 3325 3625
Wire Wire Line
	2200 3625 2175 3625
$Comp
L Device:R R1507
U 1 1 612D09FF
P 2175 3850
F 0 "R1507" V 2255 3850 50  0000 C CNN
F 1 "150" V 2175 3850 50  0000 C CNN
F 2 "Resistor_SMD:R_0402_1005Metric" H 2175 3850 50  0001 C CNN
F 3 "" H 2175 3850 50  0000 C CNN
	1    2175 3850
	1    0    0    -1  
$EndComp
$Comp
L Device:R R1506
U 1 1 612D208B
P 2000 3850
F 0 "R1506" V 2080 3850 50  0000 C CNN
F 1 "150" V 2000 3850 50  0000 C CNN
F 2 "Resistor_SMD:R_0402_1005Metric" H 2000 3850 50  0001 C CNN
F 3 "" H 2000 3850 50  0000 C CNN
	1    2000 3850
	1    0    0    -1  
$EndComp
Wire Wire Line
	2000 3575 2000 3700
Wire Wire Line
	2175 3625 2175 3700
Connection ~ 2175 3625
Wire Wire Line
	2175 3625 1550 3625
$Comp
L power:GNDD #PWR?
U 1 1 612DA6BD
P 2100 4000
AR Path="/572C0D81/612DA6BD" Ref="#PWR?"  Part="1" 
AR Path="/571914DE/612DA6BD" Ref="#PWR0106"  Part="1" 
F 0 "#PWR0106" H 2100 3750 50  0001 C CNN
F 1 "GNDD" H 2100 3850 50  0000 C CNN
F 2 "" H 2100 4000 50  0000 C CNN
F 3 "" H 2100 4000 50  0000 C CNN
	1    2100 4000
	1    0    0    -1  
$EndComp
Wire Wire Line
	2000 4000 2100 4000
Wire Wire Line
	1550 3575 2000 3575
Connection ~ 2000 3575
Wire Wire Line
	2000 3575 2400 3575
Connection ~ 2100 4000
Wire Wire Line
	2100 4000 2175 4000
Text Label 7650 2525 2    35   ~ 0
CLK_for_GTH_N2
Wire Wire Line
	5875 2475 6500 2475
Text Label 7650 2475 2    35   ~ 0
CLK_for_GTH_P2
$Comp
L Device:C C1510
U 1 1 61338935
P 6650 2475
F 0 "C1510" V 6500 2425 50  0000 C CNN
F 1 "100n" V 6775 2475 50  0000 C CNN
F 2 "Capacitor_SMD:C_0402_1005Metric" H 6650 2475 50  0001 C CNN
F 3 "" H 6650 2475 50  0000 C CNN
	1    6650 2475
	0    -1   1    0   
$EndComp
$Comp
L Device:C C1511
U 1 1 6133893F
P 6850 2525
F 0 "C1511" V 6700 2500 50  0000 C CNN
F 1 "100n" V 6975 2525 50  0000 C CNN
F 2 "Capacitor_SMD:C_0402_1005Metric" H 6850 2525 50  0001 C CNN
F 3 "" H 6850 2525 50  0000 C CNN
	1    6850 2525
	0    -1   1    0   
$EndComp
Wire Wire Line
	6700 2525 5875 2525
Wire Wire Line
	7000 2525 7025 2525
$Comp
L Device:R R1504
U 1 1 6133894B
P 7025 2750
F 0 "R1504" V 7105 2750 50  0000 C CNN
F 1 "150" V 7025 2750 50  0000 C CNN
F 2 "Resistor_SMD:R_0402_1005Metric" H 7025 2750 50  0001 C CNN
F 3 "" H 7025 2750 50  0000 C CNN
	1    7025 2750
	-1   0    0    -1  
$EndComp
$Comp
L Device:R R1505
U 1 1 61338955
P 7200 2750
F 0 "R1505" V 7280 2750 50  0000 C CNN
F 1 "150" V 7200 2750 50  0000 C CNN
F 2 "Resistor_SMD:R_0402_1005Metric" H 7200 2750 50  0001 C CNN
F 3 "" H 7200 2750 50  0000 C CNN
	1    7200 2750
	-1   0    0    -1  
$EndComp
Wire Wire Line
	7200 2475 7200 2600
Wire Wire Line
	7025 2525 7025 2600
Connection ~ 7025 2525
Wire Wire Line
	7025 2525 7650 2525
$Comp
L power:GNDD #PWR?
U 1 1 61338963
P 7100 2900
AR Path="/572C0D81/61338963" Ref="#PWR?"  Part="1" 
AR Path="/571914DE/61338963" Ref="#PWR0107"  Part="1" 
F 0 "#PWR0107" H 7100 2650 50  0001 C CNN
F 1 "GNDD" H 7100 2750 50  0000 C CNN
F 2 "" H 7100 2900 50  0000 C CNN
F 3 "" H 7100 2900 50  0000 C CNN
	1    7100 2900
	-1   0    0    -1  
$EndComp
Wire Wire Line
	7200 2900 7100 2900
Wire Wire Line
	7650 2475 7200 2475
Connection ~ 7200 2475
Wire Wire Line
	7200 2475 6800 2475
Connection ~ 7100 2900
Wire Wire Line
	7100 2900 7025 2900
Text Label 7650 3625 2    35   ~ 0
CLK_for_GTH_N3
Wire Wire Line
	5875 3575 6500 3575
Text Label 7650 3575 2    35   ~ 0
CLK_for_GTH_P3
$Comp
L Device:C C1513
U 1 1 61340783
P 6650 3575
F 0 "C1513" V 6500 3525 50  0000 C CNN
F 1 "100n" V 6775 3575 50  0000 C CNN
F 2 "Capacitor_SMD:C_0402_1005Metric" H 6650 3575 50  0001 C CNN
F 3 "" H 6650 3575 50  0000 C CNN
	1    6650 3575
	0    -1   1    0   
$EndComp
$Comp
L Device:C C1515
U 1 1 6134078D
P 6850 3625
F 0 "C1515" V 6700 3600 50  0000 C CNN
F 1 "100n" V 6975 3625 50  0000 C CNN
F 2 "Capacitor_SMD:C_0402_1005Metric" H 6850 3625 50  0001 C CNN
F 3 "" H 6850 3625 50  0000 C CNN
	1    6850 3625
	0    -1   1    0   
$EndComp
Wire Wire Line
	6700 3625 5875 3625
Wire Wire Line
	7000 3625 7025 3625
$Comp
L Device:R R1508
U 1 1 61340799
P 7025 3850
F 0 "R1508" V 7105 3850 50  0000 C CNN
F 1 "150" V 7025 3850 50  0000 C CNN
F 2 "Resistor_SMD:R_0402_1005Metric" H 7025 3850 50  0001 C CNN
F 3 "" H 7025 3850 50  0000 C CNN
	1    7025 3850
	-1   0    0    -1  
$EndComp
$Comp
L Device:R R1509
U 1 1 613407A3
P 7200 3850
F 0 "R1509" V 7280 3850 50  0000 C CNN
F 1 "150" V 7200 3850 50  0000 C CNN
F 2 "Resistor_SMD:R_0402_1005Metric" H 7200 3850 50  0001 C CNN
F 3 "" H 7200 3850 50  0000 C CNN
	1    7200 3850
	-1   0    0    -1  
$EndComp
Wire Wire Line
	7200 3575 7200 3700
Wire Wire Line
	7025 3625 7025 3700
Connection ~ 7025 3625
Wire Wire Line
	7025 3625 7650 3625
$Comp
L power:GNDD #PWR?
U 1 1 613407B1
P 7100 4000
AR Path="/572C0D81/613407B1" Ref="#PWR?"  Part="1" 
AR Path="/571914DE/613407B1" Ref="#PWR0108"  Part="1" 
F 0 "#PWR0108" H 7100 3750 50  0001 C CNN
F 1 "GNDD" H 7100 3850 50  0000 C CNN
F 2 "" H 7100 4000 50  0000 C CNN
F 3 "" H 7100 4000 50  0000 C CNN
	1    7100 4000
	-1   0    0    -1  
$EndComp
Wire Wire Line
	7200 4000 7100 4000
Wire Wire Line
	7650 3575 7200 3575
Connection ~ 7200 3575
Wire Wire Line
	7200 3575 6800 3575
Connection ~ 7100 4000
Wire Wire Line
	7100 4000 7025 4000
Text Label 5925 3575 0    35   ~ 0
CLK_for_GTH_AC3+
Text Label 5925 3625 0    35   ~ 0
CLK_for_GTH_AC3-
Text Label 5925 2475 0    35   ~ 0
CLK_for_GTH_AC2+
Text Label 5925 2525 0    35   ~ 0
CLK_for_GTH_AC2-
Text Label 3300 3575 2    35   ~ 0
CLK_for_GTH_AC1+
Text Label 3300 3625 2    35   ~ 0
CLK_for_GTH_AC1-
$EndSCHEMATC
