EESchema Schematic File Version 4
EELAYER 30 0
EELAYER END
$Descr A4 11693 8268
encoding utf-8
Sheet 5 15
Title "GPIOs"
Date "2021-06-18"
Rev "1"
Comp "Irfu/DphP"
Comment1 ""
Comment2 ""
Comment3 ""
Comment4 ""
$EndDescr
$Comp
L Device:LED D501
U 1 1 57B66382
P 2200 2550
F 0 "D501" H 2200 2650 50  0000 C CNN
F 1 "LED" H 2200 2450 50  0000 C CNN
F 2 "LED_SMD:LED_0402_1005Metric" H 2200 2550 50  0001 C CNN
F 3 "" H 2200 2550 50  0000 C CNN
F 4 "Digkey" H 2200 2550 60  0001 C CNN "Supplier"
F 5 "1497-1174-1-ND" H 2200 2550 60  0001 C CNN "Supplier P/N"
	1    2200 2550
	-1   0    0    1   
$EndComp
$Comp
L Device:R R501
U 1 1 57B66468
P 2750 2550
F 0 "R501" V 2830 2550 50  0000 C CNN
F 1 "1k" V 2750 2550 50  0000 C CNN
F 2 "Resistor_SMD:R_0201_0603Metric" V 2650 2550 50  0001 C CNN
F 3 "" H 2750 2550 50  0000 C CNN
	1    2750 2550
	0    -1   -1   0   
$EndComp
Wire Wire Line
	2600 2550 2350 2550
$Comp
L power:GNDD #PWR0509
U 1 1 57B664DD
P 3000 4700
F 0 "#PWR0509" H 3000 4450 50  0001 C CNN
F 1 "GNDD" H 3000 4550 50  0000 C CNN
F 2 "" H 3000 4700 50  0000 C CNN
F 3 "" H 3000 4700 50  0000 C CNN
	1    3000 4700
	1    0    0    -1  
$EndComp
Wire Wire Line
	3000 2550 2900 2550
Text Label 1900 2550 2    60   ~ 0
LED0
Wire Wire Line
	2050 2550 1900 2550
Wire Wire Line
	3000 2850 2900 2850
Text Label 1900 2850 2    60   ~ 0
LED1
Wire Wire Line
	2050 2850 1900 2850
Wire Wire Line
	3000 3100 2900 3100
Text Label 1900 3100 2    60   ~ 0
LED2
Wire Wire Line
	2050 3100 1900 3100
Wire Wire Line
	3000 3400 2900 3400
Text Label 1900 3400 2    60   ~ 0
LED3
Wire Wire Line
	2050 3400 1900 3400
Wire Wire Line
	3000 2550 3000 2850
Connection ~ 3000 3400
Connection ~ 3000 3100
Connection ~ 3000 2850
$Comp
L Device:LED D502
U 1 1 57B60858
P 2200 2850
F 0 "D502" H 2200 2950 50  0000 C CNN
F 1 "LED" H 2200 2750 50  0000 C CNN
F 2 "LED_SMD:LED_0402_1005Metric" H 2200 2850 50  0001 C CNN
F 3 "" H 2200 2850 50  0000 C CNN
F 4 "Digkey" H 2200 2850 60  0001 C CNN "Supplier"
F 5 "1497-1174-1-ND" H 2200 2850 60  0001 C CNN "Supplier P/N"
	1    2200 2850
	-1   0    0    1   
$EndComp
$Comp
L Device:R R502
U 1 1 57B6085E
P 2750 2850
F 0 "R502" V 2830 2850 50  0000 C CNN
F 1 "1k" V 2750 2850 50  0000 C CNN
F 2 "Resistor_SMD:R_0201_0603Metric" V 2650 2850 50  0001 C CNN
F 3 "" H 2750 2850 50  0000 C CNN
	1    2750 2850
	0    -1   -1   0   
$EndComp
Wire Wire Line
	2600 2850 2350 2850
$Comp
L Device:LED D503
U 1 1 57B60963
P 2200 3100
F 0 "D503" H 2200 3200 50  0000 C CNN
F 1 "LED" H 2200 3000 50  0000 C CNN
F 2 "LED_SMD:LED_0402_1005Metric" H 2200 3100 50  0001 C CNN
F 3 "" H 2200 3100 50  0000 C CNN
F 4 "Digkey" H 2200 3100 60  0001 C CNN "Supplier"
F 5 "1497-1174-1-ND" H 2200 3100 60  0001 C CNN "Supplier P/N"
	1    2200 3100
	-1   0    0    1   
$EndComp
$Comp
L Device:R R503
U 1 1 57B60969
P 2750 3100
F 0 "R503" V 2830 3100 50  0000 C CNN
F 1 "1k" V 2750 3100 50  0000 C CNN
F 2 "Resistor_SMD:R_0201_0603Metric" V 2650 3100 50  0001 C CNN
F 3 "" H 2750 3100 50  0000 C CNN
	1    2750 3100
	0    -1   -1   0   
$EndComp
Wire Wire Line
	2600 3100 2350 3100
$Comp
L Device:LED D504
U 1 1 57B60972
P 2200 3400
F 0 "D504" H 2200 3500 50  0000 C CNN
F 1 "LED" H 2200 3300 50  0000 C CNN
F 2 "LED_SMD:LED_0402_1005Metric" H 3475 3375 50  0001 C CNN
F 3 "" H 2200 3400 50  0000 C CNN
F 4 "Digkey" H 2200 3400 60  0001 C CNN "Supplier"
F 5 "1497-1174-1-ND" H 2200 3400 60  0001 C CNN "Supplier P/N"
	1    2200 3400
	-1   0    0    1   
$EndComp
$Comp
L Device:R R504
U 1 1 57B60978
P 2750 3400
F 0 "R504" V 2830 3400 50  0000 C CNN
F 1 "1k" V 2750 3400 50  0000 C CNN
F 2 "Resistor_SMD:R_0201_0603Metric" V 2650 3400 50  0001 C CNN
F 3 "" H 2750 3400 50  0000 C CNN
	1    2750 3400
	0    -1   -1   0   
$EndComp
Wire Wire Line
	2600 3400 2350 3400
$Comp
L MDJ_compo:VccO #PWR0501
U 1 1 57B67037
P 6150 2225
F 0 "#PWR0501" H 6150 2075 50  0001 C CNN
F 1 "VccO" H 6150 2375 50  0000 C CNN
F 2 "" H 6150 2225 50  0000 C CNN
F 3 "" H 6150 2225 50  0000 C CNN
	1    6150 2225
	-1   0    0    -1  
$EndComp
Text Label 4600 2550 0    50   ~ 0
GPIO0
Wire Wire Line
	4600 2550 4950 2550
Text HLabel 1500 2250 0    60   Input ~ 0
LED[0..7]
Text HLabel 4025 2250 0    60   BiDi ~ 0
GPIO[0..15]
Wire Wire Line
	3000 3400 3000 3700
Wire Wire Line
	3000 3100 3000 3400
Wire Wire Line
	3000 2850 3000 3100
$Comp
L Device:LED D505
U 1 1 62699A81
P 2200 3700
F 0 "D505" H 2200 3800 50  0000 C CNN
F 1 "LED" H 2200 3600 50  0000 C CNN
F 2 "LED_SMD:LED_0402_1005Metric" H 2200 3700 50  0001 C CNN
F 3 "" H 2200 3700 50  0000 C CNN
F 4 "Digkey" H 2200 3700 60  0001 C CNN "Supplier"
F 5 "1497-1174-1-ND" H 2200 3700 60  0001 C CNN "Supplier P/N"
	1    2200 3700
	-1   0    0    1   
$EndComp
$Comp
L Device:R R505
U 1 1 62699A8B
P 2750 3700
F 0 "R505" V 2830 3700 50  0000 C CNN
F 1 "1k" V 2750 3700 50  0000 C CNN
F 2 "Resistor_SMD:R_0201_0603Metric" V 2650 3700 50  0001 C CNN
F 3 "" H 2750 3700 50  0000 C CNN
	1    2750 3700
	0    -1   -1   0   
$EndComp
Wire Wire Line
	2600 3700 2350 3700
Text Label 1900 3700 2    60   ~ 0
LED4
Wire Wire Line
	2050 3700 1900 3700
Text Label 1900 4000 2    60   ~ 0
LED5
Wire Wire Line
	2050 4000 1900 4000
Text Label 1900 4250 2    60   ~ 0
LED6
Wire Wire Line
	2050 4250 1900 4250
Text Label 1900 4550 2    60   ~ 0
LED7
Wire Wire Line
	2050 4550 1900 4550
$Comp
L Device:LED D506
U 1 1 62699AA0
P 2200 4000
F 0 "D506" H 2200 4100 50  0000 C CNN
F 1 "LED" H 2200 3900 50  0000 C CNN
F 2 "LED_SMD:LED_0402_1005Metric" H 2200 4000 50  0001 C CNN
F 3 "" H 2200 4000 50  0000 C CNN
F 4 "Digkey" H 2200 4000 60  0001 C CNN "Supplier"
F 5 "1497-1174-1-ND" H 2200 4000 60  0001 C CNN "Supplier P/N"
	1    2200 4000
	-1   0    0    1   
$EndComp
$Comp
L Device:R R506
U 1 1 62699AAA
P 2750 4000
F 0 "R506" V 2830 4000 50  0000 C CNN
F 1 "1k" V 2750 4000 50  0000 C CNN
F 2 "Resistor_SMD:R_0201_0603Metric" V 2650 4000 50  0001 C CNN
F 3 "" H 2750 4000 50  0000 C CNN
	1    2750 4000
	0    -1   -1   0   
$EndComp
Wire Wire Line
	2600 4000 2350 4000
$Comp
L Device:LED D507
U 1 1 62699AB7
P 2200 4250
F 0 "D507" H 2200 4350 50  0000 C CNN
F 1 "LED" H 2200 4150 50  0000 C CNN
F 2 "LED_SMD:LED_0402_1005Metric" H 2200 4250 50  0001 C CNN
F 3 "" H 2200 4250 50  0000 C CNN
F 4 "Digkey" H 2200 4250 60  0001 C CNN "Supplier"
F 5 "1497-1174-1-ND" H 2200 4250 60  0001 C CNN "Supplier P/N"
	1    2200 4250
	-1   0    0    1   
$EndComp
$Comp
L Device:R R507
U 1 1 62699AC1
P 2750 4250
F 0 "R507" V 2830 4250 50  0000 C CNN
F 1 "1k" V 2750 4250 50  0000 C CNN
F 2 "Resistor_SMD:R_0201_0603Metric" V 2650 4250 50  0001 C CNN
F 3 "" H 2750 4250 50  0000 C CNN
	1    2750 4250
	0    -1   -1   0   
$EndComp
Wire Wire Line
	2600 4250 2350 4250
$Comp
L Device:LED D508
U 1 1 62699ACE
P 2200 4550
F 0 "D508" H 2200 4650 50  0000 C CNN
F 1 "LED" H 2200 4450 50  0000 C CNN
F 2 "LED_SMD:LED_0402_1005Metric" H 2200 4725 50  0000 C CNN
F 3 "" H 2200 4550 50  0000 C CNN
F 4 "Digkey" H 2200 4550 60  0001 C CNN "Supplier"
F 5 "1497-1174-1-ND" H 2200 4550 60  0001 C CNN "Supplier P/N"
	1    2200 4550
	-1   0    0    1   
$EndComp
$Comp
L Device:R R508
U 1 1 62699AD8
P 2750 4550
F 0 "R508" V 2830 4550 50  0000 C CNN
F 1 "1k" V 2750 4550 50  0000 C CNN
F 2 "Resistor_SMD:R_0201_0603Metric" V 2650 4550 50  0001 C CNN
F 3 "" H 2750 4550 50  0000 C CNN
	1    2750 4550
	0    -1   -1   0   
$EndComp
Wire Wire Line
	2600 4550 2350 4550
Wire Wire Line
	2900 4550 3000 4550
Connection ~ 3000 4550
Wire Wire Line
	3000 4550 3000 4700
Wire Wire Line
	2900 4250 3000 4250
Connection ~ 3000 4250
Wire Wire Line
	3000 4250 3000 4550
Wire Wire Line
	2900 4000 3000 4000
Connection ~ 3000 4000
Wire Wire Line
	3000 4000 3000 4250
Wire Wire Line
	2900 3700 3000 3700
Connection ~ 3000 3700
Wire Wire Line
	3000 3700 3000 4000
$Comp
L Connector_Generic:Conn_02x08_Odd_Even J501
U 1 1 62CE317A
P 5150 2850
F 0 "J501" H 5200 3367 50  0000 C CNN
F 1 "Conn_02x08_Odd_Even" H 5200 3276 50  0000 C CNN
F 2 "Connector_PinHeader_2.54mm:PinHeader_2x08_P2.54mm_Vertical" H 5150 2850 50  0001 C CNN
F 3 "~" H 5150 2850 50  0001 C CNN
	1    5150 2850
	1    0    0    -1  
$EndComp
Text Label 4600 2650 0    50   ~ 0
GPIO2
Wire Wire Line
	4600 2650 4950 2650
Text Label 4600 2750 0    50   ~ 0
GPIO4
Wire Wire Line
	4600 2750 4950 2750
Text Label 4600 2850 0    50   ~ 0
GPIO6
Wire Wire Line
	4600 2850 4950 2850
Text Label 4600 2950 0    50   ~ 0
GPIO8
Wire Wire Line
	4600 2950 4950 2950
Text Label 4600 3050 0    50   ~ 0
GPIO10
Wire Wire Line
	4600 3050 4950 3050
Text Label 5800 2550 2    50   ~ 0
GPIO1
Wire Wire Line
	5800 2550 5450 2550
Text Label 5800 2650 2    50   ~ 0
GPIO3
Wire Wire Line
	5800 2650 5450 2650
Text Label 5800 2750 2    50   ~ 0
GPIO5
Wire Wire Line
	5800 2750 5450 2750
Text Label 5800 2850 2    50   ~ 0
GPIO7
Wire Wire Line
	5800 2850 5450 2850
Text Label 5800 2950 2    50   ~ 0
GPIO9
Wire Wire Line
	5800 2950 5450 2950
$Comp
L power:GNDD #PWR0504
U 1 1 62D23EB7
P 8400 3250
F 0 "#PWR0504" H 8400 3000 50  0001 C CNN
F 1 "GNDD" H 8400 3100 50  0000 C CNN
F 2 "" H 8400 3250 50  0000 C CNN
F 3 "" H 8400 3250 50  0000 C CNN
	1    8400 3250
	-1   0    0    -1  
$EndComp
$Comp
L MDJ_compo:VccO_ADC #PWR0502
U 1 1 62D2C852
P 7075 2225
F 0 "#PWR0502" H 7075 2075 50  0001 C CNN
F 1 "VccO_ADC" H 7090 2398 50  0000 C CNN
F 2 "" H 7075 2225 50  0000 C CNN
F 3 "" H 7075 2225 50  0000 C CNN
	1    7075 2225
	1    0    0    -1  
$EndComp
$Comp
L MDJ_compo:VccO_FE #PWR0503
U 1 1 621DE616
P 7475 2225
F 0 "#PWR0503" H 7475 2075 50  0001 C CNN
F 1 "VccO_FE" H 7490 2398 50  0000 C CNN
F 2 "" H 7475 2225 50  0000 C CNN
F 3 "" H 7475 2225 50  0000 C CNN
	1    7475 2225
	1    0    0    -1  
$EndComp
$Comp
L Connector_Generic:Conn_02x08_Odd_Even J502
U 1 1 60DD261C
P 6550 2850
F 0 "J502" H 6600 3367 50  0000 C CNN
F 1 "Conn_02x08_Odd_Even" H 6600 3276 50  0000 C CNN
F 2 "Connector_PinHeader_2.54mm:PinHeader_2x08_P2.54mm_Vertical" H 6550 2850 50  0001 C CNN
F 3 "~" H 6550 2850 50  0001 C CNN
	1    6550 2850
	1    0    0    -1  
$EndComp
Text Label 4600 3150 0    50   ~ 0
GPIO12
Wire Wire Line
	4600 3150 4950 3150
Text Label 4600 3250 0    50   ~ 0
GPIO14
Wire Wire Line
	4600 3250 4950 3250
Text Label 5800 3050 2    50   ~ 0
GPIO11
Wire Wire Line
	5800 3050 5450 3050
Text Label 5800 3150 2    50   ~ 0
GPIO13
Wire Wire Line
	5800 3150 5450 3150
Text Label 5800 3250 2    50   ~ 0
GPIO15
Wire Wire Line
	5800 3250 5450 3250
Wire Wire Line
	6150 2225 6150 2550
Wire Wire Line
	6150 2550 6350 2550
Wire Wire Line
	6150 2550 6150 2650
Wire Wire Line
	6150 2650 6350 2650
Connection ~ 6150 2550
Wire Wire Line
	6150 2650 6150 2750
Wire Wire Line
	6150 2750 6350 2750
Connection ~ 6150 2650
Wire Wire Line
	6150 2750 6150 2850
Wire Wire Line
	6150 2850 6350 2850
Connection ~ 6150 2750
Wire Wire Line
	6150 2850 6150 2950
Wire Wire Line
	6150 2950 6350 2950
Connection ~ 6150 2850
Wire Wire Line
	6150 2950 6150 3050
Wire Wire Line
	6150 3050 6350 3050
Connection ~ 6150 2950
Wire Wire Line
	6150 3050 6150 3150
Wire Wire Line
	6150 3150 6350 3150
Connection ~ 6150 3050
Wire Wire Line
	6150 3150 6150 3250
Wire Wire Line
	6150 3250 6350 3250
Connection ~ 6150 3150
Wire Wire Line
	7075 2225 7075 2550
Wire Wire Line
	7075 2550 6850 2550
Wire Wire Line
	7075 2550 7075 2650
Wire Wire Line
	7075 2650 6850 2650
Connection ~ 7075 2550
Wire Wire Line
	7075 2650 7075 2750
Wire Wire Line
	7075 2750 6850 2750
Connection ~ 7075 2650
Wire Wire Line
	7075 2750 7075 2850
Wire Wire Line
	7075 2850 6850 2850
Connection ~ 7075 2750
Wire Wire Line
	7075 2850 7075 2950
Wire Wire Line
	7075 2950 6850 2950
Connection ~ 7075 2850
Connection ~ 7075 2950
Wire Wire Line
	7075 3050 6850 3050
Wire Wire Line
	7075 2950 7075 3050
Wire Wire Line
	7075 3050 7075 3150
Wire Wire Line
	7075 3150 6850 3150
Connection ~ 7075 3050
Wire Wire Line
	7075 3150 7075 3250
Wire Wire Line
	7075 3250 6850 3250
Connection ~ 7075 3150
$Comp
L Connector_Generic:Conn_02x08_Odd_Even J503
U 1 1 60DF7C8B
P 7875 2850
F 0 "J503" H 7925 3367 50  0000 C CNN
F 1 "Conn_02x08_Odd_Even" H 7925 3276 50  0000 C CNN
F 2 "Connector_PinHeader_2.54mm:PinHeader_2x08_P2.54mm_Vertical" H 7875 2850 50  0001 C CNN
F 3 "~" H 7875 2850 50  0001 C CNN
	1    7875 2850
	1    0    0    -1  
$EndComp
Wire Wire Line
	7475 2225 7475 2550
Wire Wire Line
	7475 2550 7675 2550
Wire Wire Line
	7475 2550 7475 2650
Wire Wire Line
	7475 2650 7675 2650
Connection ~ 7475 2550
Wire Wire Line
	7475 2650 7475 2750
Wire Wire Line
	7475 2750 7675 2750
Connection ~ 7475 2650
Wire Wire Line
	7475 2750 7475 2850
Wire Wire Line
	7475 2850 7675 2850
Connection ~ 7475 2750
Wire Wire Line
	7475 2850 7475 2950
Wire Wire Line
	7475 2950 7675 2950
Connection ~ 7475 2850
Wire Wire Line
	7475 2950 7475 3050
Wire Wire Line
	7475 3050 7675 3050
Connection ~ 7475 2950
Wire Wire Line
	7475 3050 7475 3150
Wire Wire Line
	7475 3150 7675 3150
Connection ~ 7475 3050
Wire Wire Line
	7475 3150 7475 3250
Wire Wire Line
	7475 3250 7675 3250
Connection ~ 7475 3150
Wire Wire Line
	8400 2550 8175 2550
Wire Wire Line
	8400 2550 8400 2650
Wire Wire Line
	8400 2650 8175 2650
Wire Wire Line
	8400 2650 8400 2750
Wire Wire Line
	8400 2750 8175 2750
Connection ~ 8400 2650
Wire Wire Line
	8400 2750 8400 2850
Wire Wire Line
	8400 2850 8175 2850
Connection ~ 8400 2750
Wire Wire Line
	8400 2850 8400 2950
Wire Wire Line
	8400 2950 8175 2950
Connection ~ 8400 2850
Connection ~ 8400 2950
Wire Wire Line
	8400 3050 8175 3050
Wire Wire Line
	8400 2950 8400 3050
Wire Wire Line
	8400 3050 8400 3150
Wire Wire Line
	8400 3150 8175 3150
Connection ~ 8400 3050
Wire Wire Line
	8400 3150 8400 3250
Wire Wire Line
	8400 3250 8175 3250
Connection ~ 8400 3150
Connection ~ 8400 3250
$Comp
L power:GNDD #PWR0506
U 1 1 60E01735
P 9600 3250
F 0 "#PWR0506" H 9600 3000 50  0001 C CNN
F 1 "GNDD" H 9600 3100 50  0000 C CNN
F 2 "" H 9600 3250 50  0000 C CNN
F 3 "" H 9600 3250 50  0000 C CNN
	1    9600 3250
	-1   0    0    -1  
$EndComp
$Comp
L Connector_Generic:Conn_02x08_Odd_Even J504
U 1 1 60E019B7
P 9075 2850
F 0 "J504" H 9125 3367 50  0000 C CNN
F 1 "Conn_02x08_Odd_Even" H 9125 3276 50  0000 C CNN
F 2 "Connector_PinHeader_2.54mm:PinHeader_2x08_P2.54mm_Vertical" H 9075 2850 50  0001 C CNN
F 3 "~" H 9075 2850 50  0001 C CNN
	1    9075 2850
	1    0    0    -1  
$EndComp
Wire Wire Line
	8675 2550 8875 2550
Wire Wire Line
	8675 2550 8675 2650
Wire Wire Line
	8675 2650 8875 2650
Wire Wire Line
	8675 2650 8675 2750
Wire Wire Line
	8675 2750 8875 2750
Connection ~ 8675 2650
Wire Wire Line
	8675 2750 8675 2850
Wire Wire Line
	8675 2850 8875 2850
Connection ~ 8675 2750
Wire Wire Line
	8675 2850 8675 2950
Wire Wire Line
	8675 2950 8875 2950
Connection ~ 8675 2850
Wire Wire Line
	8675 2950 8675 3050
Wire Wire Line
	8675 3050 8875 3050
Connection ~ 8675 2950
Wire Wire Line
	8675 3050 8675 3150
Wire Wire Line
	8675 3150 8875 3150
Connection ~ 8675 3050
Wire Wire Line
	8675 3150 8675 3250
Wire Wire Line
	8675 3250 8875 3250
Connection ~ 8675 3150
Wire Wire Line
	9600 2550 9375 2550
Wire Wire Line
	9600 2550 9600 2650
Wire Wire Line
	9600 2650 9375 2650
Wire Wire Line
	9600 2650 9600 2750
Wire Wire Line
	9600 2750 9375 2750
Connection ~ 9600 2650
Wire Wire Line
	9600 2750 9600 2850
Wire Wire Line
	9600 2850 9375 2850
Connection ~ 9600 2750
Wire Wire Line
	9600 2850 9600 2950
Wire Wire Line
	9600 2950 9375 2950
Connection ~ 9600 2850
Connection ~ 9600 2950
Wire Wire Line
	9600 3050 9375 3050
Wire Wire Line
	9600 2950 9600 3050
Wire Wire Line
	9600 3050 9600 3150
Wire Wire Line
	9600 3150 9375 3150
Connection ~ 9600 3050
Wire Wire Line
	9600 3150 9600 3250
Wire Wire Line
	9600 3250 9375 3250
Connection ~ 9600 3150
Connection ~ 9600 3250
$Comp
L power:GNDD #PWR0505
U 1 1 60E07458
P 8675 3250
F 0 "#PWR0505" H 8675 3000 50  0001 C CNN
F 1 "GNDD" H 8675 3100 50  0000 C CNN
F 2 "" H 8675 3250 50  0000 C CNN
F 3 "" H 8675 3250 50  0000 C CNN
	1    8675 3250
	-1   0    0    -1  
$EndComp
Connection ~ 8675 3250
$Comp
L Connector_Generic:Conn_02x08_Odd_Even J505
U 1 1 60E07815
P 10175 2850
F 0 "J505" H 10225 3367 50  0000 C CNN
F 1 "Conn_02x08_Odd_Even" H 10225 3276 50  0000 C CNN
F 2 "Connector_PinHeader_2.54mm:PinHeader_2x08_P2.54mm_Vertical" H 10175 2850 50  0001 C CNN
F 3 "~" H 10175 2850 50  0001 C CNN
	1    10175 2850
	1    0    0    -1  
$EndComp
NoConn ~ 10475 2550
NoConn ~ 10475 2650
NoConn ~ 10475 2750
NoConn ~ 10475 2850
NoConn ~ 10475 2950
NoConn ~ 10475 3050
NoConn ~ 10475 3150
NoConn ~ 10475 3250
NoConn ~ 9975 3250
NoConn ~ 9975 3150
NoConn ~ 9975 3050
NoConn ~ 9975 2950
NoConn ~ 9975 2850
NoConn ~ 9975 2750
NoConn ~ 9975 2650
NoConn ~ 9975 2550
Text Label 4600 3700 0    50   ~ 0
GPIO_P0
Wire Wire Line
	4600 3700 4950 3700
$Comp
L Connector_Generic:Conn_02x08_Odd_Even J506
U 1 1 60E52520
P 5150 4000
F 0 "J506" H 5200 4517 50  0000 C CNN
F 1 "Conn_02x08_Odd_Even" H 5200 4426 50  0000 C CNN
F 2 "Connector_PinHeader_2.54mm:PinHeader_2x08_P2.54mm_Vertical" H 5150 4000 50  0001 C CNN
F 3 "~" H 5150 4000 50  0001 C CNN
	1    5150 4000
	1    0    0    -1  
$EndComp
Text Label 4600 3900 0    50   ~ 0
GPIO_P1
Wire Wire Line
	4600 3900 4950 3900
Text Label 4600 4100 0    50   ~ 0
GPIO_P2
Wire Wire Line
	4600 4100 4950 4100
Text Label 5800 3700 2    50   ~ 0
GPIO_N0
Wire Wire Line
	5800 3700 5450 3700
Text Label 5800 3900 2    50   ~ 0
GPIO_N1
Wire Wire Line
	5800 3900 5450 3900
Text Label 5800 4100 2    50   ~ 0
GPIO_N2
Wire Wire Line
	5800 4100 5450 4100
Text Label 4600 4300 0    50   ~ 0
GPIO_P3
Text Label 5800 4300 2    50   ~ 0
GPIO_N3
Wire Wire Line
	5800 4300 5450 4300
Wire Wire Line
	5850 3800 5850 4000
Wire Wire Line
	5450 3800 5850 3800
Wire Wire Line
	5450 4200 5850 4200
Connection ~ 5850 4200
Wire Wire Line
	5850 4200 5850 4400
Wire Wire Line
	5450 4000 5850 4000
Connection ~ 5850 4000
Wire Wire Line
	5850 4000 5850 4200
Wire Wire Line
	4550 3800 4950 3800
Wire Wire Line
	4550 4400 4950 4400
Wire Wire Line
	4550 3800 4550 4000
Wire Wire Line
	4600 4300 4950 4300
Wire Wire Line
	4550 4200 4950 4200
Connection ~ 4550 4200
Wire Wire Line
	4550 4200 4550 4400
Wire Wire Line
	4550 4000 4950 4000
Connection ~ 4550 4000
Wire Wire Line
	4550 4000 4550 4200
$Comp
L power:GNDD #PWR0507
U 1 1 60E89263
P 4550 4400
F 0 "#PWR0507" H 4550 4150 50  0001 C CNN
F 1 "GNDD" H 4550 4250 50  0000 C CNN
F 2 "" H 4550 4400 50  0000 C CNN
F 3 "" H 4550 4400 50  0000 C CNN
	1    4550 4400
	-1   0    0    -1  
$EndComp
Connection ~ 4550 4400
$Comp
L power:GNDD #PWR0508
U 1 1 60E88B9E
P 5850 4400
F 0 "#PWR0508" H 5850 4150 50  0001 C CNN
F 1 "GNDD" H 5850 4250 50  0000 C CNN
F 2 "" H 5850 4400 50  0000 C CNN
F 3 "" H 5850 4400 50  0000 C CNN
	1    5850 4400
	-1   0    0    -1  
$EndComp
Wire Wire Line
	5450 4400 5850 4400
Connection ~ 5850 4400
Text HLabel 4025 2350 0    60   BiDi ~ 0
GPIO_P[0..3]
Text HLabel 4025 2450 0    60   BiDi ~ 0
GPIO_N[0..3]
$EndSCHEMATC
