EESchema Schematic File Version 4
EELAYER 30 0
EELAYER END
$Descr A4 11693 8268
encoding utf-8
Sheet 11 15
Title "FPGA power supplies"
Date "2021-06-18"
Rev "1"
Comp "Irfu/DphP"
Comment1 ""
Comment2 ""
Comment3 ""
Comment4 ""
$EndDescr
Text Notes 6400 2275 0    60   ~ 0
Power generation for Kintex Ultrascale KU035 :\nVInit : 3.6V -> always and first ON\nThen sequencer  (60ms/60ms/60ms)\n1) VccINT (0.95V, 1A+2.4A@start+0.27A for GTH),\n   VccInt_IO (0.95V, 90mA),\n   VccBram (0.95V, 40mA+50mA)\n   VccMGTAVCC (1.0V, 1.24A)\n2) VccAUX (1.8V, 150mA+40mA@start),\n   VccAUX_IO (1.8V, 70mA), \n   VCCMGTAVTT (1.2V, 0.3A),\n3) VCCO (2.5V, 650 mA),\n   VCCO_ADC (1.8V)\n   VCCO_FE (1.2V)\n   VccSFP (3.3V)
Text Label 4000 1850 0    60   ~ 0
PWRUP_1
Text Label 4000 1950 0    60   ~ 0
PWRUP_2
Text Label 4000 2050 0    60   ~ 0
PWRUP_3
$Comp
L MDJ_compo:VccInt #PWR01114
U 1 1 62FF0B42
P 5100 3575
AR Path="/5787D549/62FF0B42" Ref="#PWR01114"  Part="1" 
AR Path="/572C0D81/62FF0B42" Ref="#PWR?"  Part="1" 
F 0 "#PWR01114" H 5100 3425 50  0001 C CNN
F 1 "VccInt" H 5100 3725 50  0000 C CNN
F 2 "" H 5100 3575 50  0000 C CNN
F 3 "" H 5100 3575 50  0000 C CNN
	1    5100 3575
	1    0    0    -1  
$EndComp
$Comp
L MDJ_compo:VccMGTAVcc #PWR01116
U 1 1 62FF0B43
P 4550 4025
AR Path="/5787D549/62FF0B43" Ref="#PWR01116"  Part="1" 
AR Path="/572C0D81/62FF0B43" Ref="#PWR?"  Part="1" 
F 0 "#PWR01116" H 4550 3875 50  0001 C CNN
F 1 "VccMGTAVcc" H 4550 4175 50  0000 C CNN
F 2 "" H 4550 4025 50  0000 C CNN
F 3 "" H 4550 4025 50  0000 C CNN
	1    4550 4025
	1    0    0    -1  
$EndComp
$Comp
L MDJ_compo:VccMGTAVtt #PWR01124
U 1 1 62F5712F
P 3500 4925
AR Path="/5787D549/62F5712F" Ref="#PWR01124"  Part="1" 
AR Path="/572C0D81/62F5712F" Ref="#PWR?"  Part="1" 
F 0 "#PWR01124" H 3500 4775 50  0001 C CNN
F 1 "VccMGTAVtt" H 3500 5075 50  0000 C CNN
F 2 "" H 3500 4925 50  0000 C CNN
F 3 "" H 3500 4925 50  0000 C CNN
	1    3500 4925
	1    0    0    -1  
$EndComp
$Comp
L Device:R R1101
U 1 1 62FF0B4F
P 4550 1650
AR Path="/5787D549/62FF0B4F" Ref="R1101"  Part="1" 
AR Path="/572C0D81/62FF0B4F" Ref="R?"  Part="1" 
F 0 "R1101" V 4630 1650 50  0000 C CNN
F 1 "10k" V 4550 1650 50  0000 C CNN
F 2 "Resistor_SMD:R_0201_0603Metric" H 4550 1650 50  0001 C CNN
F 3 "" H 4550 1650 50  0000 C CNN
	1    4550 1650
	1    0    0    -1  
$EndComp
$Comp
L Power_Supervisor:LM3880 U1102
U 1 1 62FF0B50
P 3600 1950
AR Path="/5787D549/62FF0B50" Ref="U1102"  Part="1" 
AR Path="/572C0D81/62FF0B50" Ref="U?"  Part="1" 
F 0 "U1102" H 3775 1625 60  0000 C CNN
F 1 "LM3880" H 3800 1700 60  0000 C CNN
F 2 "Package_TO_SOT_SMD:SOT-23-6" H 3600 1950 60  0001 C CNN
F 3 "" H 3600 1950 60  0000 C CNN
F 4 "Digi-key" H 3600 1950 60  0001 C CNN "Supplier"
F 5 "296-43886-1-ND" H 3600 1950 60  0001 C CNN "Supplier P/N"
	1    3600 1950
	1    0    0    -1  
$EndComp
$Comp
L power:GNDD #PWR01110
U 1 1 62FF0BA1
P 3600 2300
AR Path="/5787D549/62FF0BA1" Ref="#PWR01110"  Part="1" 
AR Path="/572C0D81/62FF0BA1" Ref="#PWR?"  Part="1" 
F 0 "#PWR01110" H 3600 2050 50  0001 C CNN
F 1 "GNDD" H 3600 2150 50  0000 C CNN
F 2 "" H 3600 2300 50  0000 C CNN
F 3 "" H 3600 2300 50  0000 C CNN
	1    3600 2300
	1    0    0    -1  
$EndComp
$Comp
L Device:R R1102
U 1 1 5789D199
P 4750 1650
AR Path="/5787D549/5789D199" Ref="R1102"  Part="1" 
AR Path="/572C0D81/5789D199" Ref="R?"  Part="1" 
F 0 "R1102" V 4830 1650 50  0000 C CNN
F 1 "10k" V 4750 1650 50  0000 C CNN
F 2 "Resistor_SMD:R_0201_0603Metric" H 4750 1650 50  0001 C CNN
F 3 "" H 4750 1650 50  0000 C CNN
	1    4750 1650
	1    0    0    -1  
$EndComp
$Comp
L Device:R R1103
U 1 1 62F5713C
P 4950 1650
AR Path="/5787D549/62F5713C" Ref="R1103"  Part="1" 
AR Path="/572C0D81/62F5713C" Ref="R?"  Part="1" 
F 0 "R1103" V 5030 1650 50  0000 C CNN
F 1 "10k" V 4950 1650 50  0000 C CNN
F 2 "Resistor_SMD:R_0201_0603Metric" H 4950 1650 50  0001 C CNN
F 3 "" H 4950 1650 50  0000 C CNN
	1    4950 1650
	1    0    0    -1  
$EndComp
$Comp
L MDJ_compo:VccAux #PWR01120
U 1 1 62FF0B58
P 4025 4475
AR Path="/5787D549/62FF0B58" Ref="#PWR01120"  Part="1" 
AR Path="/572C0D81/62FF0B58" Ref="#PWR?"  Part="1" 
F 0 "#PWR01120" H 4025 4325 50  0001 C CNN
F 1 "VccAux" H 4025 4650 50  0000 C CNN
F 2 "" H 4025 4475 50  0000 C CNN
F 3 "" H 4025 4475 50  0000 C CNN
	1    4025 4475
	1    0    0    -1  
$EndComp
$Comp
L MDJ_compo:VccSFP #PWR01125
U 1 1 62FF0B59
P 8750 4925
AR Path="/5787D549/62FF0B59" Ref="#PWR01125"  Part="1" 
AR Path="/572C0D81/62FF0B59" Ref="#PWR?"  Part="1" 
F 0 "#PWR01125" H 8750 4775 50  0001 C CNN
F 1 "VccSFP" H 8750 5075 50  0000 C CNN
F 2 "" H 8750 4925 50  0000 C CNN
F 3 "" H 8750 4925 50  0000 C CNN
	1    8750 4925
	1    0    0    -1  
$EndComp
Wire Wire Line
	3600 2300 3600 2250
Wire Wire Line
	4000 1850 4550 1850
Wire Wire Line
	4000 1950 4750 1950
Wire Wire Line
	4000 2050 4950 2050
Wire Wire Line
	4550 1400 4750 1400
Wire Wire Line
	3600 1250 3600 1300
$Comp
L Device:C C1101
U 1 1 62FF0B6A
P 4000 1450
F 0 "C1101" H 3975 1525 50  0000 C CNN
F 1 "100n" H 4000 1375 50  0000 C CNN
F 2 "Capacitor_SMD:C_0201_0603Metric" H 4000 1450 50  0001 C CNN
F 3 "" H 4000 1450 50  0000 C CNN
	1    4000 1450
	1    0    0    -1  
$EndComp
$Comp
L power:GNDD #PWR01103
U 1 1 62FF0B6B
P 4000 1600
F 0 "#PWR01103" H 4000 1350 50  0001 C CNN
F 1 "GNDD" H 4000 1450 50  0000 C CNN
F 2 "" H 4000 1600 50  0000 C CNN
F 3 "" H 4000 1600 50  0000 C CNN
	1    4000 1600
	1    0    0    -1  
$EndComp
Wire Wire Line
	4000 1300 3600 1300
Connection ~ 3600 1300
Wire Wire Line
	4550 1400 4550 1500
Wire Wire Line
	4750 1400 4750 1500
Wire Wire Line
	4950 1400 4950 1500
Wire Wire Line
	4950 1800 4950 2050
Wire Wire Line
	4750 1800 4750 1950
Wire Wire Line
	4550 1800 4550 1850
Wire Wire Line
	3600 1300 3600 1650
$Comp
L MDJ_compo:VccO_ADC #PWR01117
U 1 1 62FF0B98
P 9800 4025
F 0 "#PWR01117" H 9800 3875 50  0001 C CNN
F 1 "VccO_ADC" H 9815 4198 50  0000 C CNN
F 2 "" H 9800 4025 50  0000 C CNN
F 3 "" H 9800 4025 50  0000 C CNN
	1    9800 4025
	1    0    0    -1  
$EndComp
$Comp
L power:GNDD #PWR01108
U 1 1 60FB19C2
P 1550 2250
AR Path="/5787D549/60FB19C2" Ref="#PWR01108"  Part="1" 
AR Path="/572C0D81/60FB19C2" Ref="#PWR?"  Part="1" 
F 0 "#PWR01108" H 1550 2000 50  0001 C CNN
F 1 "GNDD" H 1550 2100 50  0000 C CNN
F 2 "" H 1550 2250 50  0000 C CNN
F 3 "" H 1550 2250 50  0000 C CNN
	1    1550 2250
	1    0    0    -1  
$EndComp
$Comp
L Device:C C?
U 1 1 60FC6190
P 1000 2000
AR Path="/59140D2B/60FC6190" Ref="C?"  Part="1" 
AR Path="/5B5208C5/60FC6190" Ref="C?"  Part="1" 
AR Path="/57059335/60FC6190" Ref="C?"  Part="1" 
AR Path="/5787D549/60FC6190" Ref="C1102"  Part="1" 
F 0 "C1102" H 850 2075 50  0000 L CNN
F 1 "10u" H 950 1925 50  0000 L CNN
F 2 "Capacitor_SMD:C_0402_1005Metric" H 1038 1850 50  0001 C CNN
F 3 "" H 1000 2000 50  0000 C CNN
	1    1000 2000
	1    0    0    -1  
$EndComp
$Comp
L power:GNDD #PWR01106
U 1 1 60FC69E6
P 1000 2150
AR Path="/5787D549/60FC69E6" Ref="#PWR01106"  Part="1" 
AR Path="/572C0D81/60FC69E6" Ref="#PWR?"  Part="1" 
F 0 "#PWR01106" H 1000 1900 50  0001 C CNN
F 1 "GNDD" H 1000 2000 50  0000 C CNN
F 2 "" H 1000 2150 50  0000 C CNN
F 3 "" H 1000 2150 50  0000 C CNN
	1    1000 2150
	1    0    0    -1  
$EndComp
$Comp
L Device:C C?
U 1 1 60FC8683
P 2325 2000
AR Path="/59140D2B/60FC8683" Ref="C?"  Part="1" 
AR Path="/5B5208C5/60FC8683" Ref="C?"  Part="1" 
AR Path="/57059335/60FC8683" Ref="C?"  Part="1" 
AR Path="/5787D549/60FC8683" Ref="C1103"  Part="1" 
F 0 "C1103" H 2175 2075 50  0000 L CNN
F 1 "10u" H 2275 1925 50  0000 L CNN
F 2 "Capacitor_SMD:C_0402_1005Metric" H 2363 1850 50  0001 C CNN
F 3 "" H 2325 2000 50  0000 C CNN
	1    2325 2000
	1    0    0    -1  
$EndComp
Wire Wire Line
	1950 1850 2125 1850
$Comp
L Device:R R?
U 1 1 60FDBBD5
P 2125 2000
AR Path="/59140D2B/60FDBBD5" Ref="R?"  Part="1" 
AR Path="/5B5208C5/60FDBBD5" Ref="R?"  Part="1" 
AR Path="/57059335/60FDBBD5" Ref="R?"  Part="1" 
AR Path="/5787D549/60FDBBD5" Ref="R1105"  Part="1" 
F 0 "R1105" V 2200 2000 50  0000 C CNN
F 1 "100k" V 2125 2000 50  0000 C CNN
F 2 "Resistor_SMD:R_0402_1005Metric" V 2055 2000 50  0001 C CNN
F 3 "" H 2125 2000 50  0000 C CNN
	1    2125 2000
	-1   0    0    1   
$EndComp
Connection ~ 2125 1850
Wire Wire Line
	2125 1850 2325 1850
Wire Wire Line
	1950 2050 1950 2150
Wire Wire Line
	1950 2150 2125 2150
$Comp
L Device:R R?
U 1 1 60FF0B57
P 2125 2300
AR Path="/59140D2B/60FF0B57" Ref="R?"  Part="1" 
AR Path="/5B5208C5/60FF0B57" Ref="R?"  Part="1" 
AR Path="/57059335/60FF0B57" Ref="R?"  Part="1" 
AR Path="/5787D549/60FF0B57" Ref="R1107"  Part="1" 
F 0 "R1107" V 2200 2300 50  0000 C CNN
F 1 "200k" V 2125 2300 50  0000 C CNN
F 2 "Resistor_SMD:R_0402_1005Metric" V 2055 2300 50  0001 C CNN
F 3 "" H 2125 2300 50  0000 C CNN
	1    2125 2300
	-1   0    0    1   
$EndComp
Connection ~ 2125 2150
$Comp
L power:GNDD #PWR01111
U 1 1 60FF116C
P 2125 2450
AR Path="/5787D549/60FF116C" Ref="#PWR01111"  Part="1" 
AR Path="/572C0D81/60FF116C" Ref="#PWR?"  Part="1" 
F 0 "#PWR01111" H 2125 2200 50  0001 C CNN
F 1 "GNDD" H 2125 2300 50  0000 C CNN
F 2 "" H 2125 2450 50  0000 C CNN
F 3 "" H 2125 2450 50  0000 C CNN
	1    2125 2450
	1    0    0    -1  
$EndComp
$Comp
L power:GNDD #PWR01107
U 1 1 60FF16CC
P 2325 2150
AR Path="/5787D549/60FF16CC" Ref="#PWR01107"  Part="1" 
AR Path="/572C0D81/60FF16CC" Ref="#PWR?"  Part="1" 
F 0 "#PWR01107" H 2325 1900 50  0001 C CNN
F 1 "GNDD" H 2325 2000 50  0000 C CNN
F 2 "" H 2325 2150 50  0000 C CNN
F 3 "" H 2325 2150 50  0000 C CNN
	1    2325 2150
	1    0    0    -1  
$EndComp
Wire Wire Line
	2325 1850 2625 1850
Connection ~ 2325 1850
Connection ~ 1000 1850
Wire Wire Line
	1000 1850 1150 1850
Wire Wire Line
	775  1850 1000 1850
$Comp
L MDJ_compo:LTM4644 U1103
U 1 1 60D45C1B
P 2200 4400
F 0 "U1103" H 2200 5703 60  0000 C CNN
F 1 "LTM4644" H 2200 5597 60  0000 C CNN
F 2 "MDJ_mod:BGA-77-9.0x15.0x5.21mm_Layout7x11_P1.27mm" H 2200 4400 60  0001 C CNN
F 3 "https://www.analog.com/media/en/technical-documentation/data-sheets/LTM4644.pdf" H 2200 4400 60  0001 C CNN
	1    2200 4400
	1    0    0    -1  
$EndComp
$Comp
L Device:R R?
U 1 1 60D55110
P 3200 1800
AR Path="/59140D2B/60D55110" Ref="R?"  Part="1" 
AR Path="/5B5208C5/60D55110" Ref="R?"  Part="1" 
AR Path="/57059335/60D55110" Ref="R?"  Part="1" 
AR Path="/5787D549/60D55110" Ref="R1104"  Part="1" 
F 0 "R1104" V 3275 1800 50  0000 C CNN
F 1 "100k" V 3200 1800 50  0000 C CNN
F 2 "Resistor_SMD:R_0402_1005Metric" V 3130 1800 50  0001 C CNN
F 3 "" H 3200 1800 50  0000 C CNN
	1    3200 1800
	-1   0    0    1   
$EndComp
$Comp
L Device:R R?
U 1 1 60D5588A
P 3200 2100
AR Path="/59140D2B/60D5588A" Ref="R?"  Part="1" 
AR Path="/5B5208C5/60D5588A" Ref="R?"  Part="1" 
AR Path="/57059335/60D5588A" Ref="R?"  Part="1" 
AR Path="/5787D549/60D5588A" Ref="R1106"  Part="1" 
F 0 "R1106" V 3275 2100 50  0000 C CNN
F 1 "100k" V 3200 2100 50  0000 C CNN
F 2 "Resistor_SMD:R_0402_1005Metric" V 3130 2100 50  0001 C CNN
F 3 "" H 3200 2100 50  0000 C CNN
	1    3200 2100
	-1   0    0    1   
$EndComp
Connection ~ 3200 1950
$Comp
L power:GNDD #PWR01109
U 1 1 60D55F11
P 3200 2250
AR Path="/5787D549/60D55F11" Ref="#PWR01109"  Part="1" 
AR Path="/572C0D81/60D55F11" Ref="#PWR?"  Part="1" 
F 0 "#PWR01109" H 3200 2000 50  0001 C CNN
F 1 "GNDD" H 3200 2100 50  0000 C CNN
F 2 "" H 3200 2250 50  0000 C CNN
F 3 "" H 3200 2250 50  0000 C CNN
	1    3200 2250
	1    0    0    -1  
$EndComp
Wire Wire Line
	3200 1650 3600 1650
Connection ~ 3600 1650
Wire Wire Line
	4750 1400 4950 1400
Connection ~ 4750 1400
Text Label 750  3725 0    50   ~ 0
PWRUP_1
Wire Wire Line
	750  3725 1300 3725
Text Label 750  4175 0    50   ~ 0
PWRUP_1
Wire Wire Line
	750  4175 1300 4175
Text Label 750  4625 0    50   ~ 0
PWRUP_2
Wire Wire Line
	750  4625 1300 4625
Wire Wire Line
	1225 3500 1225 3575
Wire Wire Line
	1225 3575 1300 3575
Wire Wire Line
	1225 4025 1300 4025
Connection ~ 1225 3575
Wire Wire Line
	1225 4025 1225 4100
Wire Wire Line
	1225 4475 1300 4475
Connection ~ 1225 4025
Wire Wire Line
	1225 4475 1225 4550
Wire Wire Line
	1225 4925 1300 4925
Connection ~ 1225 4475
Wire Wire Line
	1300 3650 1225 3650
Wire Wire Line
	1225 3575 1225 3650
Connection ~ 1225 3650
Wire Wire Line
	1225 3650 1225 4025
Wire Wire Line
	1300 4100 1225 4100
Connection ~ 1225 4100
Wire Wire Line
	1225 4100 1225 4475
Wire Wire Line
	1300 4550 1225 4550
Connection ~ 1225 4550
Wire Wire Line
	1225 4550 1225 4925
Wire Wire Line
	1300 5000 1225 5000
Wire Wire Line
	1225 5000 1225 4925
Connection ~ 1225 4925
$Comp
L power:GNDD #PWR01130
U 1 1 60E35352
P 2275 5500
AR Path="/5787D549/60E35352" Ref="#PWR01130"  Part="1" 
AR Path="/572C0D81/60E35352" Ref="#PWR?"  Part="1" 
F 0 "#PWR01130" H 2275 5250 50  0001 C CNN
F 1 "GNDD" H 2275 5350 50  0000 C CNN
F 2 "" H 2275 5500 50  0000 C CNN
F 3 "" H 2275 5500 50  0000 C CNN
	1    2275 5500
	1    0    0    -1  
$EndComp
$Comp
L Device:C C1106
U 1 1 60E37E20
P 4900 3950
AR Path="/5787D549/60E37E20" Ref="C1106"  Part="1" 
AR Path="/572C0D81/60E37E20" Ref="C?"  Part="1" 
F 0 "C1106" V 4850 3825 50  0000 C CNN
F 1 "100n" V 4950 3800 50  0000 C CNN
F 2 "Capacitor_SMD:C_0402_1005Metric" H 4900 3950 50  0001 C CNN
F 3 "" H 4900 3950 50  0000 C CNN
	1    4900 3950
	1    0    0    -1  
$EndComp
$Comp
L Device:R R?
U 1 1 60E3DB44
P 5100 3800
AR Path="/59140D2B/60E3DB44" Ref="R?"  Part="1" 
AR Path="/5B5208C5/60E3DB44" Ref="R?"  Part="1" 
AR Path="/57059335/60E3DB44" Ref="R?"  Part="1" 
AR Path="/5787D549/60E3DB44" Ref="R1108"  Part="1" 
F 0 "R1108" V 5175 3800 50  0000 C CNN
F 1 "100k" V 5100 3800 50  0000 C CNN
F 2 "Resistor_SMD:R_0402_1005Metric" V 5030 3800 50  0001 C CNN
F 3 "" H 5100 3800 50  0000 C CNN
	1    5100 3800
	-1   0    0    1   
$EndComp
$Comp
L Device:R R?
U 1 1 60E3EA56
P 5100 4100
AR Path="/59140D2B/60E3EA56" Ref="R?"  Part="1" 
AR Path="/5B5208C5/60E3EA56" Ref="R?"  Part="1" 
AR Path="/57059335/60E3EA56" Ref="R?"  Part="1" 
AR Path="/5787D549/60E3EA56" Ref="R1110"  Part="1" 
F 0 "R1110" V 5175 4100 50  0000 C CNN
F 1 "3,48k" V 5100 4100 50  0000 C CNN
F 2 "Resistor_SMD:R_0402_1005Metric" V 5030 4100 50  0001 C CNN
F 3 "" H 5100 4100 50  0000 C CNN
	1    5100 4100
	-1   0    0    1   
$EndComp
$Comp
L power:GNDD #PWR01118
U 1 1 60E583FE
P 5100 4250
AR Path="/5787D549/60E583FE" Ref="#PWR01118"  Part="1" 
AR Path="/572C0D81/60E583FE" Ref="#PWR?"  Part="1" 
F 0 "#PWR01118" H 5100 4000 50  0001 C CNN
F 1 "GNDD" H 5100 4100 50  0000 C CNN
F 2 "" H 5100 4250 50  0000 C CNN
F 3 "" H 5100 4250 50  0000 C CNN
	1    5100 4250
	1    0    0    -1  
$EndComp
Wire Wire Line
	4900 4100 4900 4250
Wire Wire Line
	4900 4250 5100 4250
Connection ~ 5100 4250
Wire Wire Line
	1300 5150 1300 5225
Wire Wire Line
	1300 4700 1300 4775
Wire Wire Line
	1300 4250 1300 4325
Wire Wire Line
	1300 3800 1300 3875
Wire Wire Line
	3100 3650 5100 3650
Wire Wire Line
	3100 3800 4900 3800
$Comp
L Device:R R?
U 1 1 60F13FAF
P 4025 4700
AR Path="/59140D2B/60F13FAF" Ref="R?"  Part="1" 
AR Path="/5B5208C5/60F13FAF" Ref="R?"  Part="1" 
AR Path="/57059335/60F13FAF" Ref="R?"  Part="1" 
AR Path="/5787D549/60F13FAF" Ref="R1113"  Part="1" 
F 0 "R1113" V 4100 4700 50  0000 C CNN
F 1 "30k" V 4025 4700 50  0000 C CNN
F 2 "Resistor_SMD:R_0402_1005Metric" V 3955 4700 50  0001 C CNN
F 3 "" H 4025 4700 50  0000 C CNN
	1    4025 4700
	-1   0    0    1   
$EndComp
$Comp
L Device:R R?
U 1 1 60F150EC
P 4025 5000
AR Path="/59140D2B/60F150EC" Ref="R?"  Part="1" 
AR Path="/5B5208C5/60F150EC" Ref="R?"  Part="1" 
AR Path="/57059335/60F150EC" Ref="R?"  Part="1" 
AR Path="/5787D549/60F150EC" Ref="R1115"  Part="1" 
F 0 "R1115" V 4100 5000 50  0000 C CNN
F 1 "200" V 4025 5000 50  0000 C CNN
F 2 "Resistor_SMD:R_0402_1005Metric" V 3955 5000 50  0001 C CNN
F 3 "" H 4025 5000 50  0000 C CNN
	1    4025 5000
	-1   0    0    1   
$EndComp
$Comp
L power:GNDD #PWR01122
U 1 1 60F15618
P 4550 4700
AR Path="/5787D549/60F15618" Ref="#PWR01122"  Part="1" 
AR Path="/572C0D81/60F15618" Ref="#PWR?"  Part="1" 
F 0 "#PWR01122" H 4550 4450 50  0001 C CNN
F 1 "GNDD" H 4550 4550 50  0000 C CNN
F 2 "" H 4550 4700 50  0000 C CNN
F 3 "" H 4550 4700 50  0000 C CNN
	1    4550 4700
	1    0    0    -1  
$EndComp
Wire Wire Line
	3100 4100 4550 4100
$Comp
L Device:C C1110
U 1 1 60F416C0
P 4350 4400
AR Path="/5787D549/60F416C0" Ref="C1110"  Part="1" 
AR Path="/572C0D81/60F416C0" Ref="C?"  Part="1" 
F 0 "C1110" V 4300 4275 50  0000 C CNN
F 1 "100n" V 4400 4250 50  0000 C CNN
F 2 "Capacitor_SMD:C_0402_1005Metric" H 4350 4400 50  0001 C CNN
F 3 "" H 4350 4400 50  0000 C CNN
	1    4350 4400
	1    0    0    -1  
$EndComp
Wire Wire Line
	3100 4250 4350 4250
Wire Wire Line
	4350 4550 4350 4700
Wire Wire Line
	4350 4700 4550 4700
$Comp
L power:GNDD #PWR01126
U 1 1 60F624B7
P 4025 5150
AR Path="/5787D549/60F624B7" Ref="#PWR01126"  Part="1" 
AR Path="/572C0D81/60F624B7" Ref="#PWR?"  Part="1" 
F 0 "#PWR01126" H 4025 4900 50  0001 C CNN
F 1 "GNDD" H 4025 5000 50  0000 C CNN
F 2 "" H 4025 5150 50  0000 C CNN
F 3 "" H 4025 5150 50  0000 C CNN
	1    4025 5150
	1    0    0    -1  
$EndComp
$Comp
L Device:C C1114
U 1 1 60F624C2
P 3825 4850
AR Path="/5787D549/60F624C2" Ref="C1114"  Part="1" 
AR Path="/572C0D81/60F624C2" Ref="C?"  Part="1" 
F 0 "C1114" V 3775 4725 50  0000 C CNN
F 1 "100n" V 3875 4700 50  0000 C CNN
F 2 "Capacitor_SMD:C_0402_1005Metric" H 3825 4850 50  0001 C CNN
F 3 "" H 3825 4850 50  0000 C CNN
	1    3825 4850
	1    0    0    -1  
$EndComp
Wire Wire Line
	3825 5150 4025 5150
Wire Wire Line
	3100 3575 5100 3575
Wire Wire Line
	3100 4550 4025 4550
Wire Wire Line
	3100 4700 3825 4700
Text Notes 3200 3575 0    50   ~ 0
0.95V
Text Notes 3200 4475 0    50   ~ 0
1.8V
Text Notes 3200 4025 0    50   ~ 0
1.0V
$Comp
L Device:R R?
U 1 1 60F624A3
P 4550 4250
AR Path="/59140D2B/60F624A3" Ref="R?"  Part="1" 
AR Path="/5B5208C5/60F624A3" Ref="R?"  Part="1" 
AR Path="/57059335/60F624A3" Ref="R?"  Part="1" 
AR Path="/5787D549/60F624A3" Ref="R1111"  Part="1" 
F 0 "R1111" V 4625 4250 50  0000 C CNN
F 1 "90.9k" V 4550 4250 50  0000 C CNN
F 2 "Resistor_SMD:R_0402_1005Metric" V 4480 4250 50  0001 C CNN
F 3 "" H 4550 4250 50  0000 C CNN
	1    4550 4250
	-1   0    0    1   
$EndComp
Wire Wire Line
	4550 4400 4550 4700
Connection ~ 4550 4700
Connection ~ 4025 5150
Wire Wire Line
	3825 5000 3825 5150
Wire Wire Line
	3100 4025 4550 4025
$Comp
L Device:R R?
U 1 1 61041A4C
P 8750 5150
AR Path="/59140D2B/61041A4C" Ref="R?"  Part="1" 
AR Path="/5B5208C5/61041A4C" Ref="R?"  Part="1" 
AR Path="/57059335/61041A4C" Ref="R?"  Part="1" 
AR Path="/5787D549/61041A4C" Ref="R1117"  Part="1" 
F 0 "R1117" V 8825 5150 50  0000 C CNN
F 1 "90.9k" V 8750 5150 50  0000 C CNN
F 2 "Resistor_SMD:R_0402_1005Metric" V 8680 5150 50  0001 C CNN
F 3 "" H 8750 5150 50  0000 C CNN
	1    8750 5150
	-1   0    0    1   
$EndComp
$Comp
L Device:C C1119
U 1 1 61042558
P 8550 5300
AR Path="/5787D549/61042558" Ref="C1119"  Part="1" 
AR Path="/572C0D81/61042558" Ref="C?"  Part="1" 
F 0 "C1119" V 8500 5175 50  0000 C CNN
F 1 "100n" V 8600 5150 50  0000 C CNN
F 2 "Capacitor_SMD:C_0402_1005Metric" H 8550 5300 50  0001 C CNN
F 3 "" H 8550 5300 50  0000 C CNN
	1    8550 5300
	1    0    0    -1  
$EndComp
Wire Wire Line
	8350 5000 8750 5000
Wire Wire Line
	8350 4925 8750 4925
Wire Wire Line
	8350 5150 8550 5150
$Comp
L power:GNDD #PWR01129
U 1 1 6104E65D
P 8750 5450
AR Path="/5787D549/6104E65D" Ref="#PWR01129"  Part="1" 
AR Path="/572C0D81/6104E65D" Ref="#PWR?"  Part="1" 
F 0 "#PWR01129" H 8750 5200 50  0001 C CNN
F 1 "GNDD" H 8750 5300 50  0000 C CNN
F 2 "" H 8750 5450 50  0000 C CNN
F 3 "" H 8750 5450 50  0000 C CNN
	1    8750 5450
	1    0    0    -1  
$EndComp
Wire Wire Line
	8750 5300 8750 5450
Wire Wire Line
	8750 5450 8550 5450
Connection ~ 8750 5450
Text Notes 8450 4925 0    50   ~ 0
3.3V
$Comp
L MDJ_compo:Vinit #PWR01105
U 1 1 610D3EE0
P 2625 1850
F 0 "#PWR01105" H 2625 1700 50  0001 C CNN
F 1 "Vinit" H 2640 2023 50  0000 C CNN
F 2 "" H 2625 1850 50  0000 C CNN
F 3 "" H 2625 1850 50  0000 C CNN
	1    2625 1850
	1    0    0    -1  
$EndComp
$Comp
L MDJ_compo:Vinit #PWR01101
U 1 1 610DEDAB
P 3600 1250
F 0 "#PWR01101" H 3600 1100 50  0001 C CNN
F 1 "Vinit" H 3615 1423 50  0000 C CNN
F 2 "" H 3600 1250 50  0000 C CNN
F 3 "" H 3600 1250 50  0000 C CNN
	1    3600 1250
	1    0    0    -1  
$EndComp
$Comp
L MDJ_compo:Vinit #PWR01102
U 1 1 610DF15E
P 4950 1400
F 0 "#PWR01102" H 4950 1250 50  0001 C CNN
F 1 "Vinit" H 4965 1573 50  0000 C CNN
F 2 "" H 4950 1400 50  0000 C CNN
F 3 "" H 4950 1400 50  0000 C CNN
	1    4950 1400
	1    0    0    -1  
$EndComp
Connection ~ 4950 1400
Wire Wire Line
	3100 4475 4025 4475
Text Label 750  5075 0    50   ~ 0
PWRUP_2
Wire Wire Line
	750  5075 1300 5075
$Comp
L Device:C C1108
U 1 1 61233830
P 4725 4175
AR Path="/5787D549/61233830" Ref="C1108"  Part="1" 
AR Path="/572C0D81/61233830" Ref="C?"  Part="1" 
F 0 "C1108" H 4700 4250 50  0000 C CNN
F 1 "47u" H 4750 4100 50  0000 C CNN
F 2 "Capacitor_SMD:C_0805_2012Metric" H 4725 4175 50  0001 C CNN
F 3 "" H 4725 4175 50  0000 C CNN
	1    4725 4175
	1    0    0    -1  
$EndComp
Wire Wire Line
	4550 4025 4725 4025
Connection ~ 4550 4025
Wire Wire Line
	4725 4325 4725 4700
Wire Wire Line
	4725 4700 4550 4700
$Comp
L Device:C C1117
U 1 1 61283EB9
P 8900 5075
AR Path="/5787D549/61283EB9" Ref="C1117"  Part="1" 
AR Path="/572C0D81/61283EB9" Ref="C?"  Part="1" 
F 0 "C1117" H 8875 5150 50  0000 C CNN
F 1 "47u" H 8925 5000 50  0000 C CNN
F 2 "Capacitor_SMD:C_0805_2012Metric" H 8900 5075 50  0001 C CNN
F 3 "" H 8900 5075 50  0000 C CNN
	1    8900 5075
	1    0    0    -1  
$EndComp
Wire Wire Line
	8750 4925 8900 4925
Connection ~ 8750 4925
Wire Wire Line
	8900 5225 8900 5450
Wire Wire Line
	8900 5450 8750 5450
$Comp
L Device:C C1112
U 1 1 612A2C5D
P 4175 4625
AR Path="/5787D549/612A2C5D" Ref="C1112"  Part="1" 
AR Path="/572C0D81/612A2C5D" Ref="C?"  Part="1" 
F 0 "C1112" H 4150 4700 50  0000 C CNN
F 1 "47u" H 4200 4550 50  0000 C CNN
F 2 "Capacitor_SMD:C_0805_2012Metric" H 4175 4625 50  0001 C CNN
F 3 "" H 4175 4625 50  0000 C CNN
	1    4175 4625
	1    0    0    -1  
$EndComp
Wire Wire Line
	4025 4475 4175 4475
Connection ~ 4025 4475
Wire Wire Line
	4175 4775 4175 5150
Wire Wire Line
	4175 5150 4025 5150
$Comp
L Device:C C1104
U 1 1 612DAE61
P 5275 3725
AR Path="/5787D549/612DAE61" Ref="C1104"  Part="1" 
AR Path="/572C0D81/612DAE61" Ref="C?"  Part="1" 
F 0 "C1104" H 5250 3800 50  0000 C CNN
F 1 "47u" H 5300 3650 50  0000 C CNN
F 2 "Capacitor_SMD:C_0805_2012Metric" H 5275 3725 50  0001 C CNN
F 3 "" H 5275 3725 50  0000 C CNN
	1    5275 3725
	1    0    0    -1  
$EndComp
Wire Wire Line
	5100 3575 5275 3575
Connection ~ 5100 3575
Wire Wire Line
	5275 3875 5275 4250
Wire Wire Line
	5275 4250 5100 4250
$Comp
L MDJ_compo:VccO #PWR01121
U 1 1 5789ECA5
P 9275 4475
AR Path="/5787D549/5789ECA5" Ref="#PWR01121"  Part="1" 
AR Path="/572C0D81/5789ECA5" Ref="#PWR?"  Part="1" 
F 0 "#PWR01121" H 9275 4325 50  0001 C CNN
F 1 "VccO" H 9275 4625 50  0000 C CNN
F 2 "" H 9275 4475 50  0000 C CNN
F 3 "" H 9275 4475 50  0000 C CNN
	1    9275 4475
	1    0    0    -1  
$EndComp
$Comp
L power:+5V #PWR01104
U 1 1 6132DAF1
P 775 1850
F 0 "#PWR01104" H 775 1700 50  0001 C CNN
F 1 "+5V" H 790 2023 50  0000 C CNN
F 2 "" H 775 1850 50  0001 C CNN
F 3 "" H 775 1850 50  0001 C CNN
	1    775  1850
	1    0    0    -1  
$EndComp
$Comp
L power:+5V #PWR01112
U 1 1 6132E63B
P 1225 3500
F 0 "#PWR01112" H 1225 3350 50  0001 C CNN
F 1 "+5V" H 1240 3673 50  0000 C CNN
F 2 "" H 1225 3500 50  0001 C CNN
F 3 "" H 1225 3500 50  0001 C CNN
	1    1225 3500
	1    0    0    -1  
$EndComp
Text Notes 800  1525 0    50   ~ 0
Put this LDO to :\n- Protect the sequencer\n   from over-voltage transcients\n- Start PROM early to be available\n   when FPGA is ready (50 mA)
$Comp
L Device:C C1122
U 1 1 6134D132
P 1025 5450
AR Path="/5787D549/6134D132" Ref="C1122"  Part="1" 
AR Path="/572C0D81/6134D132" Ref="C?"  Part="1" 
F 0 "C1122" H 1000 5525 50  0000 C CNN
F 1 "10u" H 1050 5375 50  0000 C CNN
F 2 "Capacitor_SMD:C_0402_1005Metric" H 1025 5450 50  0001 C CNN
F 3 "" H 1025 5450 50  0000 C CNN
	1    1025 5450
	1    0    0    -1  
$EndComp
$Comp
L Device:C C1123
U 1 1 6134D6FA
P 1225 5450
AR Path="/5787D549/6134D6FA" Ref="C1123"  Part="1" 
AR Path="/572C0D81/6134D6FA" Ref="C?"  Part="1" 
F 0 "C1123" H 1200 5525 50  0000 C CNN
F 1 "10u" H 1250 5375 50  0000 C CNN
F 2 "Capacitor_SMD:C_0402_1005Metric" H 1225 5450 50  0001 C CNN
F 3 "" H 1225 5450 50  0000 C CNN
	1    1225 5450
	1    0    0    -1  
$EndComp
$Comp
L power:GNDD #PWR01132
U 1 1 6134D704
P 1025 5600
AR Path="/5787D549/6134D704" Ref="#PWR01132"  Part="1" 
AR Path="/572C0D81/6134D704" Ref="#PWR?"  Part="1" 
F 0 "#PWR01132" H 1025 5350 50  0001 C CNN
F 1 "GNDD" H 1025 5475 50  0000 C CNN
F 2 "" H 1025 5600 50  0000 C CNN
F 3 "" H 1025 5600 50  0000 C CNN
	1    1025 5600
	1    0    0    -1  
$EndComp
Wire Wire Line
	1225 5600 1025 5600
$Comp
L Device:C C1120
U 1 1 613551BB
P 625 5450
AR Path="/5787D549/613551BB" Ref="C1120"  Part="1" 
AR Path="/572C0D81/613551BB" Ref="C?"  Part="1" 
F 0 "C1120" H 600 5525 50  0000 C CNN
F 1 "10u" H 650 5375 50  0000 C CNN
F 2 "Capacitor_SMD:C_0402_1005Metric" H 625 5450 50  0001 C CNN
F 3 "" H 625 5450 50  0000 C CNN
	1    625  5450
	1    0    0    -1  
$EndComp
$Comp
L Device:C C1121
U 1 1 613557B5
P 825 5450
AR Path="/5787D549/613557B5" Ref="C1121"  Part="1" 
AR Path="/572C0D81/613557B5" Ref="C?"  Part="1" 
F 0 "C1121" H 800 5525 50  0000 C CNN
F 1 "10u" H 850 5375 50  0000 C CNN
F 2 "Capacitor_SMD:C_0402_1005Metric" H 825 5450 50  0001 C CNN
F 3 "" H 825 5450 50  0000 C CNN
	1    825  5450
	1    0    0    -1  
$EndComp
Connection ~ 1025 5600
Wire Wire Line
	1225 5000 1225 5300
Connection ~ 1225 5000
Wire Wire Line
	1225 5300 1025 5300
Connection ~ 1225 5300
Wire Wire Line
	1025 5300 825  5300
Connection ~ 1025 5300
Wire Wire Line
	825  5300 625  5300
Connection ~ 825  5300
Wire Wire Line
	625  5600 825  5600
Wire Wire Line
	825  5600 1025 5600
Connection ~ 825  5600
$Comp
L MDJ_compo:LT3012 U1101
U 1 1 613E0A93
P 1550 1950
F 0 "U1101" H 1550 2317 50  0000 C CNN
F 1 "LT3012" H 1550 2226 50  0000 C CNN
F 2 "Package_DFN_QFN:DFN-12-1EP_3x4mm_P0.5mm_EP1.7x3.3mm" H 1550 2275 50  0001 C CNN
F 3 "https://www.analog.com/media/en/technical-documentation/data-sheets/3012.pdf" H 1550 1950 50  0001 C CNN
	1    1550 1950
	1    0    0    -1  
$EndComp
Wire Wire Line
	1150 1850 1150 2050
Connection ~ 1150 1850
$Comp
L MDJ_compo:LTM4644 U1104
U 1 1 613B1086
P 7450 4400
F 0 "U1104" H 7450 5703 60  0000 C CNN
F 1 "LTM4644" H 7450 5597 60  0000 C CNN
F 2 "MDJ_mod:BGA-77-9.0x15.0x5.21mm_Layout7x11_P1.27mm" H 7450 4400 60  0001 C CNN
F 3 "https://www.analog.com/media/en/technical-documentation/data-sheets/LTM4644.pdf" H 7450 4400 60  0001 C CNN
	1    7450 4400
	1    0    0    -1  
$EndComp
Text Label 6000 3725 0    50   ~ 0
PWRUP_3
Wire Wire Line
	6000 3725 6550 3725
Text Label 6000 4175 0    50   ~ 0
PWRUP_3
Wire Wire Line
	6000 4175 6550 4175
Text Label 6000 4625 0    50   ~ 0
PWRUP_3
Wire Wire Line
	6000 4625 6550 4625
Wire Wire Line
	6475 3500 6475 3575
Wire Wire Line
	6475 3575 6550 3575
Wire Wire Line
	6475 4025 6550 4025
Connection ~ 6475 3575
Wire Wire Line
	6475 4025 6475 4100
Wire Wire Line
	6475 4475 6550 4475
Connection ~ 6475 4025
Wire Wire Line
	6475 4475 6475 4550
Connection ~ 6475 4475
Wire Wire Line
	6550 3650 6475 3650
Wire Wire Line
	6475 3575 6475 3650
Connection ~ 6475 3650
Wire Wire Line
	6475 3650 6475 4025
Wire Wire Line
	6550 4100 6475 4100
Connection ~ 6475 4100
Wire Wire Line
	6475 4100 6475 4475
Wire Wire Line
	6550 4550 6475 4550
Connection ~ 6475 4550
$Comp
L power:GNDD #PWR01131
U 1 1 613B10AD
P 7525 5500
AR Path="/5787D549/613B10AD" Ref="#PWR01131"  Part="1" 
AR Path="/572C0D81/613B10AD" Ref="#PWR?"  Part="1" 
F 0 "#PWR01131" H 7525 5250 50  0001 C CNN
F 1 "GNDD" H 7525 5350 50  0000 C CNN
F 2 "" H 7525 5500 50  0000 C CNN
F 3 "" H 7525 5500 50  0000 C CNN
	1    7525 5500
	1    0    0    -1  
$EndComp
$Comp
L Device:C C1107
U 1 1 613B10B7
P 10150 3950
AR Path="/5787D549/613B10B7" Ref="C1107"  Part="1" 
AR Path="/572C0D81/613B10B7" Ref="C?"  Part="1" 
F 0 "C1107" V 10100 3825 50  0000 C CNN
F 1 "100n" V 10200 3800 50  0000 C CNN
F 2 "Capacitor_SMD:C_0402_1005Metric" H 10150 3950 50  0001 C CNN
F 3 "" H 10150 3950 50  0000 C CNN
	1    10150 3950
	1    0    0    -1  
$EndComp
$Comp
L Device:R R?
U 1 1 613B10C1
P 10350 3800
AR Path="/59140D2B/613B10C1" Ref="R?"  Part="1" 
AR Path="/5B5208C5/613B10C1" Ref="R?"  Part="1" 
AR Path="/57059335/613B10C1" Ref="R?"  Part="1" 
AR Path="/5787D549/613B10C1" Ref="R1109"  Part="1" 
F 0 "R1109" V 10425 3800 50  0000 C CNN
F 1 "60.4k" V 10350 3800 50  0000 C CNN
F 2 "Resistor_SMD:R_0402_1005Metric" V 10280 3800 50  0001 C CNN
F 3 "" H 10350 3800 50  0000 C CNN
	1    10350 3800
	-1   0    0    1   
$EndComp
$Comp
L power:GNDD #PWR01119
U 1 1 613B10D5
P 10350 4250
AR Path="/5787D549/613B10D5" Ref="#PWR01119"  Part="1" 
AR Path="/572C0D81/613B10D5" Ref="#PWR?"  Part="1" 
F 0 "#PWR01119" H 10350 4000 50  0001 C CNN
F 1 "GNDD" H 10350 4100 50  0000 C CNN
F 2 "" H 10350 4250 50  0000 C CNN
F 3 "" H 10350 4250 50  0000 C CNN
	1    10350 4250
	1    0    0    -1  
$EndComp
Wire Wire Line
	10150 4100 10150 4250
Wire Wire Line
	10150 4250 10350 4250
Connection ~ 10350 4250
Wire Wire Line
	6550 4700 6550 4775
Wire Wire Line
	6550 4250 6550 4325
Wire Wire Line
	6550 3800 6550 3875
Wire Wire Line
	8350 3650 10350 3650
Wire Wire Line
	8350 3800 10150 3800
$Comp
L Device:R R?
U 1 1 613B10E8
P 9275 4700
AR Path="/59140D2B/613B10E8" Ref="R?"  Part="1" 
AR Path="/5B5208C5/613B10E8" Ref="R?"  Part="1" 
AR Path="/57059335/613B10E8" Ref="R?"  Part="1" 
AR Path="/5787D549/613B10E8" Ref="R1114"  Part="1" 
F 0 "R1114" V 9350 4700 50  0000 C CNN
F 1 "19.1" V 9275 4700 50  0000 C CNN
F 2 "Resistor_SMD:R_0402_1005Metric" V 9205 4700 50  0001 C CNN
F 3 "" H 9275 4700 50  0000 C CNN
	1    9275 4700
	-1   0    0    1   
$EndComp
$Comp
L power:GNDD #PWR01123
U 1 1 613B10FC
P 9800 4700
AR Path="/5787D549/613B10FC" Ref="#PWR01123"  Part="1" 
AR Path="/572C0D81/613B10FC" Ref="#PWR?"  Part="1" 
F 0 "#PWR01123" H 9800 4450 50  0001 C CNN
F 1 "GNDD" H 9800 4550 50  0000 C CNN
F 2 "" H 9800 4700 50  0000 C CNN
F 3 "" H 9800 4700 50  0000 C CNN
	1    9800 4700
	1    0    0    -1  
$EndComp
Wire Wire Line
	8350 4100 9800 4100
$Comp
L Device:C C1111
U 1 1 613B1107
P 9600 4400
AR Path="/5787D549/613B1107" Ref="C1111"  Part="1" 
AR Path="/572C0D81/613B1107" Ref="C?"  Part="1" 
F 0 "C1111" V 9550 4275 50  0000 C CNN
F 1 "100n" V 9650 4250 50  0000 C CNN
F 2 "Capacitor_SMD:C_0402_1005Metric" H 9600 4400 50  0001 C CNN
F 3 "" H 9600 4400 50  0000 C CNN
	1    9600 4400
	1    0    0    -1  
$EndComp
Wire Wire Line
	8350 4250 9600 4250
Wire Wire Line
	9600 4550 9600 4700
Wire Wire Line
	9600 4700 9800 4700
$Comp
L power:GNDD #PWR01127
U 1 1 613B1114
P 9275 5150
AR Path="/5787D549/613B1114" Ref="#PWR01127"  Part="1" 
AR Path="/572C0D81/613B1114" Ref="#PWR?"  Part="1" 
F 0 "#PWR01127" H 9275 4900 50  0001 C CNN
F 1 "GNDD" H 9275 5000 50  0000 C CNN
F 2 "" H 9275 5150 50  0000 C CNN
F 3 "" H 9275 5150 50  0000 C CNN
	1    9275 5150
	1    0    0    -1  
$EndComp
$Comp
L Device:C C1115
U 1 1 613B111E
P 9075 4850
AR Path="/5787D549/613B111E" Ref="C1115"  Part="1" 
AR Path="/572C0D81/613B111E" Ref="C?"  Part="1" 
F 0 "C1115" V 9025 4725 50  0000 C CNN
F 1 "100n" V 9125 4700 50  0000 C CNN
F 2 "Capacitor_SMD:C_0402_1005Metric" H 9075 4850 50  0001 C CNN
F 3 "" H 9075 4850 50  0000 C CNN
	1    9075 4850
	1    0    0    -1  
$EndComp
Wire Wire Line
	9075 5150 9275 5150
Wire Wire Line
	8350 4550 9275 4550
Wire Wire Line
	8350 4700 9075 4700
Text Notes 8450 3575 0    50   ~ 0
1.2V
Text Notes 8450 4475 0    50   ~ 0
2.5V
Text Notes 8450 4025 0    50   ~ 0
1.8V
Wire Wire Line
	9800 4400 9800 4700
Connection ~ 9800 4700
Connection ~ 9275 5150
Wire Wire Line
	9075 5000 9075 5150
$Comp
L Device:C C1109
U 1 1 613B1166
P 9975 4175
AR Path="/5787D549/613B1166" Ref="C1109"  Part="1" 
AR Path="/572C0D81/613B1166" Ref="C?"  Part="1" 
F 0 "C1109" H 9950 4250 50  0000 C CNN
F 1 "47u" H 10000 4100 50  0000 C CNN
F 2 "Capacitor_SMD:C_0805_2012Metric" H 9975 4175 50  0001 C CNN
F 3 "" H 9975 4175 50  0000 C CNN
	1    9975 4175
	1    0    0    -1  
$EndComp
Wire Wire Line
	9975 4325 9975 4700
Wire Wire Line
	9975 4700 9800 4700
$Comp
L Device:C C1113
U 1 1 613B1182
P 9425 4625
AR Path="/5787D549/613B1182" Ref="C1113"  Part="1" 
AR Path="/572C0D81/613B1182" Ref="C?"  Part="1" 
F 0 "C1113" H 9400 4700 50  0000 C CNN
F 1 "47u" H 9450 4550 50  0000 C CNN
F 2 "Capacitor_SMD:C_0805_2012Metric" H 9425 4625 50  0001 C CNN
F 3 "" H 9425 4625 50  0000 C CNN
	1    9425 4625
	1    0    0    -1  
$EndComp
Wire Wire Line
	9425 4775 9425 5150
Wire Wire Line
	9425 5150 9275 5150
$Comp
L Device:C C1105
U 1 1 613B1190
P 10525 3725
AR Path="/5787D549/613B1190" Ref="C1105"  Part="1" 
AR Path="/572C0D81/613B1190" Ref="C?"  Part="1" 
F 0 "C1105" H 10500 3800 50  0000 C CNN
F 1 "47u" H 10550 3650 50  0000 C CNN
F 2 "Capacitor_SMD:C_0805_2012Metric" H 10525 3725 50  0001 C CNN
F 3 "" H 10525 3725 50  0000 C CNN
	1    10525 3725
	1    0    0    -1  
$EndComp
Wire Wire Line
	10525 3875 10525 4250
Wire Wire Line
	10525 4250 10350 4250
$Comp
L power:+5V #PWR01113
U 1 1 613B119E
P 6475 3500
F 0 "#PWR01113" H 6475 3350 50  0001 C CNN
F 1 "+5V" H 6490 3673 50  0000 C CNN
F 2 "" H 6475 3500 50  0001 C CNN
F 3 "" H 6475 3500 50  0001 C CNN
	1    6475 3500
	1    0    0    -1  
$EndComp
$Comp
L Device:C C1126
U 1 1 613B11A8
P 6275 5450
AR Path="/5787D549/613B11A8" Ref="C1126"  Part="1" 
AR Path="/572C0D81/613B11A8" Ref="C?"  Part="1" 
F 0 "C1126" H 6250 5525 50  0000 C CNN
F 1 "10u" H 6300 5375 50  0000 C CNN
F 2 "Capacitor_SMD:C_0402_1005Metric" H 6275 5450 50  0001 C CNN
F 3 "" H 6275 5450 50  0000 C CNN
	1    6275 5450
	1    0    0    -1  
$EndComp
$Comp
L Device:C C1127
U 1 1 613B11B2
P 6475 5450
AR Path="/5787D549/613B11B2" Ref="C1127"  Part="1" 
AR Path="/572C0D81/613B11B2" Ref="C?"  Part="1" 
F 0 "C1127" H 6450 5525 50  0000 C CNN
F 1 "10u" H 6500 5375 50  0000 C CNN
F 2 "Capacitor_SMD:C_0402_1005Metric" H 6475 5450 50  0001 C CNN
F 3 "" H 6475 5450 50  0000 C CNN
	1    6475 5450
	1    0    0    -1  
$EndComp
$Comp
L power:GNDD #PWR01133
U 1 1 613B11BC
P 6275 5600
AR Path="/5787D549/613B11BC" Ref="#PWR01133"  Part="1" 
AR Path="/572C0D81/613B11BC" Ref="#PWR?"  Part="1" 
F 0 "#PWR01133" H 6275 5350 50  0001 C CNN
F 1 "GNDD" H 6275 5475 50  0000 C CNN
F 2 "" H 6275 5600 50  0000 C CNN
F 3 "" H 6275 5600 50  0000 C CNN
	1    6275 5600
	1    0    0    -1  
$EndComp
Wire Wire Line
	6475 5600 6275 5600
$Comp
L Device:C C1124
U 1 1 613B11C7
P 5875 5450
AR Path="/5787D549/613B11C7" Ref="C1124"  Part="1" 
AR Path="/572C0D81/613B11C7" Ref="C?"  Part="1" 
F 0 "C1124" H 5850 5525 50  0000 C CNN
F 1 "10u" H 5900 5375 50  0000 C CNN
F 2 "Capacitor_SMD:C_0402_1005Metric" H 5875 5450 50  0001 C CNN
F 3 "" H 5875 5450 50  0000 C CNN
	1    5875 5450
	1    0    0    -1  
$EndComp
$Comp
L Device:C C1125
U 1 1 613B11D1
P 6075 5450
AR Path="/5787D549/613B11D1" Ref="C1125"  Part="1" 
AR Path="/572C0D81/613B11D1" Ref="C?"  Part="1" 
F 0 "C1125" H 6050 5525 50  0000 C CNN
F 1 "10u" H 6100 5375 50  0000 C CNN
F 2 "Capacitor_SMD:C_0402_1005Metric" H 6075 5450 50  0001 C CNN
F 3 "" H 6075 5450 50  0000 C CNN
	1    6075 5450
	1    0    0    -1  
$EndComp
Connection ~ 6275 5600
Wire Wire Line
	6475 5300 6275 5300
Connection ~ 6475 5300
Wire Wire Line
	6275 5300 6075 5300
Connection ~ 6275 5300
Wire Wire Line
	6075 5300 5875 5300
Connection ~ 6075 5300
Wire Wire Line
	5875 5600 6075 5600
Wire Wire Line
	6075 5600 6275 5600
Connection ~ 6075 5600
$Comp
L Device:R R?
U 1 1 613B112F
P 9800 4250
AR Path="/59140D2B/613B112F" Ref="R?"  Part="1" 
AR Path="/5B5208C5/613B112F" Ref="R?"  Part="1" 
AR Path="/57059335/613B112F" Ref="R?"  Part="1" 
AR Path="/5787D549/613B112F" Ref="R1112"  Part="1" 
F 0 "R1112" V 9875 4250 50  0000 C CNN
F 1 "30.1k" V 9800 4250 50  0000 C CNN
F 2 "Resistor_SMD:R_0402_1005Metric" V 9730 4250 50  0001 C CNN
F 3 "" H 9800 4250 50  0000 C CNN
	1    9800 4250
	-1   0    0    1   
$EndComp
Wire Wire Line
	9275 4850 9275 5150
Wire Wire Line
	8350 4475 9275 4475
Connection ~ 9275 4475
Wire Wire Line
	9275 4475 9425 4475
Connection ~ 9800 4025
Wire Wire Line
	9800 4025 9975 4025
Wire Wire Line
	8350 4025 9800 4025
Wire Wire Line
	8350 3575 10350 3575
$Comp
L MDJ_compo:VccO_FE #PWR01115
U 1 1 61494DF9
P 10350 3575
F 0 "#PWR01115" H 10350 3425 50  0001 C CNN
F 1 "VccO_FE" H 10365 3748 50  0000 C CNN
F 2 "" H 10350 3575 50  0000 C CNN
F 3 "" H 10350 3575 50  0000 C CNN
	1    10350 3575
	1    0    0    -1  
$EndComp
Connection ~ 10350 3575
Wire Wire Line
	10350 3575 10525 3575
Wire Wire Line
	10350 3950 10350 4250
Wire Wire Line
	6475 4550 6475 4925
Wire Wire Line
	6550 5150 6550 5225
Text Label 6000 5075 0    50   ~ 0
PWRUP_3
Wire Wire Line
	6000 5075 6550 5075
Wire Wire Line
	6550 4925 6475 4925
Connection ~ 6475 4925
Wire Wire Line
	6475 4925 6475 5000
Wire Wire Line
	6550 5000 6475 5000
Connection ~ 6475 5000
Wire Wire Line
	6475 5000 6475 5300
$Comp
L Device:R R?
U 1 1 614EA2F7
P 3500 5150
AR Path="/59140D2B/614EA2F7" Ref="R?"  Part="1" 
AR Path="/5B5208C5/614EA2F7" Ref="R?"  Part="1" 
AR Path="/57059335/614EA2F7" Ref="R?"  Part="1" 
AR Path="/5787D549/614EA2F7" Ref="R1116"  Part="1" 
F 0 "R1116" V 3575 5150 50  0000 C CNN
F 1 "60.4k" V 3500 5150 50  0000 C CNN
F 2 "Resistor_SMD:R_0402_1005Metric" V 3430 5150 50  0001 C CNN
F 3 "" H 3500 5150 50  0000 C CNN
	1    3500 5150
	-1   0    0    1   
$EndComp
$Comp
L Device:C C1118
U 1 1 614EA301
P 3300 5300
AR Path="/5787D549/614EA301" Ref="C1118"  Part="1" 
AR Path="/572C0D81/614EA301" Ref="C?"  Part="1" 
F 0 "C1118" V 3250 5175 50  0000 C CNN
F 1 "100n" V 3350 5150 50  0000 C CNN
F 2 "Capacitor_SMD:C_0402_1005Metric" H 3300 5300 50  0001 C CNN
F 3 "" H 3300 5300 50  0000 C CNN
	1    3300 5300
	1    0    0    -1  
$EndComp
Wire Wire Line
	3100 5000 3500 5000
Wire Wire Line
	3100 5150 3300 5150
$Comp
L power:GNDD #PWR01128
U 1 1 614EA30E
P 3500 5450
AR Path="/5787D549/614EA30E" Ref="#PWR01128"  Part="1" 
AR Path="/572C0D81/614EA30E" Ref="#PWR?"  Part="1" 
F 0 "#PWR01128" H 3500 5200 50  0001 C CNN
F 1 "GNDD" H 3500 5300 50  0000 C CNN
F 2 "" H 3500 5450 50  0000 C CNN
F 3 "" H 3500 5450 50  0000 C CNN
	1    3500 5450
	1    0    0    -1  
$EndComp
Wire Wire Line
	3500 5300 3500 5450
Wire Wire Line
	3500 5450 3300 5450
Connection ~ 3500 5450
Text Notes 3200 4925 0    50   ~ 0
1.2V
$Comp
L Device:C C1116
U 1 1 614EA31C
P 3650 5075
AR Path="/5787D549/614EA31C" Ref="C1116"  Part="1" 
AR Path="/572C0D81/614EA31C" Ref="C?"  Part="1" 
F 0 "C1116" H 3625 5150 50  0000 C CNN
F 1 "47u" H 3675 5000 50  0000 C CNN
F 2 "Capacitor_SMD:C_0805_2012Metric" H 3650 5075 50  0001 C CNN
F 3 "" H 3650 5075 50  0000 C CNN
	1    3650 5075
	1    0    0    -1  
$EndComp
Wire Wire Line
	3650 5450 3500 5450
Wire Wire Line
	3650 5225 3650 5450
Wire Wire Line
	3100 4925 3500 4925
Connection ~ 3500 4925
Wire Wire Line
	3500 4925 3650 4925
NoConn ~ 8350 3725
NoConn ~ 8350 3875
NoConn ~ 8350 4175
NoConn ~ 8350 4325
NoConn ~ 8350 4625
NoConn ~ 8350 4775
NoConn ~ 8350 5075
NoConn ~ 8350 5225
NoConn ~ 3100 3725
NoConn ~ 3100 3875
NoConn ~ 3100 4175
NoConn ~ 3100 4325
NoConn ~ 3100 4625
NoConn ~ 3100 4775
NoConn ~ 3100 5075
NoConn ~ 3100 5225
NoConn ~ 7375 3300
NoConn ~ 7525 3300
NoConn ~ 2125 3300
NoConn ~ 2275 3300
Wire Wire Line
	2200 5500 2275 5500
Connection ~ 2275 5500
Wire Wire Line
	7450 5500 7525 5500
Connection ~ 7525 5500
Wire Wire Line
	2050 5500 2050 5825
Wire Wire Line
	2050 5825 2650 5825
Wire Wire Line
	7300 5500 7300 5825
Wire Wire Line
	7300 5825 7900 5825
Text Label 7900 5825 2    50   ~ 0
DCDC_Temp2
Text Label 2650 5825 2    50   ~ 0
DCDC_Temp1
Text HLabel 1475 6450 2    50   Output ~ 0
DCDC_Temp[1..2]
$EndSCHEMATC
