EESchema Schematic File Version 4
EELAYER 30 0
EELAYER END
$Descr A4 11693 8268
encoding utf-8
Sheet 3 15
Title "FPGA programming"
Date "2020-04-09"
Rev "1"
Comp "Irfu/DphP"
Comment1 ""
Comment2 ""
Comment3 ""
Comment4 ""
$EndDescr
$Comp
L Connector_Generic:Conn_02x07_Odd_Even U304
U 1 1 572B7D3D
P 2050 4800
F 0 "U304" H 2200 4300 60  0000 C CNN
F 1 "PINS_14X2" V 2050 4750 60  0000 C CNN
F 2 "Connector_PinHeader_2.00mm:PinHeader_2x07_P2.00mm_Vertical" H 2050 4800 60  0001 C CNN
F 3 "" H 2050 4800 60  0000 C CNN
F 4 "Digikey" H 2050 4800 60  0001 C CNN "Supplier"
F 5 "WM18641-ND" H 2050 4800 60  0001 C CNN "Supplier P/N"
	1    2050 4800
	1    0    0    -1  
$EndComp
NoConn ~ 2350 5000
NoConn ~ 2350 5100
$Comp
L power:GNDD #PWR0322
U 1 1 572C82E0
P 1775 5225
F 0 "#PWR0322" H 1775 4975 50  0001 C CNN
F 1 "GNDD" H 1775 5075 50  0000 C CNN
F 2 "" H 1775 5225 50  0000 C CNN
F 3 "" H 1775 5225 50  0000 C CNN
	1    1775 5225
	1    0    0    -1  
$EndComp
$Comp
L Device:R R304
U 1 1 572C8509
P 6150 3250
F 0 "R304" V 6230 3250 50  0000 C CNN
F 1 "4.7k" V 6150 3250 50  0000 C CNN
F 2 "Resistor_SMD:R_0402_1005Metric" H 6150 3250 50  0001 C CNN
F 3 "" H 6150 3250 50  0000 C CNN
	1    6150 3250
	1    0    0    -1  
$EndComp
$Comp
L Device:R R306
U 1 1 572C85D6
P 6650 3250
F 0 "R306" V 6730 3250 50  0000 C CNN
F 1 "2.4k" V 6650 3250 50  0000 C CNN
F 2 "Resistor_SMD:R_0402_1005Metric" H 6650 3250 50  0001 C CNN
F 3 "" H 6650 3250 50  0000 C CNN
	1    6650 3250
	1    0    0    -1  
$EndComp
$Comp
L Device:R R305
U 1 1 572C86D9
P 6400 3250
F 0 "R305" V 6480 3250 50  0000 C CNN
F 1 "4.7k" V 6400 3250 50  0000 C CNN
F 2 "Resistor_SMD:R_0402_1005Metric" H 6400 3250 50  0001 C CNN
F 3 "" H 6400 3250 50  0000 C CNN
	1    6400 3250
	1    0    0    -1  
$EndComp
$Comp
L Device:R R307
U 1 1 572C8788
P 2700 4300
F 0 "R307" V 2780 4300 50  0000 C CNN
F 1 "4.7k" V 2700 4300 50  0000 C CNN
F 2 "Resistor_SMD:R_0402_1005Metric" H 2700 4300 50  0001 C CNN
F 3 "" H 2700 4300 50  0000 C CNN
	1    2700 4300
	1    0    0    -1  
$EndComp
$Comp
L power:GNDD #PWR0319
U 1 1 572CC065
P 7350 4650
F 0 "#PWR0319" H 7350 4400 50  0001 C CNN
F 1 "GNDD" H 7350 4500 50  0000 C CNN
F 2 "" H 7350 4650 50  0000 C CNN
F 3 "" H 7350 4650 50  0000 C CNN
	1    7350 4650
	1    0    0    -1  
$EndComp
Text Notes 8475 5025 1    120  ~ 0
128 Mbit Bitstream\nUsing 128 Mb flash
$Comp
L power:GNDD #PWR0304
U 1 1 5791CA1A
P 5950 2200
F 0 "#PWR0304" H 5950 1950 50  0001 C CNN
F 1 "GNDD" H 5950 2050 50  0000 C CNN
F 2 "" H 5950 2200 50  0000 C CNN
F 3 "" H 5950 2200 50  0000 C CNN
	1    5950 2200
	1    0    0    -1  
$EndComp
$Comp
L Device:C C302
U 1 1 5791CA20
P 5350 2000
F 0 "C302" H 5350 2075 50  0000 C CNN
F 1 "100n" H 5350 1925 50  0000 C CNN
F 2 "Capacitor_SMD:C_0402_1005Metric" H 5350 2000 50  0001 C CNN
F 3 "" H 5350 2000 50  0000 C CNN
	1    5350 2000
	1    0    0    -1  
$EndComp
$Comp
L power:GNDD #PWR0303
U 1 1 5791CA27
P 5350 2200
F 0 "#PWR0303" H 5350 1950 50  0001 C CNN
F 1 "GNDD" H 5350 2050 50  0000 C CNN
F 2 "" H 5350 2200 50  0000 C CNN
F 3 "" H 5350 2200 50  0000 C CNN
	1    5350 2200
	1    0    0    -1  
$EndComp
$Comp
L Device:R R301
U 1 1 5791CA38
P 6550 1900
F 0 "R301" V 6630 1900 50  0000 C CNN
F 1 "8.66k" V 6550 1900 50  0000 C CNN
F 2 "Resistor_SMD:R_0402_1005Metric" H 6550 1900 50  0001 C CNN
F 3 "" H 6550 1900 50  0000 C CNN
	1    6550 1900
	1    0    0    -1  
$EndComp
$Comp
L Device:R R302
U 1 1 5791CA3F
P 6550 2300
F 0 "R302" V 6630 2300 50  0000 C CNN
F 1 "8.06k" V 6550 2300 50  0000 C CNN
F 2 "Resistor_SMD:R_0402_1005Metric" H 6550 2300 50  0001 C CNN
F 3 "" H 6550 2300 50  0000 C CNN
	1    6550 2300
	1    0    0    -1  
$EndComp
$Comp
L power:GNDD #PWR0305
U 1 1 5791CA46
P 6550 2450
F 0 "#PWR0305" H 6550 2200 50  0001 C CNN
F 1 "GNDD" H 6550 2300 50  0000 C CNN
F 2 "" H 6550 2450 50  0000 C CNN
F 3 "" H 6550 2450 50  0000 C CNN
	1    6550 2450
	1    0    0    -1  
$EndComp
$Comp
L Device:C C301
U 1 1 5791CA50
P 6800 1850
F 0 "C301" H 6800 1925 50  0000 C CNN
F 1 "470n" H 6800 1775 50  0000 C CNN
F 2 "Capacitor_SMD:C_0402_1005Metric" H 6800 1850 50  0001 C CNN
F 3 "" H 6800 1850 50  0000 C CNN
	1    6800 1850
	1    0    0    -1  
$EndComp
$Comp
L power:GNDD #PWR0302
U 1 1 5791CA57
P 6800 2050
F 0 "#PWR0302" H 6800 1800 50  0001 C CNN
F 1 "GNDD" H 6800 1900 50  0000 C CNN
F 2 "" H 6800 2050 50  0000 C CNN
F 3 "" H 6800 2050 50  0000 C CNN
	1    6800 2050
	1    0    0    -1  
$EndComp
$Comp
L MDJ_compo:ST715MR U301
U 1 1 5791CA60
P 5950 1800
F 0 "U301" H 6300 1300 60  0000 C CNN
F 1 "ST715MR" H 5975 1800 60  0000 C CNN
F 2 "Package_TO_SOT_SMD:SOT-23-5" H 5950 1800 60  0001 C CNN
F 3 "" H 5950 1800 60  0000 C CNN
F 4 "Digikey" H 5950 1800 60  0001 C CNN "Supplier"
F 5 "497-6832-1-ND" H 5950 1800 60  0001 C CNN "Supplier P/N"
	1    5950 1800
	1    0    0    -1  
$EndComp
Text Notes 7500 1900 0    120  ~ 0
V_FLASH is 2.5V\nwe can use 2.5V IOs
$Comp
L Device:C C305
U 1 1 57941BE0
P 5250 3175
F 0 "C305" V 5350 3325 50  0000 C CNN
F 1 "100u" V 5350 3025 50  0000 C CNN
F 2 "Capacitor_SMD:C_0805_2012Metric" H 5250 3175 50  0001 C CNN
F 3 "" H 5250 3175 50  0000 C CNN
F 4 "Digi-key" V 5250 3175 60  0001 C CNN "Supplier"
F 5 "490-6542-1-ND	" V 5250 3175 60  0001 C CNN "Supplier Part"
	1    5250 3175
	1    0    0    -1  
$EndComp
$Comp
L power:GNDD #PWR0321
U 1 1 5B5BF3FE
P 3400 4825
F 0 "#PWR0321" H 3400 4575 50  0001 C CNN
F 1 "GNDD" H 3225 4750 39  0000 C CNN
F 2 "" H 3400 4825 50  0000 C CNN
F 3 "" H 3400 4825 50  0000 C CNN
	1    3400 4825
	1    0    0    -1  
$EndComp
Wire Wire Line
	3600 4600 2350 4600
Wire Wire Line
	2500 4700 2350 4700
Wire Wire Line
	1850 4500 1775 4500
Wire Wire Line
	1775 4500 1775 4600
Wire Wire Line
	1850 5000 1775 5000
Connection ~ 1775 5000
Wire Wire Line
	1850 4900 1775 4900
Connection ~ 1775 4900
Wire Wire Line
	1850 4800 1775 4800
Connection ~ 1775 4800
Wire Wire Line
	1850 4700 1775 4700
Connection ~ 1775 4700
Wire Wire Line
	1850 4600 1775 4600
Connection ~ 1775 4600
Wire Wire Line
	1850 5100 1775 5100
Connection ~ 1775 5100
Wire Wire Line
	2350 4500 2400 4500
Wire Wire Line
	2400 4500 2400 4450
Wire Wire Line
	2700 3900 2700 4125
Wire Wire Line
	6150 3000 6150 3100
Wire Wire Line
	6400 3100 6400 3000
Wire Wire Line
	6650 3000 6650 3100
Wire Wire Line
	5350 1750 5350 1800
Wire Wire Line
	5350 2200 5350 2150
Wire Wire Line
	5350 1800 5550 1800
Connection ~ 5350 1800
Wire Wire Line
	6550 1650 6550 1750
Wire Wire Line
	6550 2100 6350 2100
Wire Wire Line
	6350 2100 6350 1950
Wire Wire Line
	6800 2050 6800 2000
Wire Wire Line
	6800 1650 6800 1700
Connection ~ 6800 1650
Wire Wire Line
	6350 1650 6550 1650
Connection ~ 6550 1650
$Comp
L power:GNDD #PWR0314
U 1 1 5B5C1D15
P 5250 3325
F 0 "#PWR0314" H 5250 3075 50  0001 C CNN
F 1 "GNDD" H 5250 3175 50  0000 C CNN
F 2 "" H 5250 3325 50  0000 C CNN
F 3 "" H 5250 3325 50  0000 C CNN
	1    5250 3325
	1    0    0    -1  
$EndComp
Wire Wire Line
	6650 3400 6650 4200
Connection ~ 6650 4200
Wire Wire Line
	1775 5000 1775 5100
Wire Wire Line
	1775 4900 1775 5000
Wire Wire Line
	1775 4800 1775 4900
Wire Wire Line
	1775 4700 1775 4800
Wire Wire Line
	1775 4600 1775 4700
Wire Wire Line
	1775 5100 1775 5225
Wire Wire Line
	5350 1800 5350 1850
Wire Wire Line
	6800 1650 7350 1650
Wire Wire Line
	6550 1650 6800 1650
Wire Wire Line
	6650 4200 6800 4200
Wire Wire Line
	6550 2050 6550 2100
Wire Wire Line
	6550 2100 6550 2150
Connection ~ 6550 2100
Wire Wire Line
	5150 4300 6800 4300
$Comp
L MDJ_compo:VccO #PWR?
U 1 1 5D4A0ABA
P 3400 3700
AR Path="/571914DE/5D4A0ABA" Ref="#PWR?"  Part="1" 
AR Path="/572B8C2E/5D4A0ABA" Ref="#PWR0316"  Part="1" 
F 0 "#PWR0316" H 3400 3550 50  0001 C CNN
F 1 "VccO" H 3400 3850 50  0000 C CNN
F 2 "" H 3400 3700 50  0000 C CNN
F 3 "" H 3400 3700 50  0000 C CNN
	1    3400 3700
	1    0    0    -1  
$EndComp
$Comp
L MDJ_compo:VccO #PWR?
U 1 1 5D4A0B27
P 2400 4450
AR Path="/571914DE/5D4A0B27" Ref="#PWR?"  Part="1" 
AR Path="/572B8C2E/5D4A0B27" Ref="#PWR0318"  Part="1" 
F 0 "#PWR0318" H 2400 4300 50  0001 C CNN
F 1 "VccO" H 2400 4600 50  0000 C CNN
F 2 "" H 2400 4450 50  0000 C CNN
F 3 "" H 2400 4450 50  0000 C CNN
	1    2400 4450
	1    0    0    -1  
$EndComp
$Comp
L MDJ_compo:VccO #PWR?
U 1 1 5D4A0BD9
P 2700 3900
AR Path="/571914DE/5D4A0BD9" Ref="#PWR?"  Part="1" 
AR Path="/572B8C2E/5D4A0BD9" Ref="#PWR0317"  Part="1" 
F 0 "#PWR0317" H 2700 3750 50  0001 C CNN
F 1 "VccO" H 2700 4050 50  0000 C CNN
F 2 "" H 2700 3900 50  0000 C CNN
F 3 "" H 2700 3900 50  0000 C CNN
	1    2700 3900
	1    0    0    -1  
$EndComp
$Comp
L MDJ_compo:VccO #PWR?
U 1 1 5D4A0DBF
P 5250 3025
AR Path="/571914DE/5D4A0DBF" Ref="#PWR?"  Part="1" 
AR Path="/572B8C2E/5D4A0DBF" Ref="#PWR0312"  Part="1" 
F 0 "#PWR0312" H 5250 2875 50  0001 C CNN
F 1 "VccO" H 5250 3175 50  0000 C CNN
F 2 "" H 5250 3025 50  0000 C CNN
F 3 "" H 5250 3025 50  0000 C CNN
	1    5250 3025
	1    0    0    -1  
$EndComp
$Comp
L MDJ_compo:VccO #PWR?
U 1 1 5D4A0DE6
P 6150 3000
AR Path="/571914DE/5D4A0DE6" Ref="#PWR?"  Part="1" 
AR Path="/572B8C2E/5D4A0DE6" Ref="#PWR0309"  Part="1" 
F 0 "#PWR0309" H 6150 2850 50  0001 C CNN
F 1 "VccO" H 6150 3150 50  0000 C CNN
F 2 "" H 6150 3000 50  0000 C CNN
F 3 "" H 6150 3000 50  0000 C CNN
	1    6150 3000
	1    0    0    -1  
$EndComp
$Comp
L MDJ_compo:VccO #PWR?
U 1 1 5D4A0E0D
P 6400 3000
AR Path="/571914DE/5D4A0E0D" Ref="#PWR?"  Part="1" 
AR Path="/572B8C2E/5D4A0E0D" Ref="#PWR0310"  Part="1" 
F 0 "#PWR0310" H 6400 2850 50  0001 C CNN
F 1 "VccO" H 6400 3150 50  0000 C CNN
F 2 "" H 6400 3000 50  0000 C CNN
F 3 "" H 6400 3000 50  0000 C CNN
	1    6400 3000
	1    0    0    -1  
$EndComp
$Comp
L MDJ_compo:VccO #PWR?
U 1 1 5D4A0E34
P 6650 3000
AR Path="/571914DE/5D4A0E34" Ref="#PWR?"  Part="1" 
AR Path="/572B8C2E/5D4A0E34" Ref="#PWR0311"  Part="1" 
F 0 "#PWR0311" H 6650 2850 50  0001 C CNN
F 1 "VccO" H 6650 3150 50  0000 C CNN
F 2 "" H 6650 3000 50  0000 C CNN
F 3 "" H 6650 3000 50  0000 C CNN
	1    6650 3000
	1    0    0    -1  
$EndComp
Text Label 7350 2450 1    50   ~ 0
VccROM
Text Label 2925 4750 0    39   ~ 0
TDI
Text Label 2925 4650 0    39   ~ 0
TCK
Text Label 2925 4700 0    39   ~ 0
TDO
Text Label 2925 4600 0    39   ~ 0
TMS
Wire Wire Line
	2350 4800 2550 4800
Wire Wire Line
	2350 4900 2600 4900
Wire Wire Line
	3400 3700 3400 4300
$Comp
L MDJ_compo:IS25LP128 U303
U 1 1 60C2985E
P 7350 4150
F 0 "U303" H 7450 4675 60  0000 C CNN
F 1 "IS25LP128" H 7600 4575 50  0000 C CNN
F 2 "Package_SO:SOIC-8_5.275x5.275mm_P1.27mm" H 7350 4150 120 0001 C CNN
F 3 "" H 7350 4150 120 0000 C CNN
	1    7350 4150
	1    0    0    -1  
$EndComp
$Comp
L MDJ_compo:XCKU035FBVA676 U?
U 1 1 60C33712
P 3600 4000
AR Path="/60C33712" Ref="U?"  Part="1" 
AR Path="/572B8C2E/60C33712" Ref="U302"  Part="1" 
F 0 "U302" H 4250 2934 40  0000 C CNN
F 1 "XCKU035FBVA676" H 4250 2858 40  0000 C CNN
F 2 "Package_BGA:BGA-676_27.0x27.0mm_Layout26x26_P1.0mm_Ball0.6mm_Pad0.5mm_NSMD" H 3650 4025 40  0001 R CNN
F 3 "" H 3650 3850 40  0001 R CNN
	1    3600 4000
	1    0    0    -1  
$EndComp
Wire Wire Line
	2700 4450 2700 4550
Wire Wire Line
	2700 4550 3600 4550
Wire Wire Line
	3600 4350 3400 4350
Wire Wire Line
	3600 4400 3400 4400
Wire Wire Line
	3400 4400 3400 4450
Wire Wire Line
	3600 4450 3400 4450
Connection ~ 3400 4450
Wire Wire Line
	3400 4450 3400 4825
Wire Wire Line
	4900 4500 5000 4500
Wire Wire Line
	5000 4500 5000 4200
Wire Wire Line
	5000 4200 6650 4200
Wire Wire Line
	4900 4400 5150 4400
Wire Wire Line
	5150 4400 5150 4300
Wire Wire Line
	4900 4200 4900 4000
Wire Wire Line
	4900 4000 6800 4000
Wire Wire Line
	4900 4250 4950 4250
Wire Wire Line
	4950 4250 4950 4100
Wire Wire Line
	4950 4100 6800 4100
Wire Wire Line
	4900 4300 5100 4300
Wire Wire Line
	5100 4300 5100 4525
Wire Wire Line
	5100 4525 6150 4525
Wire Wire Line
	4900 4350 5050 4350
Wire Wire Line
	5050 4350 5050 4575
Wire Wire Line
	5050 4575 6400 4575
Wire Wire Line
	8050 4575 8050 3900
Wire Wire Line
	8050 3900 8000 3900
Wire Wire Line
	4900 4450 5925 4450
Wire Wire Line
	6400 3400 6400 4575
Connection ~ 6400 4575
Wire Wire Line
	6400 4575 8050 4575
$Comp
L Device:R R303
U 1 1 60D940E1
P 5925 3250
F 0 "R303" V 6005 3250 50  0000 C CNN
F 1 "4.7k" V 5925 3250 50  0000 C CNN
F 2 "Resistor_SMD:R_0402_1005Metric" H 5925 3250 50  0001 C CNN
F 3 "" H 5925 3250 50  0000 C CNN
	1    5925 3250
	1    0    0    -1  
$EndComp
$Comp
L Device:R R308
U 1 1 60D94530
P 2900 4300
F 0 "R308" V 2980 4300 50  0000 C CNN
F 1 "4.7k" V 2900 4300 50  0000 C CNN
F 2 "Resistor_SMD:R_0402_1005Metric" H 2900 4300 50  0001 C CNN
F 3 "" H 2900 4300 50  0000 C CNN
	1    2900 4300
	1    0    0    -1  
$EndComp
Wire Wire Line
	2900 4450 2900 4500
Wire Wire Line
	2900 4500 3600 4500
Wire Wire Line
	2900 4150 2900 4125
Wire Wire Line
	2900 4125 2700 4125
Connection ~ 2700 4125
Wire Wire Line
	2700 4125 2700 4150
Wire Wire Line
	5925 3000 5925 3100
$Comp
L MDJ_compo:VccO #PWR?
U 1 1 60DA0742
P 5925 3000
AR Path="/571914DE/60DA0742" Ref="#PWR?"  Part="1" 
AR Path="/572B8C2E/60DA0742" Ref="#PWR0308"  Part="1" 
F 0 "#PWR0308" H 5925 2850 50  0001 C CNN
F 1 "VccO" H 5925 3150 50  0000 C CNN
F 2 "" H 5925 3000 50  0000 C CNN
F 3 "" H 5925 3000 50  0000 C CNN
	1    5925 3000
	1    0    0    -1  
$EndComp
Wire Wire Line
	5925 3400 5925 4450
Wire Wire Line
	6150 3400 6150 4525
Connection ~ 6150 4525
Wire Wire Line
	6150 4525 8000 4525
$Comp
L power:GNDD #PWR0320
U 1 1 60DAEAA3
P 5000 4700
F 0 "#PWR0320" H 5000 4450 50  0001 C CNN
F 1 "GNDD" H 5000 4550 50  0000 C CNN
F 2 "" H 5000 4700 50  0000 C CNN
F 3 "" H 5000 4700 50  0000 C CNN
	1    5000 4700
	1    0    0    -1  
$EndComp
Wire Wire Line
	5000 4600 5000 4700
Wire Wire Line
	4900 4600 5000 4600
Wire Wire Line
	4350 3600 4300 3600
Connection ~ 4350 3600
Wire Wire Line
	4350 3600 4400 3600
Wire Wire Line
	4400 3600 4400 3550
$Comp
L MDJ_compo:VccO #PWR?
U 1 1 5D4A0CEC
P 4400 3550
AR Path="/571914DE/5D4A0CEC" Ref="#PWR?"  Part="1" 
AR Path="/572B8C2E/5D4A0CEC" Ref="#PWR0315"  Part="1" 
F 0 "#PWR0315" H 4400 3400 50  0001 C CNN
F 1 "VccO" H 4550 3625 50  0000 C CNN
F 2 "" H 4400 3550 50  0000 C CNN
F 3 "" H 4400 3550 50  0000 C CNN
	1    4400 3550
	1    0    0    -1  
$EndComp
Connection ~ 3900 3325
Wire Wire Line
	3700 3325 3900 3325
$Comp
L power:PWR_FLAG #FLG0302
U 1 1 63C97375
P 3700 3325
F 0 "#FLG0302" H 3700 3400 50  0001 C CNN
F 1 "PWR_FLAG" H 3700 3498 50  0000 C CNN
F 2 "" H 3700 3325 50  0001 C CNN
F 3 "~" H 3700 3325 50  0001 C CNN
	1    3700 3325
	1    0    0    -1  
$EndComp
Connection ~ 4400 3025
$Comp
L power:PWR_FLAG #FLG0301
U 1 1 63C9496D
P 4400 3025
F 0 "#FLG0301" H 4400 3100 50  0001 C CNN
F 1 "PWR_FLAG" H 4400 3198 50  0000 C CNN
F 2 "" H 4400 3025 50  0001 C CNN
F 3 "~" H 4400 3025 50  0001 C CNN
	1    4400 3025
	1    0    0    -1  
$EndComp
Connection ~ 3900 3025
Wire Wire Line
	3900 3325 4150 3325
Wire Wire Line
	3900 3025 3900 3325
Connection ~ 3900 2850
Wire Wire Line
	3900 2850 3900 3025
Wire Wire Line
	3900 2800 3900 2850
Connection ~ 4200 3025
Wire Wire Line
	4200 3025 4200 3400
Wire Wire Line
	4200 3025 4400 3025
Connection ~ 4400 3325
$Comp
L Device:Ferrite_Bead FB302
U 1 1 5E540BBB
P 4400 3175
F 0 "FB302" H 4537 3221 50  0000 L CNN
F 1 "FB_120 Ohm" H 4450 3325 50  0000 L CNN
F 2 "Inductor_SMD:L_0603_1608Metric" V 4330 3175 50  0001 C CNN
F 3 "~" H 4400 3175 50  0001 C CNN
	1    4400 3175
	1    0    0    -1  
$EndComp
Wire Wire Line
	4250 3325 4400 3325
$Comp
L power:GNDD #PWR0313
U 1 1 5E53C1C0
P 4400 3325
F 0 "#PWR0313" H 4400 3075 50  0001 C CNN
F 1 "GNDD" H 4575 3275 39  0000 C CNN
F 2 "" H 4400 3325 50  0000 C CNN
F 3 "" H 4400 3325 50  0000 C CNN
	1    4400 3325
	1    0    0    -1  
$EndComp
$Comp
L Device:C C304
U 1 1 5E524D79
P 4050 3025
F 0 "C304" V 4175 3025 50  0000 C CNN
F 1 "470n" V 3900 3025 50  0000 C CNN
F 2 "Capacitor_SMD:C_0402_1005Metric" H 4050 3025 50  0001 C CNN
F 3 "" H 4050 3025 50  0000 C CNN
	1    4050 3025
	0    -1   -1   0   
$EndComp
$Comp
L Device:Ferrite_Bead FB301
U 1 1 5E521EC4
P 3900 2650
F 0 "FB301" H 4037 2696 50  0000 L CNN
F 1 "FB_120 Ohm" H 3950 2775 50  0000 L CNN
F 2 "Inductor_SMD:L_0603_1608Metric" V 3830 2650 50  0001 C CNN
F 3 "~" H 3900 2650 50  0001 C CNN
	1    3900 2650
	1    0    0    -1  
$EndComp
$Comp
L Device:C C303
U 1 1 5CBBE38A
P 3750 2850
F 0 "C303" V 3850 3000 50  0000 C CNN
F 1 "dnp" V 3925 3025 50  0000 C CNN
F 2 "Capacitor_SMD:C_0402_1005Metric" H 3750 2850 50  0001 C CNN
F 3 "" H 3750 2850 50  0000 C CNN
	1    3750 2850
	0    -1   -1   0   
$EndComp
Connection ~ 4200 3400
Wire Wire Line
	3575 3400 4200 3400
$Comp
L power:GNDD #PWR0307
U 1 1 5CFDB855
P 3600 2850
F 0 "#PWR0307" H 3600 2600 50  0001 C CNN
F 1 "GNDD" H 3600 2700 50  0000 C CNN
F 2 "" H 3600 2850 50  0000 C CNN
F 3 "" H 3600 2850 50  0000 C CNN
	1    3600 2850
	1    0    0    -1  
$EndComp
$Comp
L MDJ_compo:VccAux #PWR0306
U 1 1 5CFD97D1
P 3900 2500
F 0 "#PWR0306" H 3900 2350 50  0001 C CNN
F 1 "VccAux" H 3917 2673 50  0000 C CNN
F 2 "" H 3900 2500 50  0000 C CNN
F 3 "" H 3900 2500 50  0000 C CNN
	1    3900 2500
	1    0    0    -1  
$EndComp
Wire Wire Line
	4250 3325 4250 3600
Wire Wire Line
	4200 3400 4200 3600
Wire Wire Line
	4150 3325 4150 3600
Wire Wire Line
	4900 4550 5000 4550
Wire Wire Line
	5000 4550 5000 4600
Connection ~ 5000 4600
Wire Wire Line
	7350 1650 7350 3650
Wire Wire Line
	3400 4300 3600 4300
Wire Wire Line
	3400 4350 3400 4300
Connection ~ 3400 4300
Wire Wire Line
	3575 4100 3600 4100
Wire Wire Line
	3575 3400 3575 4000
Wire Wire Line
	3575 4100 3575 4150
Wire Wire Line
	3575 4150 3600 4150
Connection ~ 3575 4100
Wire Wire Line
	3575 4150 3575 4200
Wire Wire Line
	3575 4200 3600 4200
Connection ~ 3575 4150
Wire Wire Line
	3575 4200 3575 4250
Wire Wire Line
	3575 4250 3600 4250
Connection ~ 3575 4200
Wire Wire Line
	3600 4050 3575 4050
Connection ~ 3575 4050
Wire Wire Line
	3575 4050 3575 4100
Wire Wire Line
	3600 4000 3575 4000
Connection ~ 3575 4000
Wire Wire Line
	3575 4000 3575 4050
Wire Wire Line
	8000 4525 8000 4400
Wire Wire Line
	2500 4700 2500 4650
Wire Wire Line
	2500 4650 3600 4650
Wire Wire Line
	2550 4800 2550 4700
Wire Wire Line
	2550 4700 3600 4700
Wire Wire Line
	2600 4900 2600 4750
Wire Wire Line
	2600 4750 3600 4750
$Comp
L MDJ_compo:Vinit #PWR0301
U 1 1 610E9C4D
P 5350 1750
F 0 "#PWR0301" H 5350 1600 50  0001 C CNN
F 1 "Vinit" H 5365 1923 50  0000 C CNN
F 2 "" H 5350 1750 50  0000 C CNN
F 3 "" H 5350 1750 50  0000 C CNN
	1    5350 1750
	1    0    0    -1  
$EndComp
Text Label 5525 4000 0    50   ~ 0
ROM_IO0
Text Label 5525 4100 0    50   ~ 0
ROM_IO1
Text Label 5525 4300 0    50   ~ 0
ROM_Clk
Text Label 5525 4525 0    50   ~ 0
ROM_IO2
Text Label 5525 4575 0    50   ~ 0
ROM_IO3
Text Label 5525 4200 0    50   ~ 0
ROM_CEb
Text Label 5525 4450 0    50   ~ 0
ROM_DONE
$EndSCHEMATC
