EESchema Schematic File Version 4
EELAYER 30 0
EELAYER END
$Descr A4 11693 8268
encoding utf-8
Sheet 11 22
Title ""
Date ""
Rev ""
Comp ""
Comment1 ""
Comment2 ""
Comment3 ""
Comment4 ""
$EndDescr
Wire Wire Line
	2325 1350 2700 1350
NoConn ~ 2700 1350
Wire Wire Line
	2325 1400 2700 1400
NoConn ~ 2700 1400
Wire Wire Line
	2325 1475 2700 1475
NoConn ~ 2700 1475
Wire Wire Line
	2325 1525 2700 1525
NoConn ~ 2700 1525
Wire Wire Line
	2325 1600 2700 1600
Wire Wire Line
	2325 1225 2750 1225
Wire Wire Line
	2325 1275 2750 1275
Text Label 2750 1225 2    39   ~ 0
Dout_SB_P1
Text Label 2750 1275 2    39   ~ 0
Dout_SB_N1
Wire Wire Line
	1400 1225 975  1225
Wire Wire Line
	1400 1275 975  1275
Text HLabel 1800 4675 0    39   Input ~ 0
Clk_for_SB_P
Text HLabel 1800 4800 0    39   Input ~ 0
Clk_for_SB_N
Text HLabel 3550 4700 2    39   Output ~ 0
Dout_SB_P[1..7]
Text HLabel 3550 4775 2    39   Output ~ 0
Dout_SB_N[1..7]
NoConn ~ 2700 1650
Wire Wire Line
	2325 1650 2700 1650
NoConn ~ 2700 1600
Wire Wire Line
	2325 1750 2700 1750
NoConn ~ 2700 1825
Wire Wire Line
	2325 1825 2700 1825
$Comp
L power:GNDD #PWR?
U 1 1 5EAD7AAB
P 2450 2250
AR Path="/59140D2B/5EAD7AAB" Ref="#PWR?"  Part="1" 
AR Path="/5B5208C5/5EAD7AAB" Ref="#PWR?"  Part="1" 
AR Path="/5E0256B5/5EAD7AAB" Ref="#PWR?"  Part="1" 
AR Path="/5E108C88/5EAD7AAB" Ref="#PWR?"  Part="1" 
AR Path="/5E130590/5EAD7AAB" Ref="#PWR?"  Part="1" 
AR Path="/5E1C420C/5EAD7AAB" Ref="#PWR?"  Part="1" 
AR Path="/5E8EF778/5EAD7AAB" Ref="#PWR?"  Part="1" 
AR Path="/5FD3BDB9/5EAD7AAB" Ref="#PWR?"  Part="1" 
AR Path="/5EA90FAE/5EA9102F/5EAD7AAB" Ref="#PWR?"  Part="1" 
AR Path="/5EA90FAE/5EAD7AAB" Ref="#PWR01202"  Part="1" 
F 0 "#PWR01202" H 2450 2000 50  0001 C CNN
F 1 "GNDD" H 2450 2125 39  0000 C CNN
F 2 "" H 2450 2250 50  0001 C CNN
F 3 "" H 2450 2250 50  0001 C CNN
	1    2450 2250
	1    0    0    -1  
$EndComp
Wire Wire Line
	2525 2050 2750 2050
$Comp
L power:GNDD #PWR?
U 1 1 5ECBC3A0
P 1250 2250
AR Path="/59140D2B/5ECBC3A0" Ref="#PWR?"  Part="1" 
AR Path="/5B5208C5/5ECBC3A0" Ref="#PWR?"  Part="1" 
AR Path="/5E0256B5/5ECBC3A0" Ref="#PWR?"  Part="1" 
AR Path="/5E108C88/5ECBC3A0" Ref="#PWR?"  Part="1" 
AR Path="/5E130590/5ECBC3A0" Ref="#PWR?"  Part="1" 
AR Path="/5E1C420C/5ECBC3A0" Ref="#PWR?"  Part="1" 
AR Path="/5E8EF778/5ECBC3A0" Ref="#PWR?"  Part="1" 
AR Path="/5FD3BDB9/5ECBC3A0" Ref="#PWR?"  Part="1" 
AR Path="/5EA90FAE/5EA9102F/5ECBC3A0" Ref="#PWR?"  Part="1" 
AR Path="/5EA90FAE/5ECBC3A0" Ref="#PWR01201"  Part="1" 
F 0 "#PWR01201" H 1250 2000 50  0001 C CNN
F 1 "GNDD" H 1250 2125 39  0000 C CNN
F 2 "" H 1250 2250 50  0001 C CNN
F 3 "" H 1250 2250 50  0001 C CNN
	1    1250 2250
	1    0    0    -1  
$EndComp
Wire Wire Line
	1250 2200 1400 2200
Text HLabel 4725 5000 0    39   Input ~ 0
PwupRstb
Text HLabel 4725 5175 0    39   Input ~ 0
ReSync+
Text HLabel 4725 5250 0    39   Input ~ 0
ReSync-
Text HLabel 4725 4700 0    39   Input ~ 0
I2C_SCL_CATIA
Text HLabel 4725 4775 0    39   BiDi ~ 0
I2C_SDA_CATIA
Wire Wire Line
	1400 1825 975  1825
Text Label 975  1825 0    39   ~ 0
PwupRstb
Wire Wire Line
	1400 1900 975  1900
Text Label 975  1900 0    39   ~ 0
ReSync+
Wire Wire Line
	1400 1950 975  1950
Text Label 975  1950 0    39   ~ 0
ReSync-
Wire Wire Line
	1400 2025 975  2025
Wire Wire Line
	1400 2075 975  2075
NoConn ~ 4775 1350
NoConn ~ 4775 1400
NoConn ~ 4775 1475
NoConn ~ 4775 1525
NoConn ~ 4775 1650
NoConn ~ 4775 1600
NoConn ~ 4775 1825
Wire Wire Line
	1250 2200 1250 2250
Wire Wire Line
	4600 2050 4800 2050
$Comp
L power:GNDD #PWR?
U 1 1 5ECDCF77
P 4525 2250
AR Path="/59140D2B/5ECDCF77" Ref="#PWR?"  Part="1" 
AR Path="/5B5208C5/5ECDCF77" Ref="#PWR?"  Part="1" 
AR Path="/5E0256B5/5ECDCF77" Ref="#PWR?"  Part="1" 
AR Path="/5E108C88/5ECDCF77" Ref="#PWR?"  Part="1" 
AR Path="/5E130590/5ECDCF77" Ref="#PWR?"  Part="1" 
AR Path="/5E1C420C/5ECDCF77" Ref="#PWR?"  Part="1" 
AR Path="/5E8EF778/5ECDCF77" Ref="#PWR?"  Part="1" 
AR Path="/5FD3BDB9/5ECDCF77" Ref="#PWR?"  Part="1" 
AR Path="/5EA90FAE/5EA9102F/5ECDCF77" Ref="#PWR?"  Part="1" 
AR Path="/5EA90FAE/5ECDCF77" Ref="#PWR01204"  Part="1" 
F 0 "#PWR01204" H 4525 2000 50  0001 C CNN
F 1 "GNDD" H 4525 2125 39  0000 C CNN
F 2 "" H 4525 2250 50  0001 C CNN
F 3 "" H 4525 2250 50  0001 C CNN
	1    4525 2250
	1    0    0    -1  
$EndComp
Wire Wire Line
	4525 2200 4525 2250
Connection ~ 4525 2200
Wire Wire Line
	4400 2200 4525 2200
Wire Wire Line
	4525 2125 4525 2200
Connection ~ 4525 2125
Wire Wire Line
	4400 2125 4525 2125
Wire Wire Line
	4525 2050 4525 2125
Connection ~ 4525 2050
Wire Wire Line
	4400 2050 4525 2050
Wire Wire Line
	4400 1825 4775 1825
Wire Wire Line
	4400 1750 4775 1750
Wire Wire Line
	4400 1650 4775 1650
Wire Wire Line
	4400 1275 4825 1275
Wire Wire Line
	4400 1225 4825 1225
Wire Wire Line
	4400 1600 4775 1600
Wire Wire Line
	4400 1525 4775 1525
Wire Wire Line
	4400 1475 4775 1475
Wire Wire Line
	4400 1400 4775 1400
Wire Wire Line
	4400 1350 4775 1350
Text Label 4825 1275 2    39   ~ 0
Dout_SB_N2
Text Label 4825 1225 2    39   ~ 0
Dout_SB_P2
Wire Wire Line
	6525 1350 6900 1350
NoConn ~ 6900 1350
Wire Wire Line
	6525 1400 6900 1400
NoConn ~ 6900 1400
Wire Wire Line
	6525 1475 6900 1475
NoConn ~ 6900 1475
Wire Wire Line
	6525 1525 6900 1525
NoConn ~ 6900 1525
Wire Wire Line
	6525 1600 6900 1600
Wire Wire Line
	6525 1225 6950 1225
Wire Wire Line
	6525 1275 6950 1275
Text Label 6950 1225 2    39   ~ 0
Dout_SB_P3
Text Label 6950 1275 2    39   ~ 0
Dout_SB_N3
NoConn ~ 6900 1650
Wire Wire Line
	6525 1650 6900 1650
NoConn ~ 6900 1600
Wire Wire Line
	6525 1750 6900 1750
NoConn ~ 6900 1825
Wire Wire Line
	6525 1825 6900 1825
Wire Wire Line
	6525 2050 6650 2050
Wire Wire Line
	6650 2050 6650 2125
Wire Wire Line
	6525 2125 6650 2125
Connection ~ 6650 2125
Wire Wire Line
	6650 2125 6650 2200
Wire Wire Line
	6525 2200 6650 2200
Connection ~ 6650 2200
Wire Wire Line
	6650 2200 6650 2250
$Comp
L power:GNDD #PWR?
U 1 1 5ED526B7
P 6650 2250
AR Path="/59140D2B/5ED526B7" Ref="#PWR?"  Part="1" 
AR Path="/5B5208C5/5ED526B7" Ref="#PWR?"  Part="1" 
AR Path="/5E0256B5/5ED526B7" Ref="#PWR?"  Part="1" 
AR Path="/5E108C88/5ED526B7" Ref="#PWR?"  Part="1" 
AR Path="/5E130590/5ED526B7" Ref="#PWR?"  Part="1" 
AR Path="/5E1C420C/5ED526B7" Ref="#PWR?"  Part="1" 
AR Path="/5E8EF778/5ED526B7" Ref="#PWR?"  Part="1" 
AR Path="/5FD3BDB9/5ED526B7" Ref="#PWR?"  Part="1" 
AR Path="/5EA90FAE/5EA9102F/5ED526B7" Ref="#PWR?"  Part="1" 
AR Path="/5EA90FAE/5ED526B7" Ref="#PWR01206"  Part="1" 
F 0 "#PWR01206" H 6650 2000 50  0001 C CNN
F 1 "GNDD" H 6650 2125 39  0000 C CNN
F 2 "" H 6650 2250 50  0001 C CNN
F 3 "" H 6650 2250 50  0001 C CNN
	1    6650 2250
	1    0    0    -1  
$EndComp
Wire Wire Line
	6725 1900 6725 1975
Wire Wire Line
	6725 2050 6925 2050
Wire Wire Line
	6525 1900 6725 1900
NoConn ~ 8975 1350
NoConn ~ 8975 1400
NoConn ~ 8975 1475
NoConn ~ 8975 1525
NoConn ~ 8975 1650
NoConn ~ 8975 1600
NoConn ~ 8975 1825
$Comp
L power:GNDD #PWR?
U 1 1 5ED52713
P 8725 2250
AR Path="/59140D2B/5ED52713" Ref="#PWR?"  Part="1" 
AR Path="/5B5208C5/5ED52713" Ref="#PWR?"  Part="1" 
AR Path="/5E0256B5/5ED52713" Ref="#PWR?"  Part="1" 
AR Path="/5E108C88/5ED52713" Ref="#PWR?"  Part="1" 
AR Path="/5E130590/5ED52713" Ref="#PWR?"  Part="1" 
AR Path="/5E1C420C/5ED52713" Ref="#PWR?"  Part="1" 
AR Path="/5E8EF778/5ED52713" Ref="#PWR?"  Part="1" 
AR Path="/5FD3BDB9/5ED52713" Ref="#PWR?"  Part="1" 
AR Path="/5EA90FAE/5EA9102F/5ED52713" Ref="#PWR?"  Part="1" 
AR Path="/5EA90FAE/5ED52713" Ref="#PWR01208"  Part="1" 
F 0 "#PWR01208" H 8725 2000 50  0001 C CNN
F 1 "GNDD" H 8725 2125 39  0000 C CNN
F 2 "" H 8725 2250 50  0001 C CNN
F 3 "" H 8725 2250 50  0001 C CNN
	1    8725 2250
	1    0    0    -1  
$EndComp
Wire Wire Line
	8725 2200 8725 2250
Connection ~ 8725 2200
Wire Wire Line
	8600 2200 8725 2200
Wire Wire Line
	8725 2125 8725 2200
Connection ~ 8725 2125
Wire Wire Line
	8600 2125 8725 2125
Wire Wire Line
	8600 1975 8725 1975
Wire Wire Line
	8600 1825 8975 1825
Wire Wire Line
	8600 1750 8975 1750
Wire Wire Line
	8600 1650 8975 1650
Wire Wire Line
	8600 1275 9025 1275
Wire Wire Line
	8600 1225 9025 1225
Wire Wire Line
	8600 1600 8975 1600
Wire Wire Line
	8600 1525 8975 1525
Wire Wire Line
	8600 1475 8975 1475
Wire Wire Line
	8600 1400 8975 1400
Wire Wire Line
	8600 1350 8975 1350
Text Label 9025 1275 2    39   ~ 0
Dout_SB_N4
Text Label 9025 1225 2    39   ~ 0
Dout_SB_P4
NoConn ~ 2700 2975
NoConn ~ 2700 3025
NoConn ~ 2700 3100
NoConn ~ 2700 3150
NoConn ~ 2700 3275
NoConn ~ 2700 3225
NoConn ~ 2700 3450
Wire Wire Line
	2325 3450 2700 3450
Wire Wire Line
	2325 3375 2700 3375
Wire Wire Line
	2325 3275 2700 3275
Wire Wire Line
	2325 2900 2750 2900
Wire Wire Line
	2325 2850 2750 2850
Wire Wire Line
	2325 3225 2700 3225
Wire Wire Line
	2325 3150 2700 3150
Wire Wire Line
	2325 3100 2700 3100
Wire Wire Line
	2325 3025 2700 3025
Wire Wire Line
	2325 2975 2700 2975
Text Label 2750 2900 2    39   ~ 0
Dout_SB_N5
Text Label 2750 2850 2    39   ~ 0
Dout_SB_P5
Wire Wire Line
	4450 2975 4825 2975
NoConn ~ 4825 2975
Wire Wire Line
	4450 3025 4825 3025
NoConn ~ 4825 3025
Wire Wire Line
	4450 3100 4825 3100
NoConn ~ 4825 3100
Wire Wire Line
	4450 3150 4825 3150
NoConn ~ 4825 3150
Wire Wire Line
	4450 3225 4825 3225
Wire Wire Line
	4450 2850 4875 2850
Wire Wire Line
	4450 2900 4875 2900
Text Label 4875 2850 2    39   ~ 0
Dout_SB_P6
Text Label 4875 2900 2    39   ~ 0
Dout_SB_N6
NoConn ~ 4825 3275
Wire Wire Line
	4450 3275 4825 3275
NoConn ~ 4825 3225
Wire Wire Line
	4450 3375 4825 3375
NoConn ~ 4825 3450
Wire Wire Line
	4450 3450 4825 3450
Wire Wire Line
	4450 3750 4575 3750
Connection ~ 4575 3750
Wire Wire Line
	4575 3750 4575 3825
Wire Wire Line
	4450 3825 4575 3825
Connection ~ 4575 3825
Wire Wire Line
	4575 3825 4575 3875
$Comp
L power:GNDD #PWR?
U 1 1 5ED74D51
P 4575 3875
AR Path="/59140D2B/5ED74D51" Ref="#PWR?"  Part="1" 
AR Path="/5B5208C5/5ED74D51" Ref="#PWR?"  Part="1" 
AR Path="/5E0256B5/5ED74D51" Ref="#PWR?"  Part="1" 
AR Path="/5E108C88/5ED74D51" Ref="#PWR?"  Part="1" 
AR Path="/5E130590/5ED74D51" Ref="#PWR?"  Part="1" 
AR Path="/5E1C420C/5ED74D51" Ref="#PWR?"  Part="1" 
AR Path="/5E8EF778/5ED74D51" Ref="#PWR?"  Part="1" 
AR Path="/5FD3BDB9/5ED74D51" Ref="#PWR?"  Part="1" 
AR Path="/5EA90FAE/5EA9102F/5ED74D51" Ref="#PWR?"  Part="1" 
AR Path="/5EA90FAE/5ED74D51" Ref="#PWR01212"  Part="1" 
F 0 "#PWR01212" H 4575 3625 50  0001 C CNN
F 1 "GNDD" H 4575 3750 39  0000 C CNN
F 2 "" H 4575 3875 50  0001 C CNN
F 3 "" H 4575 3875 50  0001 C CNN
	1    4575 3875
	1    0    0    -1  
$EndComp
Wire Wire Line
	4650 3675 4850 3675
NoConn ~ 6900 2975
NoConn ~ 6900 3025
NoConn ~ 6900 3100
NoConn ~ 6900 3150
NoConn ~ 6900 3275
NoConn ~ 6900 3225
NoConn ~ 6900 3450
Wire Wire Line
	6525 3525 6725 3525
Wire Wire Line
	6725 3675 6925 3675
Wire Wire Line
	6725 3525 6725 3600
$Comp
L power:GNDD #PWR?
U 1 1 5ED74DAD
P 6650 3875
AR Path="/59140D2B/5ED74DAD" Ref="#PWR?"  Part="1" 
AR Path="/5B5208C5/5ED74DAD" Ref="#PWR?"  Part="1" 
AR Path="/5E0256B5/5ED74DAD" Ref="#PWR?"  Part="1" 
AR Path="/5E108C88/5ED74DAD" Ref="#PWR?"  Part="1" 
AR Path="/5E130590/5ED74DAD" Ref="#PWR?"  Part="1" 
AR Path="/5E1C420C/5ED74DAD" Ref="#PWR?"  Part="1" 
AR Path="/5E8EF778/5ED74DAD" Ref="#PWR?"  Part="1" 
AR Path="/5FD3BDB9/5ED74DAD" Ref="#PWR?"  Part="1" 
AR Path="/5EA90FAE/5EA9102F/5ED74DAD" Ref="#PWR?"  Part="1" 
AR Path="/5EA90FAE/5ED74DAD" Ref="#PWR01214"  Part="1" 
F 0 "#PWR01214" H 6650 3625 50  0001 C CNN
F 1 "GNDD" H 6650 3750 39  0000 C CNN
F 2 "" H 6650 3875 50  0001 C CNN
F 3 "" H 6650 3875 50  0001 C CNN
	1    6650 3875
	1    0    0    -1  
$EndComp
Wire Wire Line
	6650 3825 6650 3875
Connection ~ 6650 3825
Wire Wire Line
	6525 3825 6650 3825
Wire Wire Line
	6650 3750 6650 3825
Wire Wire Line
	6525 3750 6650 3750
Wire Wire Line
	6525 3450 6900 3450
Wire Wire Line
	6525 3375 6900 3375
Wire Wire Line
	6525 3275 6900 3275
Wire Wire Line
	6525 2900 6950 2900
Wire Wire Line
	6525 2850 6950 2850
Wire Wire Line
	6525 3225 6900 3225
Wire Wire Line
	6525 3150 6900 3150
Wire Wire Line
	6525 3100 6900 3100
Wire Wire Line
	6525 3025 6900 3025
Wire Wire Line
	6525 2975 6900 2975
Text Label 6950 2900 2    39   ~ 0
Dout_SB_N7
Text Label 6950 2850 2    39   ~ 0
Dout_SB_P7
Wire Wire Line
	2525 1900 2525 2050
Wire Wire Line
	2325 1900 2525 1900
Wire Wire Line
	2450 2200 2450 2250
Connection ~ 2450 2200
Wire Wire Line
	2325 2200 2450 2200
Wire Wire Line
	2450 2125 2450 2200
Connection ~ 2450 2125
Wire Wire Line
	2325 2125 2450 2125
Wire Wire Line
	2450 2050 2450 2125
Wire Wire Line
	2450 1975 2450 2050
Connection ~ 2450 2050
Wire Wire Line
	2325 2050 2450 2050
Wire Wire Line
	2325 1975 2450 1975
Wire Wire Line
	4400 1900 4525 1900
Wire Wire Line
	4525 1900 4525 2050
Wire Wire Line
	4400 1975 4600 1975
Wire Wire Line
	4600 1975 4600 2050
Wire Wire Line
	6525 1975 6725 1975
Connection ~ 6725 1975
Wire Wire Line
	6725 1975 6725 2050
Wire Wire Line
	8725 1975 8725 2125
Wire Wire Line
	8600 1900 8725 1900
Wire Wire Line
	8725 1900 8725 1975
Connection ~ 8725 1975
Wire Wire Line
	8600 2050 9000 2050
Wire Wire Line
	4450 3525 4575 3525
Wire Wire Line
	4575 3525 4575 3750
Wire Wire Line
	4450 3675 4650 3675
Connection ~ 4650 3675
Wire Wire Line
	4450 3600 4650 3600
Wire Wire Line
	4650 3600 4650 3675
Connection ~ 6725 3675
Wire Wire Line
	6525 3675 6725 3675
Wire Wire Line
	6525 3600 6725 3600
Connection ~ 6725 3600
Wire Wire Line
	6725 3600 6725 3675
$Comp
L Device:R R?
U 1 1 5EECECAA
P 4925 4550
AR Path="/59140D2B/5EECECAA" Ref="R?"  Part="1" 
AR Path="/5B5208C5/5EECECAA" Ref="R?"  Part="1" 
AR Path="/5E0256B5/5EECECAA" Ref="R?"  Part="1" 
AR Path="/5E108C88/5EECECAA" Ref="R?"  Part="1" 
AR Path="/5E130590/5EECECAA" Ref="R?"  Part="1" 
AR Path="/5E1C420C/5EECECAA" Ref="R?"  Part="1" 
AR Path="/5E8EF778/5EECECAA" Ref="R?"  Part="1" 
AR Path="/5FD3BDB9/5EECECAA" Ref="R?"  Part="1" 
AR Path="/5EA90FAE/5EA9102F/5EECECAA" Ref="R?"  Part="1" 
AR Path="/5EA90FAE/5ECDCF4E/5EECECAA" Ref="R?"  Part="1" 
AR Path="/5EA90FAE/5ECE49CD/5EECECAA" Ref="R?"  Part="1" 
AR Path="/5EA90FAE/5ECE4A28/5EECECAA" Ref="R?"  Part="1" 
AR Path="/5EA90FAE/5ECF0FAD/5EECECAA" Ref="R?"  Part="1" 
AR Path="/5EA90FAE/5ECF0FFD/5EECECAA" Ref="R?"  Part="1" 
AR Path="/5EA90FAE/5ECF1058/5EECECAA" Ref="R?"  Part="1" 
AR Path="/5EA90FAE/5ECF6F57/5EECECAA" Ref="R?"  Part="1" 
AR Path="/5EA90FAE/5ECF6FC3/5EECECAA" Ref="R?"  Part="1" 
AR Path="/5EA90FAE/5ECF701E/5EECECAA" Ref="R?"  Part="1" 
AR Path="/5EA90FAE/5ED5268E/5EECECAA" Ref="R?"  Part="1" 
AR Path="/5EA90FAE/5ED52748/5EECECAA" Ref="R?"  Part="1" 
AR Path="/5EA90FAE/5ED74D0A/5EECECAA" Ref="R?"  Part="1" 
AR Path="/5EA90FAE/5ED74D28/5EECECAA" Ref="R?"  Part="1" 
AR Path="/5EA90FAE/5ED74DE2/5EECECAA" Ref="R?"  Part="1" 
AR Path="/5EA90FAE/5EECECAA" Ref="R1201"  Part="1" 
F 0 "R1201" V 4850 4550 39  0000 C CNN
F 1 "1k" V 4925 4550 39  0000 C CNN
F 2 "Resistor_SMD:R_0402_1005Metric" V 4855 4550 50  0001 C CNN
F 3 "" H 4925 4550 50  0000 C CNN
	1    4925 4550
	1    0    0    -1  
$EndComp
$Comp
L Device:R R?
U 1 1 5EEF0262
P 5075 4550
AR Path="/59140D2B/5EEF0262" Ref="R?"  Part="1" 
AR Path="/5B5208C5/5EEF0262" Ref="R?"  Part="1" 
AR Path="/5E0256B5/5EEF0262" Ref="R?"  Part="1" 
AR Path="/5E108C88/5EEF0262" Ref="R?"  Part="1" 
AR Path="/5E130590/5EEF0262" Ref="R?"  Part="1" 
AR Path="/5E1C420C/5EEF0262" Ref="R?"  Part="1" 
AR Path="/5E8EF778/5EEF0262" Ref="R?"  Part="1" 
AR Path="/5FD3BDB9/5EEF0262" Ref="R?"  Part="1" 
AR Path="/5EA90FAE/5EA9102F/5EEF0262" Ref="R?"  Part="1" 
AR Path="/5EA90FAE/5ECDCF4E/5EEF0262" Ref="R?"  Part="1" 
AR Path="/5EA90FAE/5ECE49CD/5EEF0262" Ref="R?"  Part="1" 
AR Path="/5EA90FAE/5ECE4A28/5EEF0262" Ref="R?"  Part="1" 
AR Path="/5EA90FAE/5ECF0FAD/5EEF0262" Ref="R?"  Part="1" 
AR Path="/5EA90FAE/5ECF0FFD/5EEF0262" Ref="R?"  Part="1" 
AR Path="/5EA90FAE/5ECF1058/5EEF0262" Ref="R?"  Part="1" 
AR Path="/5EA90FAE/5ECF6F57/5EEF0262" Ref="R?"  Part="1" 
AR Path="/5EA90FAE/5ECF6FC3/5EEF0262" Ref="R?"  Part="1" 
AR Path="/5EA90FAE/5ECF701E/5EEF0262" Ref="R?"  Part="1" 
AR Path="/5EA90FAE/5ED5268E/5EEF0262" Ref="R?"  Part="1" 
AR Path="/5EA90FAE/5ED52748/5EEF0262" Ref="R?"  Part="1" 
AR Path="/5EA90FAE/5ED74D0A/5EEF0262" Ref="R?"  Part="1" 
AR Path="/5EA90FAE/5ED74D28/5EEF0262" Ref="R?"  Part="1" 
AR Path="/5EA90FAE/5ED74DE2/5EEF0262" Ref="R?"  Part="1" 
AR Path="/5EA90FAE/5EEF0262" Ref="R1202"  Part="1" 
F 0 "R1202" V 5000 4550 39  0000 C CNN
F 1 "1k" V 5075 4550 39  0000 C CNN
F 2 "Resistor_SMD:R_0402_1005Metric" V 5005 4550 50  0001 C CNN
F 3 "" H 5075 4550 50  0000 C CNN
	1    5075 4550
	1    0    0    -1  
$EndComp
Wire Wire Line
	4725 4700 4925 4700
Wire Wire Line
	4725 4775 5075 4775
Wire Wire Line
	5075 4775 5075 4700
$Comp
L Device:R R?
U 1 1 5EF191C4
P 5225 4550
AR Path="/59140D2B/5EF191C4" Ref="R?"  Part="1" 
AR Path="/5B5208C5/5EF191C4" Ref="R?"  Part="1" 
AR Path="/5E0256B5/5EF191C4" Ref="R?"  Part="1" 
AR Path="/5E108C88/5EF191C4" Ref="R?"  Part="1" 
AR Path="/5E130590/5EF191C4" Ref="R?"  Part="1" 
AR Path="/5E1C420C/5EF191C4" Ref="R?"  Part="1" 
AR Path="/5E8EF778/5EF191C4" Ref="R?"  Part="1" 
AR Path="/5FD3BDB9/5EF191C4" Ref="R?"  Part="1" 
AR Path="/5EA90FAE/5EA9102F/5EF191C4" Ref="R?"  Part="1" 
AR Path="/5EA90FAE/5ECDCF4E/5EF191C4" Ref="R?"  Part="1" 
AR Path="/5EA90FAE/5ECE49CD/5EF191C4" Ref="R?"  Part="1" 
AR Path="/5EA90FAE/5ECE4A28/5EF191C4" Ref="R?"  Part="1" 
AR Path="/5EA90FAE/5ECF0FAD/5EF191C4" Ref="R?"  Part="1" 
AR Path="/5EA90FAE/5ECF0FFD/5EF191C4" Ref="R?"  Part="1" 
AR Path="/5EA90FAE/5ECF1058/5EF191C4" Ref="R?"  Part="1" 
AR Path="/5EA90FAE/5ECF6F57/5EF191C4" Ref="R?"  Part="1" 
AR Path="/5EA90FAE/5ECF6FC3/5EF191C4" Ref="R?"  Part="1" 
AR Path="/5EA90FAE/5ECF701E/5EF191C4" Ref="R?"  Part="1" 
AR Path="/5EA90FAE/5ED5268E/5EF191C4" Ref="R?"  Part="1" 
AR Path="/5EA90FAE/5ED52748/5EF191C4" Ref="R?"  Part="1" 
AR Path="/5EA90FAE/5ED74D0A/5EF191C4" Ref="R?"  Part="1" 
AR Path="/5EA90FAE/5ED74D28/5EF191C4" Ref="R?"  Part="1" 
AR Path="/5EA90FAE/5ED74DE2/5EF191C4" Ref="R?"  Part="1" 
AR Path="/5EA90FAE/5EF191C4" Ref="R1203"  Part="1" 
F 0 "R1203" V 5150 4550 39  0000 C CNN
F 1 "1k" V 5225 4550 39  0000 C CNN
F 2 "Resistor_SMD:R_0402_1005Metric" V 5155 4550 50  0001 C CNN
F 3 "" H 5225 4550 50  0000 C CNN
	1    5225 4550
	1    0    0    -1  
$EndComp
Wire Wire Line
	4725 4850 5225 4850
Wire Wire Line
	5225 4700 5225 4850
$Comp
L Device:R R?
U 1 1 5EF5F233
P 4925 5225
AR Path="/59140D2B/5EF5F233" Ref="R?"  Part="1" 
AR Path="/5B5208C5/5EF5F233" Ref="R?"  Part="1" 
AR Path="/5E0256B5/5EF5F233" Ref="R?"  Part="1" 
AR Path="/5E108C88/5EF5F233" Ref="R?"  Part="1" 
AR Path="/5E130590/5EF5F233" Ref="R?"  Part="1" 
AR Path="/5E1C420C/5EF5F233" Ref="R?"  Part="1" 
AR Path="/5E8EF778/5EF5F233" Ref="R?"  Part="1" 
AR Path="/5FD3BDB9/5EF5F233" Ref="R?"  Part="1" 
AR Path="/5EA90FAE/5EA9102F/5EF5F233" Ref="R?"  Part="1" 
AR Path="/5EA90FAE/5ECDCF4E/5EF5F233" Ref="R?"  Part="1" 
AR Path="/5EA90FAE/5ECE49CD/5EF5F233" Ref="R?"  Part="1" 
AR Path="/5EA90FAE/5ECE4A28/5EF5F233" Ref="R?"  Part="1" 
AR Path="/5EA90FAE/5ECF0FAD/5EF5F233" Ref="R?"  Part="1" 
AR Path="/5EA90FAE/5ECF0FFD/5EF5F233" Ref="R?"  Part="1" 
AR Path="/5EA90FAE/5ECF1058/5EF5F233" Ref="R?"  Part="1" 
AR Path="/5EA90FAE/5ECF6F57/5EF5F233" Ref="R?"  Part="1" 
AR Path="/5EA90FAE/5ECF6FC3/5EF5F233" Ref="R?"  Part="1" 
AR Path="/5EA90FAE/5ECF701E/5EF5F233" Ref="R?"  Part="1" 
AR Path="/5EA90FAE/5ED5268E/5EF5F233" Ref="R?"  Part="1" 
AR Path="/5EA90FAE/5ED52748/5EF5F233" Ref="R?"  Part="1" 
AR Path="/5EA90FAE/5ED74D0A/5EF5F233" Ref="R?"  Part="1" 
AR Path="/5EA90FAE/5ED74D28/5EF5F233" Ref="R?"  Part="1" 
AR Path="/5EA90FAE/5ED74DE2/5EF5F233" Ref="R?"  Part="1" 
AR Path="/5EA90FAE/5EF5F233" Ref="R1206"  Part="1" 
F 0 "R1206" V 4850 5225 39  0000 C CNN
F 1 "100" V 4925 5225 39  0000 C CNN
F 2 "Resistor_SMD:R_0402_1005Metric" V 4855 5225 50  0001 C CNN
F 3 "" H 4925 5225 50  0000 C CNN
	1    4925 5225
	1    0    0    -1  
$EndComp
Wire Wire Line
	4725 5175 4800 5175
Wire Wire Line
	4800 5175 4800 5075
Wire Wire Line
	4800 5075 4925 5075
Wire Wire Line
	4725 5250 4800 5250
Wire Wire Line
	4800 5250 4800 5375
Wire Wire Line
	4800 5375 4925 5375
Text HLabel 4725 4850 0    39   Input ~ 0
I2C_SCL_DTU
Text HLabel 4725 4925 0    39   BiDi ~ 0
I2C_SDA_DTU
$Comp
L Device:R R?
U 1 1 5F0D91FE
P 5375 4550
AR Path="/59140D2B/5F0D91FE" Ref="R?"  Part="1" 
AR Path="/5B5208C5/5F0D91FE" Ref="R?"  Part="1" 
AR Path="/5E0256B5/5F0D91FE" Ref="R?"  Part="1" 
AR Path="/5E108C88/5F0D91FE" Ref="R?"  Part="1" 
AR Path="/5E130590/5F0D91FE" Ref="R?"  Part="1" 
AR Path="/5E1C420C/5F0D91FE" Ref="R?"  Part="1" 
AR Path="/5E8EF778/5F0D91FE" Ref="R?"  Part="1" 
AR Path="/5FD3BDB9/5F0D91FE" Ref="R?"  Part="1" 
AR Path="/5EA90FAE/5EA9102F/5F0D91FE" Ref="R?"  Part="1" 
AR Path="/5EA90FAE/5ECDCF4E/5F0D91FE" Ref="R?"  Part="1" 
AR Path="/5EA90FAE/5ECE49CD/5F0D91FE" Ref="R?"  Part="1" 
AR Path="/5EA90FAE/5ECE4A28/5F0D91FE" Ref="R?"  Part="1" 
AR Path="/5EA90FAE/5ECF0FAD/5F0D91FE" Ref="R?"  Part="1" 
AR Path="/5EA90FAE/5ECF0FFD/5F0D91FE" Ref="R?"  Part="1" 
AR Path="/5EA90FAE/5ECF1058/5F0D91FE" Ref="R?"  Part="1" 
AR Path="/5EA90FAE/5ECF6F57/5F0D91FE" Ref="R?"  Part="1" 
AR Path="/5EA90FAE/5ECF6FC3/5F0D91FE" Ref="R?"  Part="1" 
AR Path="/5EA90FAE/5ECF701E/5F0D91FE" Ref="R?"  Part="1" 
AR Path="/5EA90FAE/5ED5268E/5F0D91FE" Ref="R?"  Part="1" 
AR Path="/5EA90FAE/5ED52748/5F0D91FE" Ref="R?"  Part="1" 
AR Path="/5EA90FAE/5ED74D0A/5F0D91FE" Ref="R?"  Part="1" 
AR Path="/5EA90FAE/5ED74D28/5F0D91FE" Ref="R?"  Part="1" 
AR Path="/5EA90FAE/5ED74DE2/5F0D91FE" Ref="R?"  Part="1" 
AR Path="/5EA90FAE/5F0D91FE" Ref="R1204"  Part="1" 
F 0 "R1204" V 5300 4550 39  0000 C CNN
F 1 "1k" V 5375 4550 39  0000 C CNN
F 2 "Resistor_SMD:R_0402_1005Metric" V 5305 4550 50  0001 C CNN
F 3 "" H 5375 4550 50  0000 C CNN
	1    5375 4550
	1    0    0    -1  
$EndComp
$Comp
L Device:R R?
U 1 1 5F0D9213
P 5525 4550
AR Path="/59140D2B/5F0D9213" Ref="R?"  Part="1" 
AR Path="/5B5208C5/5F0D9213" Ref="R?"  Part="1" 
AR Path="/5E0256B5/5F0D9213" Ref="R?"  Part="1" 
AR Path="/5E108C88/5F0D9213" Ref="R?"  Part="1" 
AR Path="/5E130590/5F0D9213" Ref="R?"  Part="1" 
AR Path="/5E1C420C/5F0D9213" Ref="R?"  Part="1" 
AR Path="/5E8EF778/5F0D9213" Ref="R?"  Part="1" 
AR Path="/5FD3BDB9/5F0D9213" Ref="R?"  Part="1" 
AR Path="/5EA90FAE/5EA9102F/5F0D9213" Ref="R?"  Part="1" 
AR Path="/5EA90FAE/5ECDCF4E/5F0D9213" Ref="R?"  Part="1" 
AR Path="/5EA90FAE/5ECE49CD/5F0D9213" Ref="R?"  Part="1" 
AR Path="/5EA90FAE/5ECE4A28/5F0D9213" Ref="R?"  Part="1" 
AR Path="/5EA90FAE/5ECF0FAD/5F0D9213" Ref="R?"  Part="1" 
AR Path="/5EA90FAE/5ECF0FFD/5F0D9213" Ref="R?"  Part="1" 
AR Path="/5EA90FAE/5ECF1058/5F0D9213" Ref="R?"  Part="1" 
AR Path="/5EA90FAE/5ECF6F57/5F0D9213" Ref="R?"  Part="1" 
AR Path="/5EA90FAE/5ECF6FC3/5F0D9213" Ref="R?"  Part="1" 
AR Path="/5EA90FAE/5ECF701E/5F0D9213" Ref="R?"  Part="1" 
AR Path="/5EA90FAE/5ED5268E/5F0D9213" Ref="R?"  Part="1" 
AR Path="/5EA90FAE/5ED52748/5F0D9213" Ref="R?"  Part="1" 
AR Path="/5EA90FAE/5ED74D0A/5F0D9213" Ref="R?"  Part="1" 
AR Path="/5EA90FAE/5ED74D28/5F0D9213" Ref="R?"  Part="1" 
AR Path="/5EA90FAE/5ED74DE2/5F0D9213" Ref="R?"  Part="1" 
AR Path="/5EA90FAE/5F0D9213" Ref="R1205"  Part="1" 
F 0 "R1205" V 5450 4550 39  0000 C CNN
F 1 "1k" V 5525 4550 39  0000 C CNN
F 2 "Resistor_SMD:R_0402_1005Metric" V 5455 4550 50  0001 C CNN
F 3 "" H 5525 4550 50  0000 C CNN
	1    5525 4550
	1    0    0    -1  
$EndComp
Wire Wire Line
	4725 4925 5375 4925
Wire Wire Line
	5375 4700 5375 4925
Wire Wire Line
	4725 5000 5525 5000
Wire Wire Line
	5525 4700 5525 5000
Wire Wire Line
	1075 5775 1500 5775
Text Label 1075 5775 0    39   ~ 0
I2C_SCL_CATIA
Wire Wire Line
	1075 5875 1500 5875
Text Label 1075 5875 0    39   ~ 0
I2C_SDA_CATIA
Wire Wire Line
	1400 6075 1400 5975
Wire Wire Line
	1400 5975 1500 5975
Wire Wire Line
	1500 6075 1400 6075
Connection ~ 1400 6075
Wire Wire Line
	1400 6175 1500 6175
Wire Wire Line
	1400 6175 1400 6275
Wire Wire Line
	1400 6275 1500 6275
Connection ~ 1400 6175
Wire Wire Line
	1400 6075 1400 6175
Wire Wire Line
	1500 6375 1400 6375
Wire Wire Line
	1400 6375 1400 6475
Wire Wire Line
	1400 6675 1500 6675
Wire Wire Line
	1500 6575 1400 6575
Connection ~ 1400 6575
Wire Wire Line
	1400 6575 1400 6675
Wire Wire Line
	1500 6475 1400 6475
Connection ~ 1400 6475
Wire Wire Line
	1400 6475 1400 6575
Wire Wire Line
	1400 6675 1100 6675
Connection ~ 1400 6675
Wire Wire Line
	1400 6275 1100 6275
Connection ~ 1400 6275
Wire Wire Line
	2000 5775 2100 5775
Wire Wire Line
	2100 5775 2100 5875
Wire Wire Line
	2100 6675 2000 6675
Wire Wire Line
	2000 6575 2100 6575
Connection ~ 2100 6575
Wire Wire Line
	2100 6575 2100 6675
Wire Wire Line
	2000 6475 2100 6475
Connection ~ 2100 6475
Wire Wire Line
	2100 6475 2100 6575
Wire Wire Line
	2000 6375 2100 6375
Connection ~ 2100 6375
Wire Wire Line
	2100 6375 2100 6475
Wire Wire Line
	2000 6275 2100 6275
Connection ~ 2100 6275
Wire Wire Line
	2100 6275 2100 6375
Wire Wire Line
	2000 6175 2100 6175
Connection ~ 2100 6175
Wire Wire Line
	2100 6175 2100 6275
Wire Wire Line
	2000 6075 2100 6075
Connection ~ 2100 6075
Wire Wire Line
	2100 6075 2100 6175
Wire Wire Line
	2000 5975 2100 5975
Connection ~ 2100 5975
Wire Wire Line
	2100 5975 2100 6075
Wire Wire Line
	2000 5875 2100 5875
Connection ~ 2100 5875
Wire Wire Line
	2100 5875 2100 5975
$Comp
L power:GNDA #PWR?
U 1 1 5F34F4ED
P 2100 6875
AR Path="/5F34F4ED" Ref="#PWR?"  Part="1" 
AR Path="/5E8EF778/5F34F4ED" Ref="#PWR?"  Part="1" 
AR Path="/5FD3BDB9/5F34F4ED" Ref="#PWR?"  Part="1" 
AR Path="/5EA90FAE/5EA9102F/5F34F4ED" Ref="#PWR?"  Part="1" 
AR Path="/5EA90FAE/5ECDCF4E/5F34F4ED" Ref="#PWR?"  Part="1" 
AR Path="/5EA90FAE/5ECE49CD/5F34F4ED" Ref="#PWR?"  Part="1" 
AR Path="/5EA90FAE/5ECE4A28/5F34F4ED" Ref="#PWR?"  Part="1" 
AR Path="/5EA90FAE/5ECF0FAD/5F34F4ED" Ref="#PWR?"  Part="1" 
AR Path="/5EA90FAE/5ECF0FFD/5F34F4ED" Ref="#PWR?"  Part="1" 
AR Path="/5EA90FAE/5ECF1058/5F34F4ED" Ref="#PWR?"  Part="1" 
AR Path="/5EA90FAE/5ECF6F57/5F34F4ED" Ref="#PWR?"  Part="1" 
AR Path="/5EA90FAE/5ECF6FC3/5F34F4ED" Ref="#PWR?"  Part="1" 
AR Path="/5EA90FAE/5ECF701E/5F34F4ED" Ref="#PWR?"  Part="1" 
AR Path="/5EA90FAE/5ED5268E/5F34F4ED" Ref="#PWR?"  Part="1" 
AR Path="/5EA90FAE/5ED52748/5F34F4ED" Ref="#PWR?"  Part="1" 
AR Path="/5EA90FAE/5ED74D0A/5F34F4ED" Ref="#PWR?"  Part="1" 
AR Path="/5EA90FAE/5ED74D28/5F34F4ED" Ref="#PWR?"  Part="1" 
AR Path="/5EA90FAE/5ED74DE2/5F34F4ED" Ref="#PWR?"  Part="1" 
AR Path="/5EA90FAE/5F34F4ED" Ref="#PWR01215"  Part="1" 
F 0 "#PWR01215" H 2100 6625 50  0001 C CNN
F 1 "GNDA" H 2100 6725 39  0000 C CNN
F 2 "" H 2100 6875 50  0000 C CNN
F 3 "" H 2100 6875 50  0000 C CNN
	1    2100 6875
	1    0    0    -1  
$EndComp
Text Label 975  2025 0    39   ~ 0
I2C_SCL_DTU
Text Label 975  2075 0    39   ~ 0
I2C_SDA_DTU
Text Label 975  1225 0    39   ~ 0
Clk_pol_P
Text Label 975  1275 0    39   ~ 0
Clk_pol_N
$Sheet
S 9100 5125 675  450 
U 62F2C4AE
F0 "SB_power.sch" 39
F1 "SB_power.sch" 39
F2 "2V5A" O R 9775 5200 39 
F3 "1P2A" O R 9775 5300 39 
F4 "1V2D" O R 9775 5400 39 
F5 "3V3A" O R 9775 5500 39 
$EndSheet
Text Label 1100 6675 0    39   ~ 0
3P3VA
Text Label 1100 6275 0    39   ~ 0
1P2VA
Wire Wire Line
	9775 5200 10150 5200
Text Label 10150 5200 2    39   ~ 0
2P5VA
Wire Wire Line
	9775 5300 10150 5300
Text Label 10150 5300 2    39   ~ 0
1P2VA
Wire Wire Line
	9775 5400 10150 5400
Text Label 10150 5400 2    39   ~ 0
1P2VD
Wire Wire Line
	9775 5500 10150 5500
Text Label 10150 5500 2    39   ~ 0
3P3VA
Text Label 2750 2050 2    39   ~ 0
1P2VD
Text Label 4800 2050 2    39   ~ 0
1P2VD
Text Label 6925 2050 2    39   ~ 0
1P2VD
Text Label 9000 2050 2    39   ~ 0
1P2VD
Text Label 6925 3675 2    39   ~ 0
1P2VD
Text Label 4850 3675 2    39   ~ 0
1P2VD
Wire Wire Line
	1400 1650 975  1650
Text Label 975  1750 0    39   ~ 0
2P5VA
Wire Wire Line
	1400 1700 975  1700
Text Label 975  1650 0    39   ~ 0
1P2VA
Wire Wire Line
	1400 1750 975  1750
Text Label 975  1700 0    39   ~ 0
1P2VD
Wire Wire Line
	4925 4400 5075 4400
Wire Wire Line
	5075 4400 5225 4400
Connection ~ 5075 4400
Wire Wire Line
	5225 4400 5375 4400
Connection ~ 5225 4400
Connection ~ 5375 4400
Wire Wire Line
	5375 4400 5525 4400
Connection ~ 5525 4400
Wire Wire Line
	5525 4400 5825 4400
Text Label 5825 4400 2    39   ~ 0
1P2VD
Wire Wire Line
	1075 6775 1500 6775
Text Label 1075 6775 0    39   ~ 0
PwupRstb
Wire Wire Line
	1075 6875 1500 6875
Text Label 1075 6875 0    39   ~ 0
TP_trigger
$Comp
L Connector_Generic:Conn_02x12_Odd_Even J1201
U 1 1 5ED7568F
P 1700 6275
F 0 "J1201" H 1750 6992 50  0000 C CNN
F 1 "Conn_02x12_Odd_Even" H 1750 6901 50  0000 C CNN
F 2 "Connector_PinHeader_2.54mm:PinHeader_2x12_P2.54mm_Horizontal" H 1700 6275 50  0001 C CNN
F 3 "~" H 1700 6275 50  0001 C CNN
	1    1700 6275
	1    0    0    -1  
$EndComp
Wire Wire Line
	2100 6675 2100 6775
Wire Wire Line
	2100 6875 2000 6875
Connection ~ 2100 6675
Connection ~ 2100 6875
Wire Wire Line
	2000 6775 2100 6775
Connection ~ 2100 6775
Wire Wire Line
	2100 6775 2100 6875
Text HLabel 1675 5150 0    39   Input ~ 0
TP_trigger
Text Label 2700 1750 2    39   ~ 0
PllLock1
Text Label 4775 1750 2    39   ~ 0
PllLock2
Text Label 6900 1750 2    39   ~ 0
PllLock3
Text Label 8975 1750 2    39   ~ 0
PllLock4
Text Label 2700 3375 2    39   ~ 0
PllLock5
Text Label 4825 3375 2    39   ~ 0
PllLock6
Text Label 6900 3375 2    39   ~ 0
PllLock7
Text HLabel 3550 4850 2    39   Output ~ 0
PllLock[1..7]
$Sheet
S 1400 1175 925  1075
U 5EA9102F
F0 "Spy_box_1" 50
F1 "ADC_160.sch" 50
F2 "Clk+" I L 1400 1225 39 
F3 "Clk-" I L 1400 1275 39 
F4 "Dout0-" O R 2325 1225 39 
F5 "Dout0+" O R 2325 1275 39 
F6 "I2C_SCL" I L 1400 2025 39 
F7 "I2C_SDA" I L 1400 2075 39 
F8 "ReSync+" I L 1400 1900 39 
F9 "ReSync-" I L 1400 1950 39 
F10 "CalBusy" O R 2325 1825 39 
F11 "PllLock" O R 2325 1750 39 
F12 "TestMode" I L 1400 2200 39 
F13 "PwpRstb" I L 1400 1825 39 
F14 "Dout1-" O R 2325 1350 39 
F15 "Dout1+" O R 2325 1400 39 
F16 "Dout2-" O R 2325 1475 39 
F17 "Dout2+" O R 2325 1525 39 
F18 "Dout3-" O R 2325 1600 39 
F19 "Dout3+" O R 2325 1650 39 
F20 "Add_3" I R 2325 1975 39 
F21 "Add_2" I R 2325 1900 39 
F22 "Add_4" I R 2325 2050 39 
F23 "Add_5" I R 2325 2125 39 
F24 "Add_6" I R 2325 2200 39 
F25 "1P2VA" I L 1400 1650 39 
F26 "1P2VD" I L 1400 1700 39 
F27 "2P5VA" I L 1400 1750 39 
F28 "PIN_G10_P" I L 1400 1350 39 
F29 "PIN_G10_N" I L 1400 1400 39 
F30 "PIN_G1_P" I L 1400 1475 39 
F31 "PIN_G1_N" I L 1400 1525 39 
$EndSheet
Wire Wire Line
	1400 1350 975  1350
Text Label 975  1350 0    39   ~ 0
PIN_G10_P1
Wire Wire Line
	1400 1400 975  1400
Text Label 975  1400 0    39   ~ 0
PIN_G10_N1
Wire Wire Line
	1400 1475 975  1475
Text Label 975  1475 0    39   ~ 0
PIN_G1_P1
Wire Wire Line
	1400 1525 975  1525
Text Label 975  1525 0    39   ~ 0
PIN_G1_N1
$Comp
L power:GNDD #PWR?
U 1 1 61F8A5FD
P 3325 2250
AR Path="/59140D2B/61F8A5FD" Ref="#PWR?"  Part="1" 
AR Path="/5B5208C5/61F8A5FD" Ref="#PWR?"  Part="1" 
AR Path="/5E0256B5/61F8A5FD" Ref="#PWR?"  Part="1" 
AR Path="/5E108C88/61F8A5FD" Ref="#PWR?"  Part="1" 
AR Path="/5E130590/61F8A5FD" Ref="#PWR?"  Part="1" 
AR Path="/5E1C420C/61F8A5FD" Ref="#PWR?"  Part="1" 
AR Path="/5E8EF778/61F8A5FD" Ref="#PWR?"  Part="1" 
AR Path="/5FD3BDB9/61F8A5FD" Ref="#PWR?"  Part="1" 
AR Path="/5EA90FAE/5EA9102F/61F8A5FD" Ref="#PWR?"  Part="1" 
AR Path="/5EA90FAE/61F8A5FD" Ref="#PWR01203"  Part="1" 
F 0 "#PWR01203" H 3325 2000 50  0001 C CNN
F 1 "GNDD" H 3325 2125 39  0000 C CNN
F 2 "" H 3325 2250 50  0001 C CNN
F 3 "" H 3325 2250 50  0001 C CNN
	1    3325 2250
	1    0    0    -1  
$EndComp
Wire Wire Line
	3325 2200 3475 2200
Wire Wire Line
	3475 1825 3050 1825
Text Label 3050 1825 0    39   ~ 0
PwupRstb
Wire Wire Line
	3475 1900 3050 1900
Text Label 3050 1900 0    39   ~ 0
ReSync+
Wire Wire Line
	3475 1950 3050 1950
Text Label 3050 1950 0    39   ~ 0
ReSync-
Wire Wire Line
	3475 2025 3050 2025
Wire Wire Line
	3475 2075 3050 2075
Wire Wire Line
	3325 2200 3325 2250
Text Label 3050 2025 0    39   ~ 0
I2C_SCL_DTU
Text Label 3050 2075 0    39   ~ 0
I2C_SDA_DTU
Wire Wire Line
	3475 1650 3050 1650
Text Label 3050 1750 0    39   ~ 0
2P5VA
Wire Wire Line
	3475 1700 3050 1700
Text Label 3050 1650 0    39   ~ 0
1P2VA
Wire Wire Line
	3475 1750 3050 1750
Text Label 3050 1700 0    39   ~ 0
1P2VD
$Sheet
S 3475 1175 925  1075
U 61F8A638
F0 "Spy_box_2" 50
F1 "ADC_160.sch" 50
F2 "Clk+" I L 3475 1225 39 
F3 "Clk-" I L 3475 1275 39 
F4 "Dout0-" O R 4400 1225 39 
F5 "Dout0+" O R 4400 1275 39 
F6 "I2C_SCL" I L 3475 2025 39 
F7 "I2C_SDA" I L 3475 2075 39 
F8 "ReSync+" I L 3475 1900 39 
F9 "ReSync-" I L 3475 1950 39 
F10 "CalBusy" O R 4400 1825 39 
F11 "PllLock" O R 4400 1750 39 
F12 "TestMode" I L 3475 2200 39 
F13 "PwpRstb" I L 3475 1825 39 
F14 "Dout1-" O R 4400 1350 39 
F15 "Dout1+" O R 4400 1400 39 
F16 "Dout2-" O R 4400 1475 39 
F17 "Dout2+" O R 4400 1525 39 
F18 "Dout3-" O R 4400 1600 39 
F19 "Dout3+" O R 4400 1650 39 
F20 "Add_3" I R 4400 1975 39 
F21 "Add_2" I R 4400 1900 39 
F22 "Add_4" I R 4400 2050 39 
F23 "Add_5" I R 4400 2125 39 
F24 "Add_6" I R 4400 2200 39 
F25 "1P2VA" I L 3475 1650 39 
F26 "1P2VD" I L 3475 1700 39 
F27 "2P5VA" I L 3475 1750 39 
F28 "PIN_G10_P" I L 3475 1350 39 
F29 "PIN_G10_N" I L 3475 1400 39 
F30 "PIN_G1_P" I L 3475 1475 39 
F31 "PIN_G1_N" I L 3475 1525 39 
$EndSheet
Wire Wire Line
	3475 1350 3050 1350
Text Label 3050 1350 0    39   ~ 0
PIN_G10_P2
Wire Wire Line
	3475 1400 3050 1400
Text Label 3050 1400 0    39   ~ 0
PIN_G10_N2
Wire Wire Line
	3475 1475 3050 1475
Text Label 3050 1475 0    39   ~ 0
PIN_G1_P2
Wire Wire Line
	3475 1525 3050 1525
Text Label 3050 1525 0    39   ~ 0
PIN_G1_N2
$Comp
L power:GNDD #PWR?
U 1 1 61FD4B54
P 5450 2250
AR Path="/59140D2B/61FD4B54" Ref="#PWR?"  Part="1" 
AR Path="/5B5208C5/61FD4B54" Ref="#PWR?"  Part="1" 
AR Path="/5E0256B5/61FD4B54" Ref="#PWR?"  Part="1" 
AR Path="/5E108C88/61FD4B54" Ref="#PWR?"  Part="1" 
AR Path="/5E130590/61FD4B54" Ref="#PWR?"  Part="1" 
AR Path="/5E1C420C/61FD4B54" Ref="#PWR?"  Part="1" 
AR Path="/5E8EF778/61FD4B54" Ref="#PWR?"  Part="1" 
AR Path="/5FD3BDB9/61FD4B54" Ref="#PWR?"  Part="1" 
AR Path="/5EA90FAE/5EA9102F/61FD4B54" Ref="#PWR?"  Part="1" 
AR Path="/5EA90FAE/61FD4B54" Ref="#PWR01205"  Part="1" 
F 0 "#PWR01205" H 5450 2000 50  0001 C CNN
F 1 "GNDD" H 5450 2125 39  0000 C CNN
F 2 "" H 5450 2250 50  0001 C CNN
F 3 "" H 5450 2250 50  0001 C CNN
	1    5450 2250
	1    0    0    -1  
$EndComp
Wire Wire Line
	5450 2200 5600 2200
Wire Wire Line
	5600 1825 5175 1825
Text Label 5175 1825 0    39   ~ 0
PwupRstb
Wire Wire Line
	5600 1900 5175 1900
Text Label 5175 1900 0    39   ~ 0
ReSync+
Wire Wire Line
	5600 1950 5175 1950
Text Label 5175 1950 0    39   ~ 0
ReSync-
Wire Wire Line
	5600 2025 5175 2025
Wire Wire Line
	5600 2075 5175 2075
Wire Wire Line
	5450 2200 5450 2250
Text Label 5175 2025 0    39   ~ 0
I2C_SCL_DTU
Text Label 5175 2075 0    39   ~ 0
I2C_SDA_DTU
Wire Wire Line
	5600 1650 5175 1650
Text Label 5175 1750 0    39   ~ 0
2P5VA
Wire Wire Line
	5600 1700 5175 1700
Text Label 5175 1650 0    39   ~ 0
1P2VA
Wire Wire Line
	5600 1750 5175 1750
Text Label 5175 1700 0    39   ~ 0
1P2VD
$Sheet
S 5600 1175 925  1075
U 61FD4B8F
F0 "Spy_box_3" 50
F1 "ADC_160.sch" 50
F2 "Clk+" I L 5600 1225 39 
F3 "Clk-" I L 5600 1275 39 
F4 "Dout0-" O R 6525 1225 39 
F5 "Dout0+" O R 6525 1275 39 
F6 "I2C_SCL" I L 5600 2025 39 
F7 "I2C_SDA" I L 5600 2075 39 
F8 "ReSync+" I L 5600 1900 39 
F9 "ReSync-" I L 5600 1950 39 
F10 "CalBusy" O R 6525 1825 39 
F11 "PllLock" O R 6525 1750 39 
F12 "TestMode" I L 5600 2200 39 
F13 "PwpRstb" I L 5600 1825 39 
F14 "Dout1-" O R 6525 1350 39 
F15 "Dout1+" O R 6525 1400 39 
F16 "Dout2-" O R 6525 1475 39 
F17 "Dout2+" O R 6525 1525 39 
F18 "Dout3-" O R 6525 1600 39 
F19 "Dout3+" O R 6525 1650 39 
F20 "Add_3" I R 6525 1975 39 
F21 "Add_2" I R 6525 1900 39 
F22 "Add_4" I R 6525 2050 39 
F23 "Add_5" I R 6525 2125 39 
F24 "Add_6" I R 6525 2200 39 
F25 "1P2VA" I L 5600 1650 39 
F26 "1P2VD" I L 5600 1700 39 
F27 "2P5VA" I L 5600 1750 39 
F28 "PIN_G10_P" I L 5600 1350 39 
F29 "PIN_G10_N" I L 5600 1400 39 
F30 "PIN_G1_P" I L 5600 1475 39 
F31 "PIN_G1_N" I L 5600 1525 39 
$EndSheet
Wire Wire Line
	5600 1350 5175 1350
Text Label 5175 1350 0    39   ~ 0
PIN_G10_P3
Wire Wire Line
	5600 1400 5175 1400
Text Label 5175 1400 0    39   ~ 0
PIN_G10_N3
Wire Wire Line
	5600 1475 5175 1475
Text Label 5175 1475 0    39   ~ 0
PIN_G1_P3
Wire Wire Line
	5600 1525 5175 1525
Text Label 5175 1525 0    39   ~ 0
PIN_G1_N3
$Comp
L power:GNDD #PWR?
U 1 1 6201DDDD
P 7525 2250
AR Path="/59140D2B/6201DDDD" Ref="#PWR?"  Part="1" 
AR Path="/5B5208C5/6201DDDD" Ref="#PWR?"  Part="1" 
AR Path="/5E0256B5/6201DDDD" Ref="#PWR?"  Part="1" 
AR Path="/5E108C88/6201DDDD" Ref="#PWR?"  Part="1" 
AR Path="/5E130590/6201DDDD" Ref="#PWR?"  Part="1" 
AR Path="/5E1C420C/6201DDDD" Ref="#PWR?"  Part="1" 
AR Path="/5E8EF778/6201DDDD" Ref="#PWR?"  Part="1" 
AR Path="/5FD3BDB9/6201DDDD" Ref="#PWR?"  Part="1" 
AR Path="/5EA90FAE/5EA9102F/6201DDDD" Ref="#PWR?"  Part="1" 
AR Path="/5EA90FAE/6201DDDD" Ref="#PWR01207"  Part="1" 
F 0 "#PWR01207" H 7525 2000 50  0001 C CNN
F 1 "GNDD" H 7525 2125 39  0000 C CNN
F 2 "" H 7525 2250 50  0001 C CNN
F 3 "" H 7525 2250 50  0001 C CNN
	1    7525 2250
	1    0    0    -1  
$EndComp
Wire Wire Line
	7525 2200 7675 2200
Wire Wire Line
	7675 1825 7250 1825
Text Label 7250 1825 0    39   ~ 0
PwupRstb
Wire Wire Line
	7675 1900 7250 1900
Text Label 7250 1900 0    39   ~ 0
ReSync+
Wire Wire Line
	7675 1950 7250 1950
Text Label 7250 1950 0    39   ~ 0
ReSync-
Wire Wire Line
	7675 2025 7250 2025
Wire Wire Line
	7675 2075 7250 2075
Wire Wire Line
	7525 2200 7525 2250
Text Label 7250 2025 0    39   ~ 0
I2C_SCL_DTU
Text Label 7250 2075 0    39   ~ 0
I2C_SDA_DTU
Wire Wire Line
	7675 1650 7250 1650
Text Label 7250 1750 0    39   ~ 0
2P5VA
Wire Wire Line
	7675 1700 7250 1700
Text Label 7250 1650 0    39   ~ 0
1P2VA
Wire Wire Line
	7675 1750 7250 1750
Text Label 7250 1700 0    39   ~ 0
1P2VD
$Sheet
S 7675 1175 925  1075
U 6201DE18
F0 "Spy_box_4" 50
F1 "ADC_160.sch" 50
F2 "Clk+" I L 7675 1225 39 
F3 "Clk-" I L 7675 1275 39 
F4 "Dout0-" O R 8600 1225 39 
F5 "Dout0+" O R 8600 1275 39 
F6 "I2C_SCL" I L 7675 2025 39 
F7 "I2C_SDA" I L 7675 2075 39 
F8 "ReSync+" I L 7675 1900 39 
F9 "ReSync-" I L 7675 1950 39 
F10 "CalBusy" O R 8600 1825 39 
F11 "PllLock" O R 8600 1750 39 
F12 "TestMode" I L 7675 2200 39 
F13 "PwpRstb" I L 7675 1825 39 
F14 "Dout1-" O R 8600 1350 39 
F15 "Dout1+" O R 8600 1400 39 
F16 "Dout2-" O R 8600 1475 39 
F17 "Dout2+" O R 8600 1525 39 
F18 "Dout3-" O R 8600 1600 39 
F19 "Dout3+" O R 8600 1650 39 
F20 "Add_3" I R 8600 1975 39 
F21 "Add_2" I R 8600 1900 39 
F22 "Add_4" I R 8600 2050 39 
F23 "Add_5" I R 8600 2125 39 
F24 "Add_6" I R 8600 2200 39 
F25 "1P2VA" I L 7675 1650 39 
F26 "1P2VD" I L 7675 1700 39 
F27 "2P5VA" I L 7675 1750 39 
F28 "PIN_G10_P" I L 7675 1350 39 
F29 "PIN_G10_N" I L 7675 1400 39 
F30 "PIN_G1_P" I L 7675 1475 39 
F31 "PIN_G1_N" I L 7675 1525 39 
$EndSheet
Wire Wire Line
	7675 1350 7250 1350
Text Label 7250 1350 0    39   ~ 0
PIN_G10_P4
Wire Wire Line
	7675 1400 7250 1400
Text Label 7250 1400 0    39   ~ 0
PIN_G10_N4
Wire Wire Line
	7675 1475 7250 1475
Text Label 7250 1475 0    39   ~ 0
PIN_G1_P4
Wire Wire Line
	7675 1525 7250 1525
Text Label 7250 1525 0    39   ~ 0
PIN_G1_N4
$Comp
L power:GNDD #PWR?
U 1 1 6206AF0F
P 1250 3875
AR Path="/59140D2B/6206AF0F" Ref="#PWR?"  Part="1" 
AR Path="/5B5208C5/6206AF0F" Ref="#PWR?"  Part="1" 
AR Path="/5E0256B5/6206AF0F" Ref="#PWR?"  Part="1" 
AR Path="/5E108C88/6206AF0F" Ref="#PWR?"  Part="1" 
AR Path="/5E130590/6206AF0F" Ref="#PWR?"  Part="1" 
AR Path="/5E1C420C/6206AF0F" Ref="#PWR?"  Part="1" 
AR Path="/5E8EF778/6206AF0F" Ref="#PWR?"  Part="1" 
AR Path="/5FD3BDB9/6206AF0F" Ref="#PWR?"  Part="1" 
AR Path="/5EA90FAE/5EA9102F/6206AF0F" Ref="#PWR?"  Part="1" 
AR Path="/5EA90FAE/6206AF0F" Ref="#PWR01209"  Part="1" 
F 0 "#PWR01209" H 1250 3625 50  0001 C CNN
F 1 "GNDD" H 1250 3750 39  0000 C CNN
F 2 "" H 1250 3875 50  0001 C CNN
F 3 "" H 1250 3875 50  0001 C CNN
	1    1250 3875
	1    0    0    -1  
$EndComp
Wire Wire Line
	1250 3825 1400 3825
Wire Wire Line
	1400 3450 975  3450
Text Label 975  3450 0    39   ~ 0
PwupRstb
Wire Wire Line
	1400 3525 975  3525
Text Label 975  3525 0    39   ~ 0
ReSync+
Wire Wire Line
	1400 3575 975  3575
Text Label 975  3575 0    39   ~ 0
ReSync-
Wire Wire Line
	1400 3650 975  3650
Wire Wire Line
	1400 3700 975  3700
Wire Wire Line
	1250 3825 1250 3875
Text Label 975  3650 0    39   ~ 0
I2C_SCL_DTU
Text Label 975  3700 0    39   ~ 0
I2C_SDA_DTU
Wire Wire Line
	1400 3275 975  3275
Text Label 975  3375 0    39   ~ 0
2P5VA
Wire Wire Line
	1400 3325 975  3325
Text Label 975  3275 0    39   ~ 0
1P2VA
Wire Wire Line
	1400 3375 975  3375
Text Label 975  3325 0    39   ~ 0
1P2VD
$Sheet
S 1400 2800 925  1075
U 6206AF4A
F0 "Spy_box_5" 50
F1 "ADC_160.sch" 50
F2 "Clk+" I L 1400 2850 39 
F3 "Clk-" I L 1400 2900 39 
F4 "Dout0-" O R 2325 2850 39 
F5 "Dout0+" O R 2325 2900 39 
F6 "I2C_SCL" I L 1400 3650 39 
F7 "I2C_SDA" I L 1400 3700 39 
F8 "ReSync+" I L 1400 3525 39 
F9 "ReSync-" I L 1400 3575 39 
F10 "CalBusy" O R 2325 3450 39 
F11 "PllLock" O R 2325 3375 39 
F12 "TestMode" I L 1400 3825 39 
F13 "PwpRstb" I L 1400 3450 39 
F14 "Dout1-" O R 2325 2975 39 
F15 "Dout1+" O R 2325 3025 39 
F16 "Dout2-" O R 2325 3100 39 
F17 "Dout2+" O R 2325 3150 39 
F18 "Dout3-" O R 2325 3225 39 
F19 "Dout3+" O R 2325 3275 39 
F20 "Add_3" I R 2325 3600 39 
F21 "Add_2" I R 2325 3525 39 
F22 "Add_4" I R 2325 3675 39 
F23 "Add_5" I R 2325 3750 39 
F24 "Add_6" I R 2325 3825 39 
F25 "1P2VA" I L 1400 3275 39 
F26 "1P2VD" I L 1400 3325 39 
F27 "2P5VA" I L 1400 3375 39 
F28 "PIN_G10_P" I L 1400 2975 39 
F29 "PIN_G10_N" I L 1400 3025 39 
F30 "PIN_G1_P" I L 1400 3100 39 
F31 "PIN_G1_N" I L 1400 3150 39 
$EndSheet
Wire Wire Line
	1400 2975 975  2975
Text Label 975  2975 0    39   ~ 0
PIN_G10_P5
Wire Wire Line
	1400 3025 975  3025
Text Label 975  3025 0    39   ~ 0
PIN_G10_N5
Wire Wire Line
	1400 3100 975  3100
Text Label 975  3100 0    39   ~ 0
PIN_G1_P5
Wire Wire Line
	1400 3150 975  3150
Text Label 975  3150 0    39   ~ 0
PIN_G1_N5
$Comp
L power:GNDD #PWR?
U 1 1 620BC7E1
P 3375 3875
AR Path="/59140D2B/620BC7E1" Ref="#PWR?"  Part="1" 
AR Path="/5B5208C5/620BC7E1" Ref="#PWR?"  Part="1" 
AR Path="/5E0256B5/620BC7E1" Ref="#PWR?"  Part="1" 
AR Path="/5E108C88/620BC7E1" Ref="#PWR?"  Part="1" 
AR Path="/5E130590/620BC7E1" Ref="#PWR?"  Part="1" 
AR Path="/5E1C420C/620BC7E1" Ref="#PWR?"  Part="1" 
AR Path="/5E8EF778/620BC7E1" Ref="#PWR?"  Part="1" 
AR Path="/5FD3BDB9/620BC7E1" Ref="#PWR?"  Part="1" 
AR Path="/5EA90FAE/5EA9102F/620BC7E1" Ref="#PWR?"  Part="1" 
AR Path="/5EA90FAE/620BC7E1" Ref="#PWR01211"  Part="1" 
F 0 "#PWR01211" H 3375 3625 50  0001 C CNN
F 1 "GNDD" H 3375 3750 39  0000 C CNN
F 2 "" H 3375 3875 50  0001 C CNN
F 3 "" H 3375 3875 50  0001 C CNN
	1    3375 3875
	1    0    0    -1  
$EndComp
Wire Wire Line
	3375 3825 3525 3825
Wire Wire Line
	3525 3450 3100 3450
Text Label 3100 3450 0    39   ~ 0
PwupRstb
Wire Wire Line
	3525 3525 3100 3525
Text Label 3100 3525 0    39   ~ 0
ReSync+
Wire Wire Line
	3525 3575 3100 3575
Text Label 3100 3575 0    39   ~ 0
ReSync-
Wire Wire Line
	3525 3650 3100 3650
Wire Wire Line
	3525 3700 3100 3700
Wire Wire Line
	3375 3825 3375 3875
Text Label 3100 3650 0    39   ~ 0
I2C_SCL_DTU
Text Label 3100 3700 0    39   ~ 0
I2C_SDA_DTU
Wire Wire Line
	3525 3275 3100 3275
Text Label 3100 3375 0    39   ~ 0
2P5VA
Wire Wire Line
	3525 3325 3100 3325
Text Label 3100 3275 0    39   ~ 0
1P2VA
Wire Wire Line
	3525 3375 3100 3375
Text Label 3100 3325 0    39   ~ 0
1P2VD
$Sheet
S 3525 2800 925  1075
U 620BC81C
F0 "Spy_box_6" 50
F1 "ADC_160.sch" 50
F2 "Clk+" I L 3525 2850 39 
F3 "Clk-" I L 3525 2900 39 
F4 "Dout0-" O R 4450 2850 39 
F5 "Dout0+" O R 4450 2900 39 
F6 "I2C_SCL" I L 3525 3650 39 
F7 "I2C_SDA" I L 3525 3700 39 
F8 "ReSync+" I L 3525 3525 39 
F9 "ReSync-" I L 3525 3575 39 
F10 "CalBusy" O R 4450 3450 39 
F11 "PllLock" O R 4450 3375 39 
F12 "TestMode" I L 3525 3825 39 
F13 "PwpRstb" I L 3525 3450 39 
F14 "Dout1-" O R 4450 2975 39 
F15 "Dout1+" O R 4450 3025 39 
F16 "Dout2-" O R 4450 3100 39 
F17 "Dout2+" O R 4450 3150 39 
F18 "Dout3-" O R 4450 3225 39 
F19 "Dout3+" O R 4450 3275 39 
F20 "Add_3" I R 4450 3600 39 
F21 "Add_2" I R 4450 3525 39 
F22 "Add_4" I R 4450 3675 39 
F23 "Add_5" I R 4450 3750 39 
F24 "Add_6" I R 4450 3825 39 
F25 "1P2VA" I L 3525 3275 39 
F26 "1P2VD" I L 3525 3325 39 
F27 "2P5VA" I L 3525 3375 39 
F28 "PIN_G10_P" I L 3525 2975 39 
F29 "PIN_G10_N" I L 3525 3025 39 
F30 "PIN_G1_P" I L 3525 3100 39 
F31 "PIN_G1_N" I L 3525 3150 39 
$EndSheet
Wire Wire Line
	3525 2975 3100 2975
Text Label 3100 2975 0    39   ~ 0
PIN_G10_P6
Wire Wire Line
	3525 3025 3100 3025
Text Label 3100 3025 0    39   ~ 0
PIN_G10_N6
Wire Wire Line
	3525 3100 3100 3100
Text Label 3100 3100 0    39   ~ 0
PIN_G1_P6
Wire Wire Line
	3525 3150 3100 3150
Text Label 3100 3150 0    39   ~ 0
PIN_G1_N6
$Comp
L power:GNDD #PWR?
U 1 1 6210F262
P 5450 3875
AR Path="/59140D2B/6210F262" Ref="#PWR?"  Part="1" 
AR Path="/5B5208C5/6210F262" Ref="#PWR?"  Part="1" 
AR Path="/5E0256B5/6210F262" Ref="#PWR?"  Part="1" 
AR Path="/5E108C88/6210F262" Ref="#PWR?"  Part="1" 
AR Path="/5E130590/6210F262" Ref="#PWR?"  Part="1" 
AR Path="/5E1C420C/6210F262" Ref="#PWR?"  Part="1" 
AR Path="/5E8EF778/6210F262" Ref="#PWR?"  Part="1" 
AR Path="/5FD3BDB9/6210F262" Ref="#PWR?"  Part="1" 
AR Path="/5EA90FAE/5EA9102F/6210F262" Ref="#PWR?"  Part="1" 
AR Path="/5EA90FAE/6210F262" Ref="#PWR01213"  Part="1" 
F 0 "#PWR01213" H 5450 3625 50  0001 C CNN
F 1 "GNDD" H 5450 3750 39  0000 C CNN
F 2 "" H 5450 3875 50  0001 C CNN
F 3 "" H 5450 3875 50  0001 C CNN
	1    5450 3875
	1    0    0    -1  
$EndComp
Wire Wire Line
	5450 3825 5600 3825
Wire Wire Line
	5600 3450 5175 3450
Text Label 5175 3450 0    39   ~ 0
PwupRstb
Wire Wire Line
	5600 3525 5175 3525
Text Label 5175 3525 0    39   ~ 0
ReSync+
Wire Wire Line
	5600 3575 5175 3575
Text Label 5175 3575 0    39   ~ 0
ReSync-
Wire Wire Line
	5600 3650 5175 3650
Wire Wire Line
	5600 3700 5175 3700
Wire Wire Line
	5450 3825 5450 3875
Text Label 5175 3650 0    39   ~ 0
I2C_SCL_DTU
Text Label 5175 3700 0    39   ~ 0
I2C_SDA_DTU
Wire Wire Line
	5600 3275 5175 3275
Text Label 5175 3375 0    39   ~ 0
2P5VA
Wire Wire Line
	5600 3325 5175 3325
Text Label 5175 3275 0    39   ~ 0
1P2VA
Wire Wire Line
	5600 3375 5175 3375
Text Label 5175 3325 0    39   ~ 0
1P2VD
$Sheet
S 5600 2800 925  1075
U 6210F29D
F0 "Spy_box_7" 50
F1 "ADC_160.sch" 50
F2 "Clk+" I L 5600 2850 39 
F3 "Clk-" I L 5600 2900 39 
F4 "Dout0-" O R 6525 2850 39 
F5 "Dout0+" O R 6525 2900 39 
F6 "I2C_SCL" I L 5600 3650 39 
F7 "I2C_SDA" I L 5600 3700 39 
F8 "ReSync+" I L 5600 3525 39 
F9 "ReSync-" I L 5600 3575 39 
F10 "CalBusy" O R 6525 3450 39 
F11 "PllLock" O R 6525 3375 39 
F12 "TestMode" I L 5600 3825 39 
F13 "PwpRstb" I L 5600 3450 39 
F14 "Dout1-" O R 6525 2975 39 
F15 "Dout1+" O R 6525 3025 39 
F16 "Dout2-" O R 6525 3100 39 
F17 "Dout2+" O R 6525 3150 39 
F18 "Dout3-" O R 6525 3225 39 
F19 "Dout3+" O R 6525 3275 39 
F20 "Add_3" I R 6525 3600 39 
F21 "Add_2" I R 6525 3525 39 
F22 "Add_4" I R 6525 3675 39 
F23 "Add_5" I R 6525 3750 39 
F24 "Add_6" I R 6525 3825 39 
F25 "1P2VA" I L 5600 3275 39 
F26 "1P2VD" I L 5600 3325 39 
F27 "2P5VA" I L 5600 3375 39 
F28 "PIN_G10_P" I L 5600 2975 39 
F29 "PIN_G10_N" I L 5600 3025 39 
F30 "PIN_G1_P" I L 5600 3100 39 
F31 "PIN_G1_N" I L 5600 3150 39 
$EndSheet
Wire Wire Line
	5600 2975 5175 2975
Text Label 5175 2975 0    39   ~ 0
PIN_G10_P7
Wire Wire Line
	5600 3025 5175 3025
Text Label 5175 3025 0    39   ~ 0
PIN_G10_N7
Wire Wire Line
	5600 3100 5175 3100
Text Label 5175 3100 0    39   ~ 0
PIN_G1_P7
Wire Wire Line
	5600 3150 5175 3150
Text Label 5175 3150 0    39   ~ 0
PIN_G1_N7
$Comp
L Connector_Generic:Conn_02x14_Odd_Even J1202
U 1 1 62172B25
P 3800 6475
F 0 "J1202" H 3850 7292 50  0000 C CNN
F 1 "Conn_02x14_Odd_Even" H 3850 7201 50  0000 C CNN
F 2 "Connector_PinHeader_2.54mm:PinHeader_2x14_P2.54mm_Horizontal" H 3800 6475 50  0001 C CNN
F 3 "~" H 3800 6475 50  0001 C CNN
	1    3800 6475
	1    0    0    1   
$EndComp
Wire Wire Line
	3600 5775 3175 5775
Text Label 3175 5775 0    39   ~ 0
PIN_G10_P1
Wire Wire Line
	4100 5775 4525 5775
Text Label 4525 5775 2    39   ~ 0
PIN_G10_N1
Wire Wire Line
	3600 5875 3175 5875
Text Label 3175 5875 0    39   ~ 0
PIN_G1_P1
Wire Wire Line
	4100 5875 4525 5875
Text Label 4525 5875 2    39   ~ 0
PIN_G1_N1
Wire Wire Line
	3600 5975 3175 5975
Text Label 3175 5975 0    39   ~ 0
PIN_G10_P2
Wire Wire Line
	3600 6075 3175 6075
Text Label 3175 6075 0    39   ~ 0
PIN_G1_P2
Wire Wire Line
	3600 6175 3175 6175
Text Label 3175 6175 0    39   ~ 0
PIN_G10_P3
Wire Wire Line
	3600 6275 3175 6275
Text Label 3175 6275 0    39   ~ 0
PIN_G1_P3
Wire Wire Line
	3600 6375 3175 6375
Text Label 3175 6375 0    39   ~ 0
PIN_G10_P4
Wire Wire Line
	3600 6475 3175 6475
Text Label 3175 6475 0    39   ~ 0
PIN_G1_P4
Wire Wire Line
	3600 6575 3175 6575
Text Label 3175 6575 0    39   ~ 0
PIN_G10_P5
Wire Wire Line
	3600 6675 3175 6675
Text Label 3175 6675 0    39   ~ 0
PIN_G1_P5
Wire Wire Line
	3600 6775 3175 6775
Text Label 3175 6775 0    39   ~ 0
PIN_G10_P6
Wire Wire Line
	3600 6875 3175 6875
Text Label 3175 6875 0    39   ~ 0
PIN_G1_P6
Wire Wire Line
	3600 6975 3175 6975
Text Label 3175 6975 0    39   ~ 0
PIN_G10_P7
Wire Wire Line
	3600 7075 3175 7075
Text Label 3175 7075 0    39   ~ 0
PIN_G1_P7
Wire Wire Line
	4100 5975 4525 5975
Text Label 4525 5975 2    39   ~ 0
PIN_G10_N2
Wire Wire Line
	4100 6075 4525 6075
Text Label 4525 6075 2    39   ~ 0
PIN_G1_N2
Wire Wire Line
	4100 6175 4525 6175
Text Label 4525 6175 2    39   ~ 0
PIN_G10_N3
Wire Wire Line
	4100 6275 4525 6275
Text Label 4525 6275 2    39   ~ 0
PIN_G1_N3
Wire Wire Line
	4100 6375 4525 6375
Text Label 4525 6375 2    39   ~ 0
PIN_G10_N4
Wire Wire Line
	4100 6475 4525 6475
Text Label 4525 6475 2    39   ~ 0
PIN_G1_N4
Wire Wire Line
	4100 6575 4525 6575
Text Label 4525 6575 2    39   ~ 0
PIN_G10_N5
Wire Wire Line
	4100 6675 4525 6675
Text Label 4525 6675 2    39   ~ 0
PIN_G1_N5
Wire Wire Line
	4100 6775 4525 6775
Text Label 4525 6775 2    39   ~ 0
PIN_G10_N6
Wire Wire Line
	4100 6875 4525 6875
Text Label 4525 6875 2    39   ~ 0
PIN_G1_N6
Wire Wire Line
	4100 6975 4525 6975
Text Label 4525 6975 2    39   ~ 0
PIN_G10_N7
Wire Wire Line
	4100 7075 4525 7075
Text Label 4525 7075 2    39   ~ 0
PIN_G1_N7
Text Label 2725 3675 2    39   ~ 0
1P2VD
Connection ~ 2525 3675
Wire Wire Line
	2325 3675 2525 3675
Wire Wire Line
	2450 3600 2450 3750
Wire Wire Line
	2325 3600 2450 3600
Wire Wire Line
	2325 3750 2450 3750
Connection ~ 2450 3750
Wire Wire Line
	2450 3750 2450 3825
Wire Wire Line
	2325 3825 2450 3825
Connection ~ 2450 3825
Wire Wire Line
	2450 3825 2450 3875
$Comp
L power:GNDD #PWR?
U 1 1 5ED74CD5
P 2450 3875
AR Path="/59140D2B/5ED74CD5" Ref="#PWR?"  Part="1" 
AR Path="/5B5208C5/5ED74CD5" Ref="#PWR?"  Part="1" 
AR Path="/5E0256B5/5ED74CD5" Ref="#PWR?"  Part="1" 
AR Path="/5E108C88/5ED74CD5" Ref="#PWR?"  Part="1" 
AR Path="/5E130590/5ED74CD5" Ref="#PWR?"  Part="1" 
AR Path="/5E1C420C/5ED74CD5" Ref="#PWR?"  Part="1" 
AR Path="/5E8EF778/5ED74CD5" Ref="#PWR?"  Part="1" 
AR Path="/5FD3BDB9/5ED74CD5" Ref="#PWR?"  Part="1" 
AR Path="/5EA90FAE/5EA9102F/5ED74CD5" Ref="#PWR?"  Part="1" 
AR Path="/5EA90FAE/5ED74CD5" Ref="#PWR01210"  Part="1" 
F 0 "#PWR01210" H 2450 3625 50  0001 C CNN
F 1 "GNDD" H 2450 3750 39  0000 C CNN
F 2 "" H 2450 3875 50  0001 C CNN
F 3 "" H 2450 3875 50  0001 C CNN
	1    2450 3875
	1    0    0    -1  
$EndComp
Wire Wire Line
	2525 3525 2525 3675
Wire Wire Line
	2525 3675 2725 3675
Wire Wire Line
	2325 3525 2525 3525
$Comp
L Device:C C?
U 1 1 5F56764E
P 2125 4800
AR Path="/59140D2B/5F56764E" Ref="C?"  Part="1" 
AR Path="/5B5208C5/5F56764E" Ref="C?"  Part="1" 
AR Path="/5E0256B5/5F56764E" Ref="C?"  Part="1" 
AR Path="/5E108C88/5F56764E" Ref="C?"  Part="1" 
AR Path="/5E130590/5F56764E" Ref="C?"  Part="1" 
AR Path="/5E1C420C/5F56764E" Ref="C?"  Part="1" 
AR Path="/5E8EF778/5F56764E" Ref="C?"  Part="1" 
AR Path="/5FD3BDB9/5F56764E" Ref="C?"  Part="1" 
AR Path="/5EA90FAE/5EA9102F/5F56764E" Ref="C?"  Part="1" 
AR Path="/5EA90FAE/5ECDCF4E/5F56764E" Ref="C?"  Part="1" 
AR Path="/5EA90FAE/5ECE49CD/5F56764E" Ref="C?"  Part="1" 
AR Path="/5EA90FAE/5ECE4A28/5F56764E" Ref="C?"  Part="1" 
AR Path="/5EA90FAE/5ECF0FAD/5F56764E" Ref="C?"  Part="1" 
AR Path="/5EA90FAE/5ECF0FFD/5F56764E" Ref="C?"  Part="1" 
AR Path="/5EA90FAE/5ECF1058/5F56764E" Ref="C?"  Part="1" 
AR Path="/5EA90FAE/5ECF6F57/5F56764E" Ref="C?"  Part="1" 
AR Path="/5EA90FAE/5ECF6FC3/5F56764E" Ref="C?"  Part="1" 
AR Path="/5EA90FAE/5ECF701E/5F56764E" Ref="C?"  Part="1" 
AR Path="/5EA90FAE/5ED5268E/5F56764E" Ref="C?"  Part="1" 
AR Path="/5EA90FAE/5ED52748/5F56764E" Ref="C?"  Part="1" 
AR Path="/5EA90FAE/5ED74D0A/5F56764E" Ref="C?"  Part="1" 
AR Path="/5EA90FAE/5ED74D28/5F56764E" Ref="C?"  Part="1" 
AR Path="/5EA90FAE/5ED74DE2/5F56764E" Ref="C?"  Part="1" 
AR Path="/5EA90FAE/5EAF0AB8/5F56764E" Ref="C?"  Part="1" 
AR Path="/5EA90FAE/5EB0AAA5/5F56764E" Ref="C?"  Part="1" 
AR Path="/5EA90FAE/5EB24C83/5F56764E" Ref="C?"  Part="1" 
AR Path="/5EA90FAE/5EB3EF5D/5F56764E" Ref="C?"  Part="1" 
AR Path="/5EA90FAE/5EB5A1DD/5F56764E" Ref="C?"  Part="1" 
AR Path="/5EA90FAE/5EB747FC/5F56764E" Ref="C?"  Part="1" 
AR Path="/5EA90FAE/61F8A638/5F56764E" Ref="C?"  Part="1" 
AR Path="/5EA90FAE/61FD4B8F/5F56764E" Ref="C?"  Part="1" 
AR Path="/5EA90FAE/6201DE18/5F56764E" Ref="C?"  Part="1" 
AR Path="/5EA90FAE/6206AF4A/5F56764E" Ref="C?"  Part="1" 
AR Path="/5EA90FAE/620BC81C/5F56764E" Ref="C?"  Part="1" 
AR Path="/5EA90FAE/6210F29D/5F56764E" Ref="C?"  Part="1" 
AR Path="/5EA90FAE/5F56764E" Ref="C1102"  Part="1" 
F 0 "C1102" V 2075 4850 39  0000 L CNN
F 1 "100n" V 2175 4850 39  0000 L CNN
F 2 "Capacitor_SMD:C_0402_1005Metric" H 2163 4650 50  0001 C CNN
F 3 "" H 2125 4800 50  0000 C CNN
	1    2125 4800
	0    1    1    0   
$EndComp
$Comp
L Device:C C?
U 1 1 5F567654
P 2025 4675
AR Path="/59140D2B/5F567654" Ref="C?"  Part="1" 
AR Path="/5B5208C5/5F567654" Ref="C?"  Part="1" 
AR Path="/5E0256B5/5F567654" Ref="C?"  Part="1" 
AR Path="/5E108C88/5F567654" Ref="C?"  Part="1" 
AR Path="/5E130590/5F567654" Ref="C?"  Part="1" 
AR Path="/5E1C420C/5F567654" Ref="C?"  Part="1" 
AR Path="/5E8EF778/5F567654" Ref="C?"  Part="1" 
AR Path="/5FD3BDB9/5F567654" Ref="C?"  Part="1" 
AR Path="/5EA90FAE/5EA9102F/5F567654" Ref="C?"  Part="1" 
AR Path="/5EA90FAE/5ECDCF4E/5F567654" Ref="C?"  Part="1" 
AR Path="/5EA90FAE/5ECE49CD/5F567654" Ref="C?"  Part="1" 
AR Path="/5EA90FAE/5ECE4A28/5F567654" Ref="C?"  Part="1" 
AR Path="/5EA90FAE/5ECF0FAD/5F567654" Ref="C?"  Part="1" 
AR Path="/5EA90FAE/5ECF0FFD/5F567654" Ref="C?"  Part="1" 
AR Path="/5EA90FAE/5ECF1058/5F567654" Ref="C?"  Part="1" 
AR Path="/5EA90FAE/5ECF6F57/5F567654" Ref="C?"  Part="1" 
AR Path="/5EA90FAE/5ECF6FC3/5F567654" Ref="C?"  Part="1" 
AR Path="/5EA90FAE/5ECF701E/5F567654" Ref="C?"  Part="1" 
AR Path="/5EA90FAE/5ED5268E/5F567654" Ref="C?"  Part="1" 
AR Path="/5EA90FAE/5ED52748/5F567654" Ref="C?"  Part="1" 
AR Path="/5EA90FAE/5ED74D0A/5F567654" Ref="C?"  Part="1" 
AR Path="/5EA90FAE/5ED74D28/5F567654" Ref="C?"  Part="1" 
AR Path="/5EA90FAE/5ED74DE2/5F567654" Ref="C?"  Part="1" 
AR Path="/5EA90FAE/5EAF0AB8/5F567654" Ref="C?"  Part="1" 
AR Path="/5EA90FAE/5EB0AAA5/5F567654" Ref="C?"  Part="1" 
AR Path="/5EA90FAE/5EB24C83/5F567654" Ref="C?"  Part="1" 
AR Path="/5EA90FAE/5EB3EF5D/5F567654" Ref="C?"  Part="1" 
AR Path="/5EA90FAE/5EB5A1DD/5F567654" Ref="C?"  Part="1" 
AR Path="/5EA90FAE/5EB747FC/5F567654" Ref="C?"  Part="1" 
AR Path="/5EA90FAE/61F8A638/5F567654" Ref="C?"  Part="1" 
AR Path="/5EA90FAE/61FD4B8F/5F567654" Ref="C?"  Part="1" 
AR Path="/5EA90FAE/6201DE18/5F567654" Ref="C?"  Part="1" 
AR Path="/5EA90FAE/6206AF4A/5F567654" Ref="C?"  Part="1" 
AR Path="/5EA90FAE/620BC81C/5F567654" Ref="C?"  Part="1" 
AR Path="/5EA90FAE/6210F29D/5F567654" Ref="C?"  Part="1" 
AR Path="/5EA90FAE/5F567654" Ref="C1101"  Part="1" 
F 0 "C1101" V 1975 4725 39  0000 L CNN
F 1 "100n" V 1975 4475 39  0000 L CNN
F 2 "Capacitor_SMD:C_0402_1005Metric" H 2063 4525 50  0001 C CNN
F 3 "" H 2025 4675 50  0000 C CNN
	1    2025 4675
	0    1    1    0   
$EndComp
Wire Wire Line
	1875 4675 1800 4675
Wire Wire Line
	1975 4800 1800 4800
$Comp
L Device:R R?
U 1 1 5F56765C
P 2300 4450
AR Path="/59140D2B/5F56765C" Ref="R?"  Part="1" 
AR Path="/5B5208C5/5F56765C" Ref="R?"  Part="1" 
AR Path="/5E0256B5/5F56765C" Ref="R?"  Part="1" 
AR Path="/5E108C88/5F56765C" Ref="R?"  Part="1" 
AR Path="/5E130590/5F56765C" Ref="R?"  Part="1" 
AR Path="/5E1C420C/5F56765C" Ref="R?"  Part="1" 
AR Path="/5E8EF778/5F56765C" Ref="R?"  Part="1" 
AR Path="/5FD3BDB9/5F56765C" Ref="R?"  Part="1" 
AR Path="/5EA90FAE/5EA9102F/5F56765C" Ref="R?"  Part="1" 
AR Path="/5EA90FAE/5ECDCF4E/5F56765C" Ref="R?"  Part="1" 
AR Path="/5EA90FAE/5ECE49CD/5F56765C" Ref="R?"  Part="1" 
AR Path="/5EA90FAE/5ECE4A28/5F56765C" Ref="R?"  Part="1" 
AR Path="/5EA90FAE/5ECF0FAD/5F56765C" Ref="R?"  Part="1" 
AR Path="/5EA90FAE/5ECF0FFD/5F56765C" Ref="R?"  Part="1" 
AR Path="/5EA90FAE/5ECF1058/5F56765C" Ref="R?"  Part="1" 
AR Path="/5EA90FAE/5ECF6F57/5F56765C" Ref="R?"  Part="1" 
AR Path="/5EA90FAE/5ECF6FC3/5F56765C" Ref="R?"  Part="1" 
AR Path="/5EA90FAE/5ECF701E/5F56765C" Ref="R?"  Part="1" 
AR Path="/5EA90FAE/5ED5268E/5F56765C" Ref="R?"  Part="1" 
AR Path="/5EA90FAE/5ED52748/5F56765C" Ref="R?"  Part="1" 
AR Path="/5EA90FAE/5ED74D0A/5F56765C" Ref="R?"  Part="1" 
AR Path="/5EA90FAE/5ED74D28/5F56765C" Ref="R?"  Part="1" 
AR Path="/5EA90FAE/5ED74DE2/5F56765C" Ref="R?"  Part="1" 
AR Path="/5EA90FAE/5EAF0AB8/5F56765C" Ref="R?"  Part="1" 
AR Path="/5EA90FAE/5EB0AAA5/5F56765C" Ref="R?"  Part="1" 
AR Path="/5EA90FAE/5EB24C83/5F56765C" Ref="R?"  Part="1" 
AR Path="/5EA90FAE/5EB3EF5D/5F56765C" Ref="R?"  Part="1" 
AR Path="/5EA90FAE/5EB5A1DD/5F56765C" Ref="R?"  Part="1" 
AR Path="/5EA90FAE/5EB747FC/5F56765C" Ref="R?"  Part="1" 
AR Path="/5EA90FAE/61F8A638/5F56765C" Ref="R?"  Part="1" 
AR Path="/5EA90FAE/61FD4B8F/5F56765C" Ref="R?"  Part="1" 
AR Path="/5EA90FAE/6201DE18/5F56765C" Ref="R?"  Part="1" 
AR Path="/5EA90FAE/6206AF4A/5F56765C" Ref="R?"  Part="1" 
AR Path="/5EA90FAE/620BC81C/5F56765C" Ref="R?"  Part="1" 
AR Path="/5EA90FAE/6210F29D/5F56765C" Ref="R?"  Part="1" 
AR Path="/5EA90FAE/5F56765C" Ref="R1103"  Part="1" 
F 0 "R1103" V 2300 4200 39  0000 C CNN
F 1 "100" V 2300 4450 39  0000 C CNN
F 2 "Resistor_SMD:R_0402_1005Metric" V 2230 4450 50  0001 C CNN
F 3 "" H 2300 4450 50  0000 C CNN
	1    2300 4450
	-1   0    0    1   
$EndComp
$Comp
L Device:R R?
U 1 1 5F567662
P 2400 4450
AR Path="/59140D2B/5F567662" Ref="R?"  Part="1" 
AR Path="/5B5208C5/5F567662" Ref="R?"  Part="1" 
AR Path="/5E0256B5/5F567662" Ref="R?"  Part="1" 
AR Path="/5E108C88/5F567662" Ref="R?"  Part="1" 
AR Path="/5E130590/5F567662" Ref="R?"  Part="1" 
AR Path="/5E1C420C/5F567662" Ref="R?"  Part="1" 
AR Path="/5E8EF778/5F567662" Ref="R?"  Part="1" 
AR Path="/5FD3BDB9/5F567662" Ref="R?"  Part="1" 
AR Path="/5EA90FAE/5EA9102F/5F567662" Ref="R?"  Part="1" 
AR Path="/5EA90FAE/5ECDCF4E/5F567662" Ref="R?"  Part="1" 
AR Path="/5EA90FAE/5ECE49CD/5F567662" Ref="R?"  Part="1" 
AR Path="/5EA90FAE/5ECE4A28/5F567662" Ref="R?"  Part="1" 
AR Path="/5EA90FAE/5ECF0FAD/5F567662" Ref="R?"  Part="1" 
AR Path="/5EA90FAE/5ECF0FFD/5F567662" Ref="R?"  Part="1" 
AR Path="/5EA90FAE/5ECF1058/5F567662" Ref="R?"  Part="1" 
AR Path="/5EA90FAE/5ECF6F57/5F567662" Ref="R?"  Part="1" 
AR Path="/5EA90FAE/5ECF6FC3/5F567662" Ref="R?"  Part="1" 
AR Path="/5EA90FAE/5ECF701E/5F567662" Ref="R?"  Part="1" 
AR Path="/5EA90FAE/5ED5268E/5F567662" Ref="R?"  Part="1" 
AR Path="/5EA90FAE/5ED52748/5F567662" Ref="R?"  Part="1" 
AR Path="/5EA90FAE/5ED74D0A/5F567662" Ref="R?"  Part="1" 
AR Path="/5EA90FAE/5ED74D28/5F567662" Ref="R?"  Part="1" 
AR Path="/5EA90FAE/5ED74DE2/5F567662" Ref="R?"  Part="1" 
AR Path="/5EA90FAE/5EAF0AB8/5F567662" Ref="R?"  Part="1" 
AR Path="/5EA90FAE/5EB0AAA5/5F567662" Ref="R?"  Part="1" 
AR Path="/5EA90FAE/5EB24C83/5F567662" Ref="R?"  Part="1" 
AR Path="/5EA90FAE/5EB3EF5D/5F567662" Ref="R?"  Part="1" 
AR Path="/5EA90FAE/5EB5A1DD/5F567662" Ref="R?"  Part="1" 
AR Path="/5EA90FAE/5EB747FC/5F567662" Ref="R?"  Part="1" 
AR Path="/5EA90FAE/61F8A638/5F567662" Ref="R?"  Part="1" 
AR Path="/5EA90FAE/61FD4B8F/5F567662" Ref="R?"  Part="1" 
AR Path="/5EA90FAE/6201DE18/5F567662" Ref="R?"  Part="1" 
AR Path="/5EA90FAE/6206AF4A/5F567662" Ref="R?"  Part="1" 
AR Path="/5EA90FAE/620BC81C/5F567662" Ref="R?"  Part="1" 
AR Path="/5EA90FAE/6210F29D/5F567662" Ref="R?"  Part="1" 
AR Path="/5EA90FAE/5F567662" Ref="R1104"  Part="1" 
F 0 "R1104" V 2400 4200 39  0000 C CNN
F 1 "100" V 2400 4450 39  0000 C CNN
F 2 "Resistor_SMD:R_0402_1005Metric" V 2330 4450 50  0001 C CNN
F 3 "" H 2400 4450 50  0000 C CNN
	1    2400 4450
	-1   0    0    1   
$EndComp
$Comp
L Device:R R?
U 1 1 5F567668
P 2500 4450
AR Path="/59140D2B/5F567668" Ref="R?"  Part="1" 
AR Path="/5B5208C5/5F567668" Ref="R?"  Part="1" 
AR Path="/5E0256B5/5F567668" Ref="R?"  Part="1" 
AR Path="/5E108C88/5F567668" Ref="R?"  Part="1" 
AR Path="/5E130590/5F567668" Ref="R?"  Part="1" 
AR Path="/5E1C420C/5F567668" Ref="R?"  Part="1" 
AR Path="/5E8EF778/5F567668" Ref="R?"  Part="1" 
AR Path="/5FD3BDB9/5F567668" Ref="R?"  Part="1" 
AR Path="/5EA90FAE/5EA9102F/5F567668" Ref="R?"  Part="1" 
AR Path="/5EA90FAE/5ECDCF4E/5F567668" Ref="R?"  Part="1" 
AR Path="/5EA90FAE/5ECE49CD/5F567668" Ref="R?"  Part="1" 
AR Path="/5EA90FAE/5ECE4A28/5F567668" Ref="R?"  Part="1" 
AR Path="/5EA90FAE/5ECF0FAD/5F567668" Ref="R?"  Part="1" 
AR Path="/5EA90FAE/5ECF0FFD/5F567668" Ref="R?"  Part="1" 
AR Path="/5EA90FAE/5ECF1058/5F567668" Ref="R?"  Part="1" 
AR Path="/5EA90FAE/5ECF6F57/5F567668" Ref="R?"  Part="1" 
AR Path="/5EA90FAE/5ECF6FC3/5F567668" Ref="R?"  Part="1" 
AR Path="/5EA90FAE/5ECF701E/5F567668" Ref="R?"  Part="1" 
AR Path="/5EA90FAE/5ED5268E/5F567668" Ref="R?"  Part="1" 
AR Path="/5EA90FAE/5ED52748/5F567668" Ref="R?"  Part="1" 
AR Path="/5EA90FAE/5ED74D0A/5F567668" Ref="R?"  Part="1" 
AR Path="/5EA90FAE/5ED74D28/5F567668" Ref="R?"  Part="1" 
AR Path="/5EA90FAE/5ED74DE2/5F567668" Ref="R?"  Part="1" 
AR Path="/5EA90FAE/5EAF0AB8/5F567668" Ref="R?"  Part="1" 
AR Path="/5EA90FAE/5EB0AAA5/5F567668" Ref="R?"  Part="1" 
AR Path="/5EA90FAE/5EB24C83/5F567668" Ref="R?"  Part="1" 
AR Path="/5EA90FAE/5EB3EF5D/5F567668" Ref="R?"  Part="1" 
AR Path="/5EA90FAE/5EB5A1DD/5F567668" Ref="R?"  Part="1" 
AR Path="/5EA90FAE/5EB747FC/5F567668" Ref="R?"  Part="1" 
AR Path="/5EA90FAE/61F8A638/5F567668" Ref="R?"  Part="1" 
AR Path="/5EA90FAE/61FD4B8F/5F567668" Ref="R?"  Part="1" 
AR Path="/5EA90FAE/6201DE18/5F567668" Ref="R?"  Part="1" 
AR Path="/5EA90FAE/6206AF4A/5F567668" Ref="R?"  Part="1" 
AR Path="/5EA90FAE/620BC81C/5F567668" Ref="R?"  Part="1" 
AR Path="/5EA90FAE/6210F29D/5F567668" Ref="R?"  Part="1" 
AR Path="/5EA90FAE/5F567668" Ref="R1105"  Part="1" 
F 0 "R1105" V 2500 4200 39  0000 C CNN
F 1 "100" V 2500 4450 39  0000 C CNN
F 2 "Resistor_SMD:R_0402_1005Metric" V 2430 4450 50  0001 C CNN
F 3 "" H 2500 4450 50  0000 C CNN
	1    2500 4450
	-1   0    0    1   
$EndComp
$Comp
L Device:R R?
U 1 1 5F56766E
P 2600 4450
AR Path="/59140D2B/5F56766E" Ref="R?"  Part="1" 
AR Path="/5B5208C5/5F56766E" Ref="R?"  Part="1" 
AR Path="/5E0256B5/5F56766E" Ref="R?"  Part="1" 
AR Path="/5E108C88/5F56766E" Ref="R?"  Part="1" 
AR Path="/5E130590/5F56766E" Ref="R?"  Part="1" 
AR Path="/5E1C420C/5F56766E" Ref="R?"  Part="1" 
AR Path="/5E8EF778/5F56766E" Ref="R?"  Part="1" 
AR Path="/5FD3BDB9/5F56766E" Ref="R?"  Part="1" 
AR Path="/5EA90FAE/5EA9102F/5F56766E" Ref="R?"  Part="1" 
AR Path="/5EA90FAE/5ECDCF4E/5F56766E" Ref="R?"  Part="1" 
AR Path="/5EA90FAE/5ECE49CD/5F56766E" Ref="R?"  Part="1" 
AR Path="/5EA90FAE/5ECE4A28/5F56766E" Ref="R?"  Part="1" 
AR Path="/5EA90FAE/5ECF0FAD/5F56766E" Ref="R?"  Part="1" 
AR Path="/5EA90FAE/5ECF0FFD/5F56766E" Ref="R?"  Part="1" 
AR Path="/5EA90FAE/5ECF1058/5F56766E" Ref="R?"  Part="1" 
AR Path="/5EA90FAE/5ECF6F57/5F56766E" Ref="R?"  Part="1" 
AR Path="/5EA90FAE/5ECF6FC3/5F56766E" Ref="R?"  Part="1" 
AR Path="/5EA90FAE/5ECF701E/5F56766E" Ref="R?"  Part="1" 
AR Path="/5EA90FAE/5ED5268E/5F56766E" Ref="R?"  Part="1" 
AR Path="/5EA90FAE/5ED52748/5F56766E" Ref="R?"  Part="1" 
AR Path="/5EA90FAE/5ED74D0A/5F56766E" Ref="R?"  Part="1" 
AR Path="/5EA90FAE/5ED74D28/5F56766E" Ref="R?"  Part="1" 
AR Path="/5EA90FAE/5ED74DE2/5F56766E" Ref="R?"  Part="1" 
AR Path="/5EA90FAE/5EAF0AB8/5F56766E" Ref="R?"  Part="1" 
AR Path="/5EA90FAE/5EB0AAA5/5F56766E" Ref="R?"  Part="1" 
AR Path="/5EA90FAE/5EB24C83/5F56766E" Ref="R?"  Part="1" 
AR Path="/5EA90FAE/5EB3EF5D/5F56766E" Ref="R?"  Part="1" 
AR Path="/5EA90FAE/5EB5A1DD/5F56766E" Ref="R?"  Part="1" 
AR Path="/5EA90FAE/5EB747FC/5F56766E" Ref="R?"  Part="1" 
AR Path="/5EA90FAE/61F8A638/5F56766E" Ref="R?"  Part="1" 
AR Path="/5EA90FAE/61FD4B8F/5F56766E" Ref="R?"  Part="1" 
AR Path="/5EA90FAE/6201DE18/5F56766E" Ref="R?"  Part="1" 
AR Path="/5EA90FAE/6206AF4A/5F56766E" Ref="R?"  Part="1" 
AR Path="/5EA90FAE/620BC81C/5F56766E" Ref="R?"  Part="1" 
AR Path="/5EA90FAE/6210F29D/5F56766E" Ref="R?"  Part="1" 
AR Path="/5EA90FAE/5F56766E" Ref="R1106"  Part="1" 
F 0 "R1106" V 2525 4450 39  0000 C CNN
F 1 "100" V 2600 4450 39  0000 C CNN
F 2 "Resistor_SMD:R_0402_1005Metric" V 2530 4450 50  0001 C CNN
F 3 "" H 2600 4450 50  0000 C CNN
	1    2600 4450
	-1   0    0    1   
$EndComp
Wire Wire Line
	2500 4300 2600 4300
Wire Wire Line
	2600 4300 2900 4300
Connection ~ 2600 4300
Wire Wire Line
	2400 4300 2300 4300
$Comp
L power:GNDD #PWR?
U 1 1 5F567678
P 2175 4300
AR Path="/59140D2B/5F567678" Ref="#PWR?"  Part="1" 
AR Path="/5B5208C5/5F567678" Ref="#PWR?"  Part="1" 
AR Path="/5E0256B5/5F567678" Ref="#PWR?"  Part="1" 
AR Path="/5E108C88/5F567678" Ref="#PWR?"  Part="1" 
AR Path="/5E130590/5F567678" Ref="#PWR?"  Part="1" 
AR Path="/5E1C420C/5F567678" Ref="#PWR?"  Part="1" 
AR Path="/5E8EF778/5F567678" Ref="#PWR?"  Part="1" 
AR Path="/5FD3BDB9/5F567678" Ref="#PWR?"  Part="1" 
AR Path="/5EA90FAE/5EA9102F/5F567678" Ref="#PWR?"  Part="1" 
AR Path="/5EA90FAE/5ECDCF4E/5F567678" Ref="#PWR?"  Part="1" 
AR Path="/5EA90FAE/5ECE49CD/5F567678" Ref="#PWR?"  Part="1" 
AR Path="/5EA90FAE/5ECE4A28/5F567678" Ref="#PWR?"  Part="1" 
AR Path="/5EA90FAE/5ECF0FAD/5F567678" Ref="#PWR?"  Part="1" 
AR Path="/5EA90FAE/5ECF0FFD/5F567678" Ref="#PWR?"  Part="1" 
AR Path="/5EA90FAE/5ECF1058/5F567678" Ref="#PWR?"  Part="1" 
AR Path="/5EA90FAE/5ECF6F57/5F567678" Ref="#PWR?"  Part="1" 
AR Path="/5EA90FAE/5ECF6FC3/5F567678" Ref="#PWR?"  Part="1" 
AR Path="/5EA90FAE/5ECF701E/5F567678" Ref="#PWR?"  Part="1" 
AR Path="/5EA90FAE/5ED5268E/5F567678" Ref="#PWR?"  Part="1" 
AR Path="/5EA90FAE/5ED52748/5F567678" Ref="#PWR?"  Part="1" 
AR Path="/5EA90FAE/5ED74D0A/5F567678" Ref="#PWR?"  Part="1" 
AR Path="/5EA90FAE/5ED74D28/5F567678" Ref="#PWR?"  Part="1" 
AR Path="/5EA90FAE/5ED74DE2/5F567678" Ref="#PWR?"  Part="1" 
AR Path="/5EA90FAE/5EAF0AB8/5F567678" Ref="#PWR?"  Part="1" 
AR Path="/5EA90FAE/5EB0AAA5/5F567678" Ref="#PWR?"  Part="1" 
AR Path="/5EA90FAE/5EB24C83/5F567678" Ref="#PWR?"  Part="1" 
AR Path="/5EA90FAE/5EB3EF5D/5F567678" Ref="#PWR?"  Part="1" 
AR Path="/5EA90FAE/5EB5A1DD/5F567678" Ref="#PWR?"  Part="1" 
AR Path="/5EA90FAE/5EB747FC/5F567678" Ref="#PWR?"  Part="1" 
AR Path="/5EA90FAE/61F8A638/5F567678" Ref="#PWR?"  Part="1" 
AR Path="/5EA90FAE/61FD4B8F/5F567678" Ref="#PWR?"  Part="1" 
AR Path="/5EA90FAE/6201DE18/5F567678" Ref="#PWR?"  Part="1" 
AR Path="/5EA90FAE/6206AF4A/5F567678" Ref="#PWR?"  Part="1" 
AR Path="/5EA90FAE/620BC81C/5F567678" Ref="#PWR?"  Part="1" 
AR Path="/5EA90FAE/6210F29D/5F567678" Ref="#PWR?"  Part="1" 
AR Path="/5EA90FAE/5F567678" Ref="#PWR0106"  Part="1" 
F 0 "#PWR0106" H 2175 4050 50  0001 C CNN
F 1 "GNDD" H 2175 4175 39  0000 C CNN
F 2 "" H 2175 4300 50  0001 C CNN
F 3 "" H 2175 4300 50  0001 C CNN
	1    2175 4300
	1    0    0    -1  
$EndComp
Wire Wire Line
	2175 4300 2300 4300
Connection ~ 2300 4300
Wire Wire Line
	2600 4600 2600 4800
Connection ~ 2600 4800
Wire Wire Line
	2600 4800 3000 4800
Wire Wire Line
	2500 4600 2500 4675
Connection ~ 2500 4675
Wire Wire Line
	2500 4675 3000 4675
Wire Wire Line
	2400 4600 2400 4800
Connection ~ 2400 4800
Wire Wire Line
	2400 4800 2600 4800
Wire Wire Line
	2300 4600 2300 4675
Connection ~ 2300 4675
Wire Wire Line
	2300 4675 2500 4675
Wire Wire Line
	2275 4800 2400 4800
Wire Wire Line
	2175 4675 2300 4675
Text Label 3000 4675 2    50   ~ 0
Clk_pol_P
Text Label 3000 4800 2    50   ~ 0
Clk_pol_N
Text Label 2900 4300 2    39   ~ 0
1P2VD
Wire Wire Line
	3475 1225 3050 1225
Wire Wire Line
	3475 1275 3050 1275
Text Label 3050 1225 0    39   ~ 0
Clk_pol_P
Text Label 3050 1275 0    39   ~ 0
Clk_pol_N
Wire Wire Line
	5600 1225 5175 1225
Wire Wire Line
	5600 1275 5175 1275
Text Label 5175 1225 0    39   ~ 0
Clk_pol_P
Text Label 5175 1275 0    39   ~ 0
Clk_pol_N
Wire Wire Line
	7675 1225 7250 1225
Wire Wire Line
	7675 1275 7250 1275
Text Label 7250 1225 0    39   ~ 0
Clk_pol_P
Text Label 7250 1275 0    39   ~ 0
Clk_pol_N
Wire Wire Line
	5600 2850 5175 2850
Wire Wire Line
	5600 2900 5175 2900
Text Label 5175 2850 0    39   ~ 0
Clk_pol_P
Text Label 5175 2900 0    39   ~ 0
Clk_pol_N
Wire Wire Line
	3525 2850 3100 2850
Wire Wire Line
	3525 2900 3100 2900
Text Label 3100 2850 0    39   ~ 0
Clk_pol_P
Text Label 3100 2900 0    39   ~ 0
Clk_pol_N
Wire Wire Line
	1400 2850 975  2850
Wire Wire Line
	1400 2900 975  2900
Text Label 975  2850 0    39   ~ 0
Clk_pol_P
Text Label 975  2900 0    39   ~ 0
Clk_pol_N
$EndSCHEMATC
