EESchema Schematic File Version 4
EELAYER 30 0
EELAYER END
$Descr A4 11693 8268
encoding utf-8
Sheet 8 12
Title "ADC schematics"
Date "2020-04-08"
Rev "1"
Comp ""
Comment1 ""
Comment2 ""
Comment3 ""
Comment4 ""
$EndDescr
$Comp
L power:GNDA #PWR?
U 1 1 5FD25810
P 2100 2075
AR Path="/59140D2B/5FD25810" Ref="#PWR?"  Part="1" 
AR Path="/5B5208C5/5FD25810" Ref="#PWR?"  Part="1" 
AR Path="/57059335/5FD25810" Ref="#PWR0826"  Part="1" 
F 0 "#PWR0826" H 2100 1825 50  0001 C CNN
F 1 "GNDA" H 2100 1925 50  0000 C CNN
F 2 "" H 2100 2075 50  0000 C CNN
F 3 "" H 2100 2075 50  0000 C CNN
	1    2100 2075
	1    0    0    -1  
$EndComp
Text Notes 6500 1250 0    50   ~ 0
AVDD1 : Analog 1.3V (1.2A)\nAVDD2 : Analog 2.5V (0.4A)\nDRVDD1 : Digital driver 1.3V (0.5A)\nDRVDD2 : Digital driver 2.5V (10 mA)\nDVDD1 : Digital 1.3V (0.4A)\nDVDD2 : Digital 2.5V (1 mA)\nDVDDIO : Digital IO 2.5V (1 mA)\nSPI_VDDIO : Digital SPI 2.5V (1 mA)\n
$Comp
L Connector:Conn_Coaxial J?
U 1 1 5D1C1653
P 1700 1775
F 0 "J?" H 1630 2013 50  0000 C CNN
F 1 "Conn_Coaxial" H 1630 1922 50  0000 C CNN
F 2 "" H 1700 1775 50  0001 C CNN
F 3 " ~" H 1700 1775 50  0001 C CNN
	1    1700 1775
	-1   0    0    -1  
$EndComp
Wire Wire Line
	1900 1775 2100 1775
$Comp
L power:GNDA #PWR?
U 1 1 5D1D6A2B
P 1700 1975
AR Path="/59140D2B/5D1D6A2B" Ref="#PWR?"  Part="1" 
AR Path="/5B5208C5/5D1D6A2B" Ref="#PWR?"  Part="1" 
AR Path="/57059335/5D1D6A2B" Ref="#PWR?"  Part="1" 
F 0 "#PWR?" H 1700 1725 50  0001 C CNN
F 1 "GNDA" H 1700 1825 50  0000 C CNN
F 2 "" H 1700 1975 50  0000 C CNN
F 3 "" H 1700 1975 50  0000 C CNN
	1    1700 1975
	1    0    0    -1  
$EndComp
$Comp
L Device:C C?
U 1 1 5D2459A6
P 5550 2200
AR Path="/5B5208C5/5D2459A6" Ref="C?"  Part="1" 
AR Path="/59140D2B/5D2459A6" Ref="C?"  Part="1" 
AR Path="/57059335/5D2459A6" Ref="C?"  Part="1" 
F 0 "C?" H 5500 2275 50  0000 L CNN
F 1 "1pF" H 5450 2125 50  0000 L CNN
F 2 "Capacitor_SMD:C_0402_1005Metric" H 5588 2050 50  0001 C CNN
F 3 "" H 5550 2200 50  0000 C CNN
	1    5550 2200
	-1   0    0    1   
$EndComp
Wire Wire Line
	5550 2350 5325 2350
$Comp
L power:GNDA #PWR?
U 1 1 5D24BA83
P 5325 2350
AR Path="/59140D2B/5D24BA83" Ref="#PWR?"  Part="1" 
AR Path="/5B5208C5/5D24BA83" Ref="#PWR?"  Part="1" 
AR Path="/57059335/5D24BA83" Ref="#PWR?"  Part="1" 
F 0 "#PWR?" H 5325 2100 50  0001 C CNN
F 1 "GNDA" H 5325 2200 50  0000 C CNN
F 2 "" H 5325 2350 50  0000 C CNN
F 3 "" H 5325 2350 50  0000 C CNN
	1    5325 2350
	1    0    0    -1  
$EndComp
$Comp
L Device:R R?
U 1 1 5D266355
P 6050 1850
F 0 "R?" V 5975 1850 50  0000 C CNN
F 1 "5" V 6050 1850 50  0000 C CNN
F 2 "Resistor_SMD:R_0402_1005Metric" V 5980 1850 50  0001 C CNN
F 3 "" H 6050 1850 50  0000 C CNN
	1    6050 1850
	0    1    1    0   
$EndComp
$Comp
L Device:R R?
U 1 1 5D2664AA
P 6050 2000
F 0 "R?" V 5975 2000 50  0000 C CNN
F 1 "5" V 6050 2000 50  0000 C CNN
F 2 "Resistor_SMD:R_0402_1005Metric" V 5980 2000 50  0001 C CNN
F 3 "" H 6050 2000 50  0000 C CNN
	1    6050 2000
	0    1    1    0   
$EndComp
Wire Wire Line
	6200 2000 6200 1950
Wire Wire Line
	6200 1950 6350 1950
Wire Wire Line
	6200 1850 6200 1900
Wire Wire Line
	6200 1900 6350 1900
$Comp
L Device:C C?
U 1 1 5D2A0F3C
P 3400 1250
AR Path="/5B5208C5/5D2A0F3C" Ref="C?"  Part="1" 
AR Path="/59140D2B/5D2A0F3C" Ref="C?"  Part="1" 
AR Path="/57059335/5D2A0F3C" Ref="C?"  Part="1" 
F 0 "C?" H 3350 1325 50  0000 L CNN
F 1 "10u" H 3300 1175 50  0000 L CNN
F 2 "Capacitor_SMD:C_0402_1005Metric" H 3438 1100 50  0001 C CNN
F 3 "" H 3400 1250 50  0000 C CNN
	1    3400 1250
	-1   0    0    1   
$EndComp
$Comp
L Device:C C?
U 1 1 5D2A1027
P 3200 1250
AR Path="/5B5208C5/5D2A1027" Ref="C?"  Part="1" 
AR Path="/59140D2B/5D2A1027" Ref="C?"  Part="1" 
AR Path="/57059335/5D2A1027" Ref="C?"  Part="1" 
F 0 "C?" H 3150 1325 50  0000 L CNN
F 1 "100n" H 3100 1175 50  0000 L CNN
F 2 "Capacitor_SMD:C_0402_1005Metric" H 3238 1100 50  0001 C CNN
F 3 "" H 3200 1250 50  0000 C CNN
	1    3200 1250
	-1   0    0    1   
$EndComp
Wire Wire Line
	3400 1100 3675 1100
Wire Wire Line
	3400 1100 3200 1100
Connection ~ 3400 1100
$Comp
L power:GNDA #PWR?
U 1 1 5D2E6EFC
P 3400 1400
AR Path="/59140D2B/5D2E6EFC" Ref="#PWR?"  Part="1" 
AR Path="/5B5208C5/5D2E6EFC" Ref="#PWR?"  Part="1" 
AR Path="/57059335/5D2E6EFC" Ref="#PWR?"  Part="1" 
F 0 "#PWR?" H 3400 1150 50  0001 C CNN
F 1 "GNDA" H 3400 1250 50  0000 C CNN
F 2 "" H 3400 1400 50  0000 C CNN
F 3 "" H 3400 1400 50  0000 C CNN
	1    3400 1400
	1    0    0    -1  
$EndComp
Connection ~ 3400 1400
Wire Wire Line
	3200 1400 3400 1400
$Comp
L power:GNDA #PWR?
U 1 1 5D2F94BE
P 4075 2425
AR Path="/59140D2B/5D2F94BE" Ref="#PWR?"  Part="1" 
AR Path="/5B5208C5/5D2F94BE" Ref="#PWR?"  Part="1" 
AR Path="/57059335/5D2F94BE" Ref="#PWR?"  Part="1" 
F 0 "#PWR?" H 4075 2175 50  0001 C CNN
F 1 "GNDA" H 4075 2275 50  0000 C CNN
F 2 "" H 4075 2425 50  0000 C CNN
F 3 "" H 4075 2425 50  0000 C CNN
	1    4075 2425
	1    0    0    -1  
$EndComp
Text Notes 4225 1675 0    50   ~ 0
VCM =525 mV\nrail+=525+275 = 800 mV\nrail-=525-275 = 250 mV\nSignal 1.1Vpp differential\n-> 0.55V dynamic range per input\n-> VCM+-0.275V
Text Notes 4650 2000 0    50   ~ 0
790 mV
Text Notes 4650 1800 0    50   ~ 0
260 mV
Wire Wire Line
	8150 1800 8575 1800
Text Label 8300 1800 0    39   ~ 0
sData_P0
Wire Wire Line
	8150 1850 8575 1850
Text Label 8300 1850 0    39   ~ 0
sData_N0
Wire Wire Line
	8150 1950 8575 1950
Text Label 8300 1950 0    39   ~ 0
sData_P1
Wire Wire Line
	8150 2000 8575 2000
Text Label 8300 2000 0    39   ~ 0
sData_N1
Wire Wire Line
	8150 2100 8575 2100
Text Label 8300 2100 0    39   ~ 0
sData_P2
Wire Wire Line
	8150 2150 8575 2150
Text Label 8300 2150 0    39   ~ 0
sData_N2
Wire Wire Line
	8150 2250 8575 2250
Text Label 8300 2250 0    39   ~ 0
sData_P3
Wire Wire Line
	8150 2300 8575 2300
Text Label 8300 2300 0    39   ~ 0
sData_N3
Text HLabel 8750 1750 2    39   Output ~ 0
sData_P[0..3]
Text HLabel 8750 1800 2    39   Output ~ 0
sData_N[0..3]
Wire Wire Line
	6275 1800 6350 1800
Text HLabel 5400 850  0    39   Input ~ 0
Clk_1280_P
Text HLabel 5400 950  0    39   Input ~ 0
Clk_1280_N
$Comp
L Device:C C?
U 1 1 5E1104FE
P 5850 850
AR Path="/5B5208C5/5E1104FE" Ref="C?"  Part="1" 
AR Path="/59140D2B/5E1104FE" Ref="C?"  Part="1" 
AR Path="/57059335/5E1104FE" Ref="C?"  Part="1" 
F 0 "C?" V 5900 900 50  0000 L CNN
F 1 "100n" V 5800 900 50  0000 L CNN
F 2 "Capacitor_SMD:C_0402_1005Metric" H 5888 700 50  0001 C CNN
F 3 "" H 5850 850 50  0000 C CNN
	1    5850 850 
	0    1    1    0   
$EndComp
$Comp
L Device:C C?
U 1 1 5E110604
P 6075 950
AR Path="/5B5208C5/5E110604" Ref="C?"  Part="1" 
AR Path="/59140D2B/5E110604" Ref="C?"  Part="1" 
AR Path="/57059335/5E110604" Ref="C?"  Part="1" 
F 0 "C?" V 6125 1000 50  0000 L CNN
F 1 "100n" V 6025 1000 50  0000 L CNN
F 2 "Capacitor_SMD:C_0402_1005Metric" H 6113 800 50  0001 C CNN
F 3 "" H 6075 950 50  0000 C CNN
	1    6075 950 
	0    1    1    0   
$EndComp
Wire Wire Line
	6000 850  6350 850 
Wire Wire Line
	6225 950  6275 950 
$Comp
L Device:R R?
U 1 1 5E19B846
P 5625 1100
F 0 "R?" V 5550 1100 50  0000 C CNN
F 1 "100" V 5625 1100 50  0000 C CNN
F 2 "Resistor_SMD:R_0402_1005Metric" V 5555 1100 50  0001 C CNN
F 3 "" H 5625 1100 50  0000 C CNN
	1    5625 1100
	-1   0    0    1   
$EndComp
Connection ~ 5700 850 
Wire Wire Line
	5400 850  5700 850 
Wire Wire Line
	5400 950  5625 950 
Connection ~ 5625 950 
Wire Wire Line
	5625 950  5925 950 
Wire Wire Line
	6275 950  6275 1800
Wire Wire Line
	6350 850  6350 1750
$Comp
L Device:R R?
U 1 1 5E9076F6
P 5075 1850
F 0 "R?" V 5000 1850 50  0000 C CNN
F 1 "5" V 5075 1850 50  0000 C CNN
F 2 "Resistor_SMD:R_0402_1005Metric" V 5005 1850 50  0001 C CNN
F 3 "" H 5075 1850 50  0000 C CNN
	1    5075 1850
	0    1    1    0   
$EndComp
$Comp
L Device:R R?
U 1 1 5E907FA9
P 5075 2000
F 0 "R?" V 5000 2000 50  0000 C CNN
F 1 "5" V 5075 2000 50  0000 C CNN
F 2 "Resistor_SMD:R_0402_1005Metric" V 5005 2000 50  0001 C CNN
F 3 "" H 5075 2000 50  0000 C CNN
	1    5075 2000
	0    1    1    0   
$EndComp
Wire Wire Line
	4325 1875 4325 1850
Wire Wire Line
	4325 1850 4925 1850
Wire Wire Line
	4325 1975 4325 2000
Wire Wire Line
	4325 2000 4925 2000
Wire Wire Line
	3675 1100 3775 1100
Wire Wire Line
	3975 1100 3975 1425
Connection ~ 3675 1100
Wire Wire Line
	3875 1425 3875 1100
Connection ~ 3875 1100
Wire Wire Line
	3875 1100 3975 1100
Wire Wire Line
	3775 1425 3775 1100
Connection ~ 3775 1100
Wire Wire Line
	3775 1100 3875 1100
Wire Wire Line
	3675 1425 3675 1100
$Comp
L Device:C C?
U 1 1 5E8A1C96
P 3875 2700
AR Path="/5B5208C5/5E8A1C96" Ref="C?"  Part="1" 
AR Path="/59140D2B/5E8A1C96" Ref="C?"  Part="1" 
AR Path="/57059335/5E8A1C96" Ref="C?"  Part="1" 
F 0 "C?" H 3825 2775 50  0000 L CNN
F 1 "10u" H 3775 2625 50  0000 L CNN
F 2 "Capacitor_SMD:C_0402_1005Metric" H 3913 2550 50  0001 C CNN
F 3 "" H 3875 2700 50  0000 C CNN
	1    3875 2700
	-1   0    0    1   
$EndComp
$Comp
L Device:C C?
U 1 1 5E8A1CA0
P 3675 2700
AR Path="/5B5208C5/5E8A1CA0" Ref="C?"  Part="1" 
AR Path="/59140D2B/5E8A1CA0" Ref="C?"  Part="1" 
AR Path="/57059335/5E8A1CA0" Ref="C?"  Part="1" 
F 0 "C?" H 3625 2775 50  0000 L CNN
F 1 "100n" H 3575 2625 50  0000 L CNN
F 2 "Capacitor_SMD:C_0402_1005Metric" H 3713 2550 50  0001 C CNN
F 3 "" H 3675 2700 50  0000 C CNN
	1    3675 2700
	-1   0    0    1   
$EndComp
Wire Wire Line
	3975 2425 3875 2425
Connection ~ 3875 2425
Wire Wire Line
	3675 2425 3675 2550
Wire Wire Line
	3875 2550 3875 2425
Wire Wire Line
	3675 2850 3875 2850
$Comp
L Device:R R?
U 1 1 5E9F62ED
P 2100 1925
F 0 "R?" V 2025 1925 50  0000 C CNN
F 1 "58" V 2100 1925 50  0000 C CNN
F 2 "Resistor_SMD:R_0402_1005Metric" V 2030 1925 50  0001 C CNN
F 3 "" H 2100 1925 50  0000 C CNN
	1    2100 1925
	-1   0    0    1   
$EndComp
$Comp
L Device:C C?
U 1 1 5E9F7223
P 2575 1775
AR Path="/5B5208C5/5E9F7223" Ref="C?"  Part="1" 
AR Path="/59140D2B/5E9F7223" Ref="C?"  Part="1" 
AR Path="/57059335/5E9F7223" Ref="C?"  Part="1" 
F 0 "C?" V 2625 1850 50  0000 L CNN
F 1 "10u" V 2525 1825 50  0000 L CNN
F 2 "Capacitor_SMD:C_0402_1005Metric" H 2613 1625 50  0001 C CNN
F 3 "" H 2575 1775 50  0000 C CNN
	1    2575 1775
	0    -1   -1   0   
$EndComp
Connection ~ 2100 1775
$Comp
L Device:R R?
U 1 1 5E9F7CDB
P 3175 1775
F 0 "R?" V 3100 1775 50  0000 C CNN
F 1 "348" V 3175 1775 50  0000 C CNN
F 2 "Resistor_SMD:R_0402_1005Metric" V 3105 1775 50  0001 C CNN
F 3 "" H 3175 1775 50  0000 C CNN
	1    3175 1775
	0    1    1    0   
$EndComp
$Comp
L Device:R R?
U 1 1 5E9F8B86
P 3175 2075
F 0 "R?" V 3100 2075 50  0000 C CNN
F 1 "348" V 3175 2075 50  0000 C CNN
F 2 "Resistor_SMD:R_0402_1005Metric" V 3105 2075 50  0001 C CNN
F 3 "" H 3175 2075 50  0000 C CNN
	1    3175 2075
	0    1    1    0   
$EndComp
$Comp
L Device:R R?
U 1 1 5E9F968E
P 2875 2075
F 0 "R?" V 2800 2075 50  0000 C CNN
F 1 "301" V 2875 2075 50  0000 C CNN
F 2 "Resistor_SMD:R_0402_1005Metric" V 2805 2075 50  0001 C CNN
F 3 "" H 2875 2075 50  0000 C CNN
	1    2875 2075
	0    1    1    0   
$EndComp
$Comp
L Device:R R?
U 1 1 5E9FC0EE
P 2875 1775
F 0 "R?" V 2800 1775 50  0000 C CNN
F 1 "301" V 2875 1775 50  0000 C CNN
F 2 "Resistor_SMD:R_0402_1005Metric" V 2805 1775 50  0001 C CNN
F 3 "" H 2875 1775 50  0000 C CNN
	1    2875 1775
	0    1    1    0   
$EndComp
Wire Wire Line
	3025 1775 3025 1875
Wire Wire Line
	3025 1875 3325 1875
Connection ~ 3025 1775
Wire Wire Line
	3025 2075 3025 1975
Wire Wire Line
	3025 1975 3325 1975
Connection ~ 3025 2075
$Comp
L Device:C C?
U 1 1 5EA7B80B
P 2575 2075
AR Path="/5B5208C5/5EA7B80B" Ref="C?"  Part="1" 
AR Path="/59140D2B/5EA7B80B" Ref="C?"  Part="1" 
AR Path="/57059335/5EA7B80B" Ref="C?"  Part="1" 
F 0 "C?" V 2625 2150 50  0000 L CNN
F 1 "10u" V 2625 1875 50  0000 L CNN
F 2 "Capacitor_SMD:C_0402_1005Metric" H 2613 1925 50  0001 C CNN
F 3 "" H 2575 2075 50  0000 C CNN
	1    2575 2075
	0    -1   -1   0   
$EndComp
$Comp
L power:GNDA #PWR?
U 1 1 5EA7BF4B
P 2425 2075
AR Path="/59140D2B/5EA7BF4B" Ref="#PWR?"  Part="1" 
AR Path="/5B5208C5/5EA7BF4B" Ref="#PWR?"  Part="1" 
AR Path="/57059335/5EA7BF4B" Ref="#PWR?"  Part="1" 
F 0 "#PWR?" H 2425 1825 50  0001 C CNN
F 1 "GNDA" H 2425 1925 50  0000 C CNN
F 2 "" H 2425 2075 50  0000 C CNN
F 3 "" H 2425 2075 50  0000 C CNN
	1    2425 2075
	1    0    0    -1  
$EndComp
Wire Wire Line
	2100 1775 2425 1775
$Comp
L Device:C C?
U 1 1 5EAA0321
P 3325 2700
AR Path="/5B5208C5/5EAA0321" Ref="C?"  Part="1" 
AR Path="/59140D2B/5EAA0321" Ref="C?"  Part="1" 
AR Path="/57059335/5EAA0321" Ref="C?"  Part="1" 
F 0 "C?" H 3275 2775 50  0000 L CNN
F 1 "100n" H 3225 2625 50  0000 L CNN
F 2 "Capacitor_SMD:C_0402_1005Metric" H 3363 2550 50  0001 C CNN
F 3 "" H 3325 2700 50  0000 C CNN
	1    3325 2700
	-1   0    0    1   
$EndComp
Wire Wire Line
	3675 2850 3325 2850
Connection ~ 3675 2850
$Comp
L power:GNDA #PWR?
U 1 1 5EAEC6F6
P 3325 2850
AR Path="/59140D2B/5EAEC6F6" Ref="#PWR?"  Part="1" 
AR Path="/5B5208C5/5EAEC6F6" Ref="#PWR?"  Part="1" 
AR Path="/57059335/5EAEC6F6" Ref="#PWR?"  Part="1" 
F 0 "#PWR?" H 3325 2600 50  0001 C CNN
F 1 "GNDA" H 3325 2700 50  0000 C CNN
F 2 "" H 3325 2850 50  0000 C CNN
F 3 "" H 3325 2850 50  0000 C CNN
	1    3325 2850
	1    0    0    -1  
$EndComp
Connection ~ 3325 2850
$Comp
L Device:R R?
U 1 1 5EB12364
P 2725 1500
F 0 "R?" V 2650 1500 50  0000 C CNN
F 1 "590" V 2725 1500 50  0000 C CNN
F 2 "Resistor_SMD:R_0402_1005Metric" V 2655 1500 50  0001 C CNN
F 3 "" H 2725 1500 50  0000 C CNN
	1    2725 1500
	-1   0    0    1   
$EndComp
Wire Wire Line
	2725 1350 2450 1350
Text Label 2450 1350 0    50   ~ 0
Vped_P
Wire Wire Line
	2725 1650 2725 1775
Connection ~ 2725 1775
$Comp
L Device:R R?
U 1 1 5EBC4B12
P 2725 2225
F 0 "R?" V 2650 2225 50  0000 C CNN
F 1 "590" V 2725 2225 50  0000 C CNN
F 2 "Resistor_SMD:R_0402_1005Metric" V 2655 2225 50  0001 C CNN
F 3 "" H 2725 2225 50  0000 C CNN
	1    2725 2225
	-1   0    0    1   
$EndComp
Connection ~ 2725 2075
Wire Wire Line
	3325 2175 2950 2175
Wire Wire Line
	2950 2175 2950 2975
Wire Wire Line
	3325 2550 3325 2175
$Comp
L Device:C C?
U 1 1 5E99B2F2
P 5775 2200
AR Path="/5B5208C5/5E99B2F2" Ref="C?"  Part="1" 
AR Path="/59140D2B/5E99B2F2" Ref="C?"  Part="1" 
AR Path="/57059335/5E99B2F2" Ref="C?"  Part="1" 
F 0 "C?" H 5725 2275 50  0000 L CNN
F 1 "100n" H 5675 2125 50  0000 L CNN
F 2 "Capacitor_SMD:C_0402_1005Metric" H 5813 2050 50  0001 C CNN
F 3 "" H 5775 2200 50  0000 C CNN
	1    5775 2200
	-1   0    0    1   
$EndComp
Wire Wire Line
	5775 2050 5875 2050
Wire Wire Line
	2950 2975 5875 2975
Wire Wire Line
	5775 2350 5550 2350
Connection ~ 5550 2350
Connection ~ 5325 2350
$Comp
L Device:C C?
U 1 1 5D2458D0
P 5325 2200
AR Path="/5B5208C5/5D2458D0" Ref="C?"  Part="1" 
AR Path="/59140D2B/5D2458D0" Ref="C?"  Part="1" 
AR Path="/57059335/5D2458D0" Ref="C?"  Part="1" 
F 0 "C?" H 5275 2275 50  0000 L CNN
F 1 "1pF" H 5225 2125 50  0000 L CNN
F 2 "Capacitor_SMD:C_0402_1005Metric" H 5363 2050 50  0001 C CNN
F 3 "" H 5325 2200 50  0000 C CNN
	1    5325 2200
	-1   0    0    1   
$EndComp
Wire Wire Line
	5225 1850 5550 1850
Wire Wire Line
	5225 2000 5325 2000
Wire Wire Line
	5325 2050 5325 2000
Connection ~ 5325 2000
Wire Wire Line
	5325 2000 5900 2000
Wire Wire Line
	5550 2050 5550 1850
Connection ~ 5550 1850
Wire Wire Line
	5550 1850 5900 1850
Wire Wire Line
	5700 850  5700 1250
Wire Wire Line
	5700 1250 5625 1250
Wire Wire Line
	5875 2050 5875 2975
Connection ~ 5875 2050
Wire Wire Line
	5875 2050 6350 2050
$Comp
L power:PWR_FLAG #FLG?
U 1 1 5F296491
P 9375 3825
F 0 "#FLG?" H 9375 3900 50  0001 C CNN
F 1 "PWR_FLAG" H 9375 3998 50  0000 C CNN
F 2 "" H 9375 3825 50  0001 C CNN
F 3 "~" H 9375 3825 50  0001 C CNN
	1    9375 3825
	1    0    0    -1  
$EndComp
$Comp
L power:PWR_FLAG #FLG?
U 1 1 5F29A38E
P 9375 5200
F 0 "#FLG?" H 9375 5275 50  0001 C CNN
F 1 "PWR_FLAG" H 9375 5373 50  0000 C CNN
F 2 "" H 9375 5200 50  0001 C CNN
F 3 "~" H 9375 5200 50  0001 C CNN
	1    9375 5200
	1    0    0    -1  
$EndComp
Text Label 3625 1100 2    50   ~ 0
V4P5
Connection ~ 3325 2175
Connection ~ 3675 2425
Wire Wire Line
	3775 2425 3675 2425
Wire Wire Line
	3875 2425 3775 2425
Connection ~ 3775 2425
$Comp
L MDJ_compo:ADA4927-1 U?
U 1 1 5E8F40CE
P 3875 1925
F 0 "U?" H 4225 1750 60  0000 L CNN
F 1 "ADA4927-1" H 4225 1650 60  0000 L CNN
F 2 "" H 3875 1925 60  0001 C CNN
F 3 "" H 3875 1925 60  0001 C CNN
	1    3875 1925
	1    0    0    -1  
$EndComp
Text Label 3675 2550 2    50   ~ 0
V3M0
Wire Wire Line
	3200 1100 3075 1100
Wire Wire Line
	3075 1100 3075 1675
Wire Wire Line
	3075 1675 3325 1675
Connection ~ 3200 1100
Text Label 2450 2450 0    50   ~ 0
Vped_N
Wire Wire Line
	2725 2450 2725 2375
Wire Wire Line
	2450 2450 2725 2450
$Comp
L Connector_Generic:Conn_02x02_Top_Bottom J?
U 1 1 5EB73C6B
P 1400 900
F 0 "J?" H 1450 1117 50  0000 C CNN
F 1 "Conn_02x02_Top_Bottom" H 1450 1026 50  0000 C CNN
F 2 "" H 1400 900 50  0001 C CNN
F 3 "~" H 1400 900 50  0001 C CNN
	1    1400 900 
	1    0    0    -1  
$EndComp
$Comp
L power:GNDA #PWR?
U 1 1 5EB747EA
P 1700 1000
AR Path="/59140D2B/5EB747EA" Ref="#PWR?"  Part="1" 
AR Path="/5B5208C5/5EB747EA" Ref="#PWR?"  Part="1" 
AR Path="/57059335/5EB747EA" Ref="#PWR?"  Part="1" 
F 0 "#PWR?" H 1700 750 50  0001 C CNN
F 1 "GNDA" H 1700 850 50  0000 C CNN
F 2 "" H 1700 1000 50  0000 C CNN
F 3 "" H 1700 1000 50  0000 C CNN
	1    1700 1000
	1    0    0    -1  
$EndComp
Text Label 950  900  0    50   ~ 0
V1P05
Wire Wire Line
	1200 900  950  900 
Text Label 950  1000 0    50   ~ 0
Vped_N
Wire Wire Line
	1200 1000 950  1000
Text Label 1950 900  2    50   ~ 0
Vped_P
Wire Wire Line
	1950 900  1700 900 
$Comp
L MDJ_compo:AD9697 U?
U 1 1 5ED6B8A6
P 7250 2300
F 0 "U?" H 7250 3317 50  0000 C CNN
F 1 "AD9697" H 7250 3226 50  0000 C CNN
F 2 "Package_CSP:LFCSP-64-1EP_9x9mm_P0.5mm_EP5.21x5.21mm" H 7240 3220 50  0001 C CNN
F 3 "https://www.analog.com/media/en/technical-documentation/data-sheets/ad9697.pdf" H 6140 3030 50  0001 C CNN
	1    7250 2300
	1    0    0    -1  
$EndComp
$Comp
L MDJ_compo:AD9697 U?
U 2 1 5E926E04
P 10400 4700
F 0 "U?" V 9233 4725 50  0000 C CNN
F 1 "AD9697" V 9324 4725 50  0000 C CNN
F 2 "Package_CSP:LFCSP-64-1EP_9x9mm_P0.5mm_EP5.21x5.21mm" H 10390 5620 50  0001 C CNN
F 3 "https://www.analog.com/media/en/technical-documentation/data-sheets/ad9697.pdf" H 9290 5430 50  0001 C CNN
	2    10400 4700
	0    1    1    0   
$EndComp
$Sheet
S 1225 4225 775  850 
U 5E8E50C4
F0 "ADC_power" 50
F1 "ADC_power.sch" 50
F2 "AVDD2" O R 2000 4425 50 
F3 "AVDD3" O R 2000 4500 50 
F4 "DRVDD2" O R 2000 4725 50 
F5 "AVDD1" O R 2000 4350 50 
F6 "SPIVDD" O R 2000 4800 50 
F7 "AVDD1_SR" O R 2000 4275 50 
F8 "DVDD" O R 2000 4575 50 
F9 "DRVDD" O R 2000 4650 50 
F10 "VPedBuff" O R 2000 4875 50 
F11 "VccBuff" O R 2000 4950 50 
F12 "VssBuff" O R 2000 5025 50 
$EndSheet
$EndSCHEMATC
