-2e-008 -0.4940724
-1.975e-008 -0.4941385
-1.95e-008 -0.4939533
-1.925e-008 -0.4942313
-1.9e-008 -0.4939403
-1.875e-008 -0.4942312
-1.85e-008 -0.4941123
-1.825e-008 -0.4942705
-1.8e-008 -0.4937946
-1.775e-008 -0.4941782
-1.75e-008 -0.4940852
-1.725e-008 -0.4941784
-1.7e-008 -0.4939533
-1.675e-008 -0.4941783
-1.65e-008 -0.4941384
-1.625e-008 -0.4941651
-1.6e-008 -0.4941119
-1.575e-008 -0.4941516
-1.55e-008 -0.4940723
-1.525e-008 -0.4940724
-1.5e-008 -0.4941255
-1.475e-008 -0.4942575
-1.45e-008 -0.4941517
-1.425e-008 -0.4941386
-1.4e-008 -0.4939794
-1.375e-008 -0.4941254
-1.35e-008 -0.4940063
-1.325e-008 -0.4942178
-1.3e-008 -0.4940723
-1.275e-008 -0.4940459
-1.25e-008 -0.4940063
-1.225e-008 -0.4943238
-1.2e-008 -0.493993
-1.175e-008 -0.4943239
-1.15e-008 -0.4939269
-1.125e-008 -0.494271
-1.1e-008 -0.4940591
-1.075e-008 -0.4942708
-1.05e-008 -0.4941651
-1.025e-008 -0.4942311
-1e-008 -0.4941254
-9.75e-009 -0.4941784
-9.5e-009 -0.4941915
-9.25e-009 -0.4942838
-9e-009 -0.4940063
-8.75e-009 -0.4941386
-8.5e-009 -0.494059
-8.25e-009 -0.4943238
-8e-009 -0.4940326
-7.75e-009 -0.4942047
-7.5e-009 -0.4941251
-7.25e-009 -0.494456
-7e-009 -0.4940986
-6.75e-009 -0.4941252
-6.5e-009 -0.4940459
-6.25e-009 -0.4942446
-6e-009 -0.4941121
-5.75e-009 -0.494033
-5.5e-009 -0.494125
-5.25e-009 -0.4941781
-5e-009 -0.4940991
-4.75e-009 -0.4940195
-4.5e-009 -0.4942045
-4.25e-009 -0.4941517
-4e-009 -0.4940726
-3.75e-009 -0.4941124
-3.5e-009 -0.4941124
-3.25e-009 -0.4941123
-3e-009 -0.4942309
-2.75e-009 -0.4942575
-2.5e-009 -0.494112
-2.25e-009 -0.4940724
-2e-009 -0.4937281
-1.75e-009 -0.4931196
-1.5e-009 -0.4910165
-1.25e-009 -0.4880937
-1e-009 -0.4812327
-7.5e-010 -0.4713913
-5e-010 -0.4561525
-2.5e-010 -0.433531
-6.92764e-024 -0.4001201
2.5e-010 -0.3569574
5e-010 -0.3022354
7.5e-010 -0.2322619
1e-009 -0.1522486
1.25e-009 -0.06645504
1.5e-009 0.02358469
1.75e-009 0.1122091
2e-009 0.1945637
2.25e-009 0.2715215
2.5e-009 0.3395107
2.75e-009 0.3961503
3e-009 0.4414958
3.25e-009 0.4755683
3.5e-009 0.4993544
3.75e-009 0.5136916
4e-009 0.5179868
4.25e-009 0.5138228
4.5e-009 0.5013254
4.75e-009 0.4793914
5e-009 0.4434128
5.25e-009 0.3967991
5.5e-009 0.3389682
5.75e-009 0.2689552
6e-009 0.1865479
6.25e-009 0.1009126
6.5e-009 0.01088629
6.75e-009 -0.07800277
7e-009 -0.1609128
7.25e-009 -0.2369576
7.5e-009 -0.303836
7.75e-009 -0.3572087
8e-009 -0.3993796
8.25e-009 -0.4327503
8.5e-009 -0.458441
8.75e-009 -0.4761795
9e-009 -0.4889012
9.25e-009 -0.496506
9.5e-009 -0.5013207
9.75e-009 -0.5037685
1e-008 -0.503967
1.025e-008 -0.5030805
1.05e-008 -0.5025251
1.075e-008 -0.5023655
1.1e-008 -0.5016117
1.125e-008 -0.5010956
1.15e-008 -0.5009898
1.175e-008 -0.5015058
1.2e-008 -0.5012017
1.225e-008 -0.5017306
1.25e-008 -0.5021412
1.275e-008 -0.5026962
1.3e-008 -0.5028949
1.325e-008 -0.5031594
1.35e-008 -0.5032259
1.375e-008 -0.5034502
1.4e-008 -0.5036225
1.425e-008 -0.5037149
1.45e-008 -0.5033317
1.475e-008 -0.5033183
1.5e-008 -0.5024977
1.525e-008 -0.5024982
1.55e-008 -0.5018634
1.575e-008 -0.5015858
1.6e-008 -0.5008577
1.625e-008 -0.5004486
1.65e-008 -0.4994821
1.675e-008 -0.4994694
1.7e-008 -0.4989794
1.725e-008 -0.4990059
1.75e-008 -0.4981327
1.775e-008 -0.4980277
1.8e-008 -0.4973788
1.825e-008 -0.4976707
1.85e-008 -0.496969
1.875e-008 -0.4965726
1.9e-008 -0.4963605
1.925e-008 -0.4964266
1.95e-008 -0.4958054
1.975e-008 -0.4955012
2e-008 -0.4955801
2.025e-008 -0.4953686
2.05e-008 -0.4949452
2.075e-008 -0.4949457
2.1e-008 -0.4948527
2.125e-008 -0.4947734
2.15e-008 -0.4944954
2.175e-008 -0.4946544
2.2e-008 -0.4943633
2.225e-008 -0.4942706
2.25e-008 -0.4942312
2.275e-008 -0.4942973
2.3e-008 -0.4940987
2.325e-008 -0.4940327
2.35e-008 -0.494099
2.375e-008 -0.4939141
2.4e-008 -0.4937944
2.425e-008 -0.4939798
2.45e-008 -0.4938341
2.475e-008 -0.4940461
2.5e-008 -0.4937547
2.525e-008 -0.4938077
2.55e-008 -0.4938078
2.575e-008 -0.4939271
2.6e-008 -0.4937151
2.625e-008 -0.493768
2.65e-008 -0.4936621
2.675e-008 -0.4937815
2.7e-008 -0.4934773
2.725e-008 -0.493702
2.75e-008 -0.4937418
2.775e-008 -0.4938741
2.8e-008 -0.4936227
2.825e-008 -0.4937154
2.85e-008 -0.4936225
2.875e-008 -0.4938208
2.9e-008 -0.4934375
2.925e-008 -0.4936357
2.95e-008 -0.4936755
2.975e-008 -0.4937019
3e-008 -0.4932652
3.025e-008 -0.4937945
3.05e-008 -0.4936888
3.075e-008 -0.4936489
3.1e-008 -0.493345
3.125e-008 -0.4936093
3.15e-008 -0.4936092
3.175e-008 -0.493596
3.2e-008 -0.4933977
3.225e-008 -0.4935964
3.25e-008 -0.4934508
3.275e-008 -0.4937284
3.3e-008 -0.4935165
3.325e-008 -0.4937681
3.35e-008 -0.4936227
3.375e-008 -0.4938211
3.4e-008 -0.4934643
3.425e-008 -0.4936488
3.45e-008 -0.4933316
3.475e-008 -0.4937153
3.5e-008 -0.4934244
3.525e-008 -0.4937154
3.55e-008 -0.4933319
3.575e-008 -0.4932786
3.6e-008 -0.493239
3.625e-008 -0.4933846
3.65e-008 -0.4931726
3.675e-008 -0.4931463
3.7e-008 -0.4930669
3.725e-008 -0.4931595
3.75e-008 -0.4928685
3.775e-008 -0.4928685
3.8e-008 -0.4926569
3.825e-008 -0.4927494
3.85e-008 -0.4927494
3.875e-008 -0.492657
3.9e-008 -0.4924188
3.925e-008 -0.4926039
3.95e-008 -0.4925908
3.975e-008 -0.4925907
4e-008 -0.4923261
4.025e-008 -0.4924583
4.05e-008 -0.4923657
4.075e-008 -0.4925246
4.1e-008 -0.4923261
4.125e-008 -0.4924851
4.15e-008 -0.4922866
4.175e-008 -0.4925244
4.2e-008 -0.492088
4.225e-008 -0.4922995
4.25e-008 -0.4922735
4.275e-008 -0.4926306
4.3e-008 -0.4923657
4.325e-008 -0.4925113
4.35e-008 -0.4923524
4.375e-008 -0.4927891
4.4e-008 -0.4924846
4.425e-008 -0.4926436
4.45e-008 -0.49267
4.475e-008 -0.492961
4.5e-008 -0.4928556
4.525e-008 -0.4928421
4.55e-008 -0.4927495
4.575e-008 -0.4931065
4.6e-008 -0.4930408
4.625e-008 -0.4931327
4.65e-008 -0.4932256
4.675e-008 -0.4931731
4.7e-008 -0.4931199
4.725e-008 -0.4931857
4.75e-008 -0.4932655
4.775e-008 -0.4932652
4.8e-008 -0.4931066
4.825e-008 -0.493411
4.85e-008 -0.4932921
4.875e-008 -0.4934371
4.9e-008 -0.4931066
4.925e-008 -0.4935299
4.95e-008 -0.4932786
4.975e-008 -0.4934902
5e-008 -0.4932123
5.025e-008 -0.4936359
5.05e-008 -0.4932126
5.075e-008 -0.4936359
5.1e-008 -0.4934904
5.125e-008 -0.4936224
5.15e-008 -0.4934239
5.175e-008 -0.4936492
5.2e-008 -0.4935699
5.225e-008 -0.4937816
5.25e-008 -0.4935436
5.275e-008 -0.4938742
5.3e-008 -0.4935959
5.325e-008 -0.4939399
5.35e-008 -0.4937019
5.375e-008 -0.4938078
5.4e-008 -0.4936492
5.425e-008 -0.4938737
5.45e-008 -0.4936621
5.475e-008 -0.493874
5.5e-008 -0.4935035
5.525e-008 -0.4937413
5.55e-008 -0.4937548
5.575e-008 -0.4939401
5.6e-008 -0.4935299
5.625e-008 -0.4939267
5.65e-008 -0.4939268
5.675e-008 -0.4939002
5.7e-008 -0.4936492
5.725e-008 -0.4937947
5.75e-008 -0.4938475
5.775e-008 -0.4937148
5.8e-008 -0.4937021
5.825e-008 -0.4937418
5.85e-008 -0.4938738
5.875e-008 -0.4935562
5.9e-008 -0.4935301
5.925e-008 -0.4936093
5.95e-008 -0.4938344
5.975e-008 -0.4934244
6e-008 -0.4934635
6.025e-008 -0.4935036
6.05e-008 -0.4935961
6.075e-008 -0.4934506
6.1e-008 -0.4934903
6.125e-008 -0.4934375
6.15e-008 -0.4933848
6.175e-008 -0.4935035
6.2e-008 -0.4933713
6.225e-008 -0.4934773
6.25e-008 -0.4932787
6.275e-008 -0.4935035
6.3e-008 -0.4932389
6.325e-008 -0.4934505
6.35e-008 -0.4932919
6.375e-008 -0.4934901
6.4e-008 -0.4931592
6.425e-008 -0.4934508
6.45e-008 -0.4932919
6.475e-008 -0.4935829
6.5e-008 -0.4932785
6.525e-008 -0.4935433
6.55e-008 -0.4933448
6.575e-008 -0.4934639
6.6e-008 -0.4935036
6.625e-008 -0.4936224
6.65e-008 -0.4933976
6.675e-008 -0.4934903
6.7e-008 -0.4934638
6.725e-008 -0.4935168
6.75e-008 -0.4935036
6.775e-008 -0.4936888
6.8e-008 -0.4936621
6.825e-008 -0.4935698
6.85e-008 -0.4934772
6.875e-008 -0.4936488
6.9e-008 -0.4935166
6.925e-008 -0.4936488
6.95e-008 -0.4935699
6.975e-008 -0.4937815
7e-008 -0.493477
7.025e-008 -0.4936753
7.05e-008 -0.4934772
7.075e-008 -0.4937282
7.1e-008 -0.4933184
7.125e-008 -0.4936492
7.15e-008 -0.4935037
7.175e-008 -0.4939269
7.2e-008 -0.4936356
7.225e-008 -0.4936624
7.25e-008 -0.4936492
7.275e-008 -0.4940853
7.3e-008 -0.4935434
7.325e-008 -0.4937286
7.35e-008 -0.4936224
7.375e-008 -0.493927
7.4e-008 -0.493583
7.425e-008 -0.4937415
7.45e-008 -0.4937815
7.475e-008 -0.4938737
7.5e-008 -0.4935962
7.525e-008 -0.4938206
7.55e-008 -0.4938343
7.575e-008 -0.4938345
7.6e-008 -0.493636
7.625e-008 -0.4939665
7.65e-008 -0.4940194
7.675e-008 -0.4940724
7.7e-008 -0.4940064
7.725e-008 -0.4940724
7.75e-008 -0.4941253
7.775e-008 -0.4941915
7.8e-008 -0.4940194
7.825e-008 -0.4939798
7.85e-008 -0.4940986
7.875e-008 -0.4940987
7.9e-008 -0.4939134
7.925e-008 -0.4938473
7.95e-008 -0.4941516
7.975e-008 -0.4942179
8e-008 -0.4937073
