3.886735e-05,
2.543000e-04,
2.495875e-04,
-1.196902e-05,
1.579456e-04,
2.747399e-04,
4.753711e-04,
1.012529e-03,
2.482326e-03,
5.482940e-03,
1.163467e-02,
2.252361e-02,
3.976992e-02,
6.853044e-02,
1.177747e-01,
1.891886e-01,
2.753744e-01,
3.743472e-01,
5.051065e-01,
6.470658e-01,
7.610929e-01,
8.356020e-01,
9.105633e-01,
9.780795e-01,
1.000000e+00,
9.787860e-01,
9.627638e-01,
9.548608e-01,
9.269163e-01,
8.772029e-01,
8.345190e-01,
8.048972e-01,
7.686420e-01,
7.211474e-01,
6.763200e-01,
6.416076e-01,
6.070639e-01,
5.652692e-01,
5.247433e-01,
4.943735e-01,
4.676591e-01,
4.346859e-01,
4.010022e-01,
3.759216e-01,
3.536203e-01,
3.264662e-01,
2.991620e-01,
2.783869e-01,
2.606100e-01,
2.411356e-01,
2.222677e-01,
2.079141e-01,
1.952149e-01,
1.827106e-01,
1.704812e-01,
1.605655e-01,
1.518179e-01,
1.437802e-01,
1.357891e-01,
1.296626e-01,
1.247396e-01,
1.208352e-01,
1.161126e-01,
1.125114e-01,
1.105527e-01,
1.084629e-01,
1.055133e-01,
1.029337e-01,
1.014093e-01,
9.987032e-02,
9.685005e-02,
9.348503e-02,
9.078250e-02,
8.817095e-02,
8.410681e-02,
7.998633e-02,
7.624633e-02,
7.229122e-02,
6.801132e-02,
6.370135e-02,
5.944333e-02,
5.575815e-02,
5.222803e-02,
4.884598e-02,
4.586941e-02,
4.286942e-02,
4.009445e-02,
3.757798e-02,
3.523632e-02,
3.347448e-02,
3.196987e-02,
3.068146e-02,
2.938686e-02,
2.862904e-02,
2.755907e-02,
2.684513e-02,
2.583556e-02,
2.492664e-02,
2.433932e-02,
2.377395e-02,
2.326423e-02,
2.280355e-02,
2.236049e-02,
2.173116e-02,
2.144786e-02,
2.096284e-02,
2.073255e-02,
2.040786e-02,
1.977504e-02,
1.927253e-02,
1.885638e-02,
1.815864e-02,
1.726896e-02,
1.694949e-02,
1.622501e-02,
1.580826e-02,
1.508845e-02,
1.416467e-02,
1.352163e-02,
1.287081e-02,
1.237595e-02,
1.149178e-02,
1.108586e-02,
1.031908e-02,
9.827749e-03,
9.034400e-03,
8.536636e-03,
8.148792e-03,
7.813163e-03,
7.633849e-03,
7.570608e-03,
7.378090e-03,
7.056784e-03,
6.897057e-03,
6.789244e-03,
6.617671e-03,
6.514530e-03,
6.300290e-03,
6.225623e-03,
6.002013e-03,
6.038380e-03,
5.871181e-03,
5.937052e-03,
5.645776e-03,
5.856554e-03,
5.724452e-03,
5.427291e-03,
5.232620e-03,
5.086449e-03,
4.869986e-03,
4.877328e-03,
4.617943e-03,
4.415513e-03,
4.419240e-03,
4.225984e-03,
4.054411e-03,
3.940126e-03,
3.592150e-03,
3.484050e-03,
3.286444e-03,
3.233654e-03,
2.962439e-03,
3.024594e-03,
2.603299e-03,
2.565181e-03,
2.485087e-03,
2.325376e-03,
2.305304e-03,
2.404314e-03,
2.336446e-03,
2.291780e-03,
2.251571e-03,
1.997133e-03,
2.075157e-03,
1.893047e-03,
1.988944e-03,
2.056687e-03,
1.883311e-03,
2.076115e-03,
1.856220e-03,
1.822004e-03,
1.818260e-03,
1.932423e-03,
1.734019e-03,
1.896504e-03,
1.801551e-03,
1.556398e-03,
1.332008e-03,
1.431018e-03,
1.374295e-03,
1.418785e-03,
1.378577e-03,
1.432473e-03,
1.436200e-03,
1.179792e-03,
1.275689e-03,
1.280280e-03,
1.110618e-03,
1.113964e-03,
9.572216e-04,
9.935886e-04,
8.932574e-04,
9.219787e-04,
7.012858e-04,
8.191923e-04,
8.319702e-04,
8.134242e-04,
6.076085e-04,
8.812179e-04,
8.579282e-04,
9.395674e-04,
8.473508e-04,
7.266481e-04,
1.098147e-03,
1.083206e-03,
1.424284e-03,
1.707490e-03,
1.801584e-03,
2.142982e-03,
2.268570e-03,
2.420098e-03,
2.561233e-03,
2.675397e-03,
2.532716e-03,
2.765783e-03,
2.685690e-03,
2.611421e-03,
2.554200e-03,
2.556624e-03,
2.473896e-03,
2.473808e-03,
2.548761e-03,
2.416913e-03,
2.546946e-03,
2.294253e-03,
2.475592e-03,
2.357592e-03,
2.169356e-03,
2.232139e-03,
2.067967e-03,
2.145198e-03,
2.074586e-03,
2.029010e-03,
1.953197e-03,
1.903934e-03,
1.760687e-03,
1.586117e-03,
1.514037e-03,
1.423589e-03,
1.299998e-03,
1.422500e-03,
1.478879e-03,
1.358176e-03,
1.157585e-03,
1.090635e-03,
9.896444e-04,
9.868051e-04,
9.843126e-04,
1.139968e-03,
1.001800e-03,
9.935886e-04,
8.709682e-04,
9.182639e-04,
5.452613e-04,
8.191923e-04,
7.911067e-04,
6.908335e-04,
5.518855e-04,
6.286069e-04,
4.864413e-04,
4.306304e-04,
5.464465e-04,
3.960248e-04,
5.854950e-04,
5.074009e-04,
4.064101e-04,
4.481491e-04,
2.561983e-04,
3.858495e-04,
2.922601e-04,
3.434866e-04,
4.400434e-04,
4.390458e-04,
4.152409e-04,
6.111596e-04,
3.824711e-04,
2.673385e-04,
-1.648940e-05,
2.756943e-04,
1.743923e-04,
-7.724098e-06,
8.208788e-05,
2.825280e-05,
1.657149e-04,
1.359140e-04,
2.652451e-04,
2.809800e-04,
1.521820e-04,
5.522618e-05,
1.919587e-04,
