xpm_cdc.sv,systemverilog,xpm,../../../../../../../../../Xilinx/Vivado/Vivado/2024.1/data/ip/xpm/xpm_cdc/hdl/xpm_cdc.sv,
xpm_fifo.sv,systemverilog,xpm,../../../../../../../../../Xilinx/Vivado/Vivado/2024.1/data/ip/xpm/xpm_fifo/hdl/xpm_fifo.sv,
xpm_memory.sv,systemverilog,xpm,../../../../../../../../../Xilinx/Vivado/Vivado/2024.1/data/ip/xpm/xpm_memory/hdl/xpm_memory.sv,
xpm_VCOMP.vhd,vhdl,xpm,../../../../../../../../../Xilinx/Vivado/Vivado/2024.1/data/ip/xpm/xpm_VCOMP.vhd,
xbip_utils_v3_0_vh_rfs.vhd,vhdl,xbip_utils_v3_0_13,../../../ipstatic/hdl/xbip_utils_v3_0_vh_rfs.vhd,
c_reg_fd_v12_0_vh_rfs.vhd,vhdl,c_reg_fd_v12_0_9,../../../ipstatic/hdl/c_reg_fd_v12_0_vh_rfs.vhd,
c_mux_bit_v12_0_vh_rfs.vhd,vhdl,c_mux_bit_v12_0_9,../../../ipstatic/hdl/c_mux_bit_v12_0_vh_rfs.vhd,
c_shift_ram_v12_0_vh_rfs.vhd,vhdl,c_shift_ram_v12_0_17,../../../ipstatic/hdl/c_shift_ram_v12_0_vh_rfs.vhd,
c_shift_ram_0.vhd,vhdl,xil_defaultlib,../../../ip/c_shift_ram_0/sim/c_shift_ram_0.vhd,
glbl.v,Verilog,xil_defaultlib,glbl.v
