\relax 
\@writefile{toc}{\contentsline {section}{\numberline {1}Introduction}{1}{}\protected@file@percent }
\@writefile{toc}{\contentsline {section}{\numberline {2}Hardware description}{1}{}\protected@file@percent }
\@writefile{toc}{\contentsline {subsection}{\numberline {2.1}Laser shape digitization}{1}{}\protected@file@percent }
\@writefile{toc}{\contentsline {subsection}{\numberline {2.2}FE board interface}{1}{}\protected@file@percent }
\@writefile{toc}{\contentsline {subsection}{\numberline {2.3}Laser trigger outputs}{1}{}\protected@file@percent }
\@writefile{toc}{\contentsline {subsection}{\numberline {2.4}Laser acknowledge inputs}{2}{}\protected@file@percent }
\@writefile{toc}{\contentsline {subsection}{\numberline {2.5}FPGA choice}{2}{}\protected@file@percent }
\@writefile{toc}{\contentsline {subsection}{\numberline {2.6}Power supplies}{2}{}\protected@file@percent }
\@writefile{toc}{\contentsline {section}{\numberline {3}Firmware description}{2}{}\protected@file@percent }
\@writefile{toc}{\contentsline {subsection}{\numberline {3.1}IPbus}{2}{}\protected@file@percent }
\@writefile{toc}{\contentsline {subsection}{\numberline {3.2}ADC management}{2}{}\protected@file@percent }
\@writefile{toc}{\contentsline {subsection}{\numberline {3.3}DTU simulation and management}{2}{}\protected@file@percent }
\@writefile{toc}{\contentsline {subsection}{\numberline {3.4}FE interface}{2}{}\protected@file@percent }
\@writefile{toc}{\contentsline {subsection}{\numberline {3.5}Trigger management}{2}{}\protected@file@percent }
\@writefile{toc}{\contentsline {subsection}{\numberline {3.6}Temperature and humidity sensor management}{2}{}\protected@file@percent }
\@writefile{toc}{\contentsline {subsection}{\numberline {3.7}Spying events}{2}{}\protected@file@percent }
\@writefile{toc}{\contentsline {subsection}{\numberline {3.8}Controlling the board}{2}{}\protected@file@percent }
\bibcite{test_socket}{1}
\bibcite{IPbus}{2}
\@writefile{toc}{\contentsline {section}{\numberline {4}Software description}{3}{}\protected@file@percent }
\@writefile{toc}{\contentsline {section}{\numberline {5}Conclusions}{3}{}\protected@file@percent }
\@writefile{toc}{\contentsline {section}{\numberline {6}Annexes}{3}{}\protected@file@percent }
\@writefile{toc}{\contentsline {subsection}{\numberline {6.1}Register list}{3}{}\protected@file@percent }
\@writefile{lot}{\contentsline {table}{\numberline {1}{\ignorespaces List of LMB control registers accessible through IPBus protocol}}{3}{}\protected@file@percent }
\gdef \@abspage@last{4}
