Copyright 1986-2022 Xilinx, Inc. All Rights Reserved. Copyright 2022-2024 Advanced Micro Devices, Inc. All Rights Reserved.
---------------------------------------------------------------------------------------------------------------------------------------------
| Tool Version : Vivado v.2024.1.1 (lin64) Build 5094488 Fri Jun 14 08:57:50 MDT 2024
| Date         : Wed Mar  5 09:57:22 2025
| Host         : spppcj166.extra.cea.fr running 64-bit Fedora release 40 (Forty)
| Command      : report_utilization -file LMB_utilization_synth.rpt -pb LMB_utilization_synth.pb
| Design       : LMB
| Device       : xcku035-fbva676-1-c
| Speed File   : -1
| Design State : Synthesized
---------------------------------------------------------------------------------------------------------------------------------------------

Utilization Design Information

Table of Contents
-----------------
1. CLB Logic
1.1 Summary of Registers by Type
2. BLOCKRAM
3. ARITHMETIC
4. I/O
5. CLOCK
6. ADVANCED
7. CONFIGURATION
8. Primitives
9. Black Boxes
10. Instantiated Netlists

1. CLB Logic
------------

+----------------------------+-------+-------+------------+-----------+-------+
|          Site Type         |  Used | Fixed | Prohibited | Available | Util% |
+----------------------------+-------+-------+------------+-----------+-------+
| CLB LUTs*                  | 22868 |     0 |          0 |    203128 | 11.26 |
|   LUT as Logic             | 21996 |     0 |          0 |    203128 | 10.83 |
|   LUT as Memory            |   872 |     0 |          0 |    112800 |  0.77 |
|     LUT as Distributed RAM |   500 |     0 |            |           |       |
|     LUT as Shift Register  |   372 |     0 |            |           |       |
| CLB Registers              | 18015 |     0 |          0 |    406256 |  4.43 |
|   Register as Flip Flop    | 18011 |     0 |          0 |    406256 |  4.43 |
|   Register as Latch        |     4 |     0 |          0 |    406256 | <0.01 |
| CARRY8                     |   416 |     0 |          0 |     30300 |  1.37 |
| F7 Muxes                   |    47 |     0 |          0 |    121200 |  0.04 |
| F8 Muxes                   |    11 |     0 |          0 |     60600 |  0.02 |
| F9 Muxes                   |     0 |     0 |          0 |     30300 |  0.00 |
+----------------------------+-------+-------+------------+-----------+-------+
* Warning! The Final LUT count, after physical optimizations and full implementation, is typically lower. Run opt_design after synthesis, if not already completed, for a more realistic count.
Warning! LUT value is adjusted to account for LUT combining.
Warning! For any ECO changes, please run place_design if there are unplaced instances


1.1 Summary of Registers by Type
--------------------------------

+-------+--------------+-------------+--------------+
| Total | Clock Enable | Synchronous | Asynchronous |
+-------+--------------+-------------+--------------+
| 0     |            _ |           - |            - |
| 0     |            _ |           - |          Set |
| 0     |            _ |           - |        Reset |
| 0     |            _ |         Set |            - |
| 0     |            _ |       Reset |            - |
| 0     |          Yes |           - |            - |
| 2012  |          Yes |           - |          Set |
| 5733  |          Yes |           - |        Reset |
| 584   |          Yes |         Set |            - |
| 9686  |          Yes |       Reset |            - |
+-------+--------------+-------------+--------------+


2. BLOCKRAM
-----------

+-------------------+------+-------+------------+-----------+-------+
|     Site Type     | Used | Fixed | Prohibited | Available | Util% |
+-------------------+------+-------+------------+-----------+-------+
| Block RAM Tile    | 16.5 |     0 |          0 |       540 |  3.06 |
|   RAMB36/FIFO*    |   16 |     0 |          0 |       540 |  2.96 |
|     RAMB36E2 only |   16 |       |            |           |       |
|   RAMB18          |    1 |     0 |          0 |      1080 |  0.09 |
|     RAMB18E2 only |    1 |       |            |           |       |
+-------------------+------+-------+------------+-----------+-------+
* Note: Each Block RAM Tile only has one FIFO logic available and therefore can accommodate only one FIFO36E2 or one FIFO18E2. However, if a FIFO18E2 occupies a Block RAM Tile, that tile can still accommodate a RAMB18E2


3. ARITHMETIC
-------------

+-----------+------+-------+------------+-----------+-------+
| Site Type | Used | Fixed | Prohibited | Available | Util% |
+-----------+------+-------+------------+-----------+-------+
| DSPs      |    0 |     0 |          0 |      1700 |  0.00 |
+-----------+------+-------+------------+-----------+-------+


4. I/O
------

+------------+------+-------+------------+-----------+-------+
|  Site Type | Used | Fixed | Prohibited | Available | Util% |
+------------+------+-------+------------+-----------+-------+
| Bonded IOB |   93 |     0 |          0 |       312 | 29.81 |
+------------+------+-------+------------+-----------+-------+


5. CLOCK
--------

+------------+------+-------+------------+-----------+-------+
|  Site Type | Used | Fixed | Prohibited | Available | Util% |
+------------+------+-------+------------+-----------+-------+
| BUFGCE     |    0 |     0 |          0 |       240 |  0.00 |
| BUFGCE_DIV |    2 |     0 |          0 |        40 |  5.00 |
| BUFG_GT    |    0 |     0 |          0 |       120 |  0.00 |
| BUFGCTRL*  |    0 |     0 |          0 |        80 |  0.00 |
| PLLE3_ADV  |    0 |     0 |          0 |        20 |  0.00 |
| MMCME3_ADV |    1 |     0 |          0 |        10 | 10.00 |
+------------+------+-------+------------+-----------+-------+
* Note: Each used BUFGCTRL counts as two GLOBAL CLOCK BUFFERs. This table does not include global clocking resources, only buffer cell usage. See the Clock Utilization Report (report_clock_utilization) for detailed accounting of global clocking resource availability.


6. ADVANCED
-----------

+-----------------+------+-------+------------+-----------+--------+
|    Site Type    | Used | Fixed | Prohibited | Available |  Util% |
+-----------------+------+-------+------------+-----------+--------+
| GTHE3_CHANNEL   |    0 |     0 |          0 |        16 |   0.00 |
| GTHE3_COMMON    |    0 |     0 |          0 |         4 |   0.00 |
| IBUFDS_GTE3     |    3 |     0 |          0 |         8 |  37.50 |
| OBUFDS_GTE3     |    0 |     0 |          0 |         8 |   0.00 |
| OBUFDS_GTE3_ADV |    0 |     0 |          0 |         8 |   0.00 |
| PCIE_3_1        |    0 |     0 |          0 |         2 |   0.00 |
| SYSMONE1        |    1 |     0 |          0 |         1 | 100.00 |
+-----------------+------+-------+------------+-----------+--------+


7. CONFIGURATION
----------------

+-------------+------+-------+------------+-----------+-------+
|  Site Type  | Used | Fixed | Prohibited | Available | Util% |
+-------------+------+-------+------------+-----------+-------+
| BSCANE2     |    0 |     0 |          0 |         4 |  0.00 |
| DNA_PORTE2  |    0 |     0 |          0 |         1 |  0.00 |
| EFUSE_USR   |    0 |     0 |          0 |         1 |  0.00 |
| FRAME_ECCE3 |    0 |     0 |          0 |         1 |  0.00 |
| ICAPE3      |    0 |     0 |          0 |         2 |  0.00 |
| MASTER_JTAG |    0 |     0 |          0 |         1 |  0.00 |
| STARTUPE3   |    0 |     0 |          0 |         1 |  0.00 |
+-------------+------+-------+------------+-----------+-------+


8. Primitives
-------------

+-------------+-------+---------------------+
|   Ref Name  |  Used | Functional Category |
+-------------+-------+---------------------+
| LUT6        | 10539 |                 CLB |
| FDRE        |  9686 |            Register |
| FDCE        |  5733 |            Register |
| LUT5        |  4870 |                 CLB |
| LUT3        |  4294 |                 CLB |
| LUT4        |  4222 |                 CLB |
| LUT2        |  2370 |                 CLB |
| FDPE        |  2008 |            Register |
| RAMD32      |   850 |                 CLB |
| FDSE        |   584 |            Register |
| LUT1        |   553 |                 CLB |
| CARRY8      |   416 |                 CLB |
| SRLC32E     |   343 |                 CLB |
| RAMS32      |   150 |                 CLB |
| OBUF        |    68 |                 I/O |
| MUXF7       |    47 |                 CLB |
| SRL16E      |    29 |                 CLB |
| RAMB36E2    |    16 |            BLOCKRAM |
| IBUFCTRL    |    14 |              Others |
| INBUF       |    12 |                 I/O |
| MUXF8       |    11 |                 CLB |
| OBUFT       |     9 |                 I/O |
| OSERDESE3   |     8 |                 I/O |
| ODELAYE3    |     8 |                 I/O |
| IBUF_ANALOG |     6 |                 I/O |
| LDPE        |     4 |            Register |
| IBUFDS_GTE3 |     3 |            Advanced |
| INV         |     2 |                 CLB |
| DIFFINBUF   |     2 |                 I/O |
| BUFGCE_DIV  |     2 |               Clock |
| SYSMONE1    |     1 |            Advanced |
| RAMB18E2    |     1 |            BLOCKRAM |
| MMCME3_ADV  |     1 |               Clock |
| IDELAYCTRL  |     1 |                 I/O |
+-------------+-------+---------------------+


9. Black Boxes
--------------

+---------------------------------+------+
|             Ref Name            | Used |
+---------------------------------+------+
| c_shift_ram_0                   |    3 |
| blk_mem_128b                    |    3 |
| tri_mode_ethernet_mac_0         |    1 |
| jesd204_phy_ADC3                |    1 |
| jesd204_phy_ADC2                |    1 |
| jesd204_phy_ADC1                |    1 |
| high_speed_selectio_wiz_Bank_66 |    1 |
| high_speed_selectio_wiz_Bank_46 |    1 |
| gig_ethernet_pcs_pma_0          |    1 |
| clk_generator_main              |    1 |
| clk_generator_ethernet          |    1 |
| FIFO_mem_gen                    |    1 |
+---------------------------------+------+


10. Instantiated Netlists
-------------------------

+----------+------+
| Ref Name | Used |
+----------+------+


